\relax 
\@writefile{toc}{\contentsline {paragraph}{Preamble}{1}}
\@writefile{toc}{\contentsline {paragraph}{The data}{1}}
\@writefile{toc}{\contentsline {paragraph}{Finance:}{1}}
\@writefile{lof}{\contentsline {figure}{\numberline {1}{\ignorespaces Some financial data.}}{1}}
\newlabel{fig:findat}{{1}{1}}
\@writefile{toc}{\contentsline {paragraph}{Mackey-Glass chaotic system:}{1}}
\@writefile{lof}{\contentsline {figure}{\numberline {2}{\ignorespaces The Mackey-Glass sequence. you can train on the blue and use this to forecast the red.}}{2}}
\newlabel{fig:mg}{{2}{2}}
