%!PS-Adobe-2.0 EPSF-1.2
%%Creator: MATLAB, The MathWorks, Inc. Version 8.1.0.604 (R2013a). Operating System: Linux 3.13.0-37-generic #64-Ubuntu SMP Mon Sep 22 21:28:38 UTC 2014 x86_64.
%%Title: ./co2.eps
%%CreationDate: 10/28/2014  16:41:04
%%DocumentNeededFonts: Helvetica
%%DocumentProcessColors: Cyan Magenta Yellow Black
%%Extensions: CMYK
%%Pages: 1
%%BoundingBox:    73   215   554   589
%%EndComments

%%BeginProlog
% MathWorks dictionary
/MathWorks 160 dict begin
% definition operators
/bdef {bind def} bind def
/ldef {load def} bind def
/xdef {exch def} bdef
/xstore {exch store} bdef
% operator abbreviations
/c  /clip ldef
/cc /concat ldef
/cp /closepath ldef
/gr /grestore ldef
/gs /gsave ldef
/mt /moveto ldef
/np /newpath ldef
/cm /currentmatrix ldef
/sm /setmatrix ldef
/rm /rmoveto ldef
/rl /rlineto ldef
/s {show newpath} bdef
/sc {setcmykcolor} bdef
/sr /setrgbcolor ldef
/sg /setgray ldef
/w /setlinewidth ldef
/j /setlinejoin ldef
/cap /setlinecap ldef
/rc {rectclip} bdef
/rf {rectfill} bdef
% page state control
/pgsv () def
/bpage {/pgsv save def} bdef
/epage {pgsv restore} bdef
/bplot /gsave ldef
/eplot {stroke grestore} bdef
% orientation switch
/portraitMode 0 def /landscapeMode 1 def /rotateMode 2 def
% coordinate system mappings
/dpi2point 0 def
% font control
/FontSize 0 def
/FMS {/FontSize xstore findfont [FontSize 0 0 FontSize neg 0 0]
  makefont setfont} bdef
/reencode {exch dup where {pop load} {pop StandardEncoding} ifelse
  exch dup 3 1 roll findfont dup length dict begin
  { 1 index /FID ne {def}{pop pop} ifelse } forall
  /Encoding exch def currentdict end definefont pop} bdef
/isroman {findfont /CharStrings get /Agrave known} bdef
/FMSR {3 1 roll 1 index dup isroman {reencode} {pop pop} ifelse
  exch FMS} bdef
/csm {1 dpi2point div -1 dpi2point div scale neg translate
 dup landscapeMode eq {pop -90 rotate}
  {rotateMode eq {90 rotate} if} ifelse} bdef
% line types: solid, dotted, dashed, dotdash
/SO { [] 0 setdash } bdef
/DO { [.5 dpi2point mul 4 dpi2point mul] 0 setdash } bdef
/DA { [6 dpi2point mul] 0 setdash } bdef
/DD { [.5 dpi2point mul 4 dpi2point mul 6 dpi2point mul 4
  dpi2point mul] 0 setdash } bdef
% macros for lines and objects
/L {lineto stroke} bdef
/MP {3 1 roll moveto 1 sub {rlineto} repeat} bdef
/AP {{rlineto} repeat} bdef
/PDlw -1 def
/W {/PDlw currentlinewidth def setlinewidth} def
/PP {closepath eofill} bdef
/DP {closepath stroke} bdef
/MR {4 -2 roll moveto dup  0 exch rlineto exch 0 rlineto
  neg 0 exch rlineto closepath} bdef
/FR {MR stroke} bdef
/PR {MR fill} bdef
/L1i {{currentfile picstr readhexstring pop} image} bdef
/tMatrix matrix def
/MakeOval {newpath tMatrix currentmatrix pop translate scale
0 0 1 0 360 arc tMatrix setmatrix} bdef
/FO {MakeOval stroke} bdef
/PO {MakeOval fill} bdef
/PD {currentlinewidth 2 div 0 360 arc fill
   PDlw -1 eq not {PDlw w /PDlw -1 def} if} def
/FA {newpath tMatrix currentmatrix pop translate scale
  0 0 1 5 -2 roll arc tMatrix setmatrix stroke} bdef
/PA {newpath tMatrix currentmatrix pop	translate 0 0 moveto scale
  0 0 1 5 -2 roll arc closepath tMatrix setmatrix fill} bdef
/FAn {newpath tMatrix currentmatrix pop translate scale
  0 0 1 5 -2 roll arcn tMatrix setmatrix stroke} bdef
/PAn {newpath tMatrix currentmatrix pop translate 0 0 moveto scale
  0 0 1 5 -2 roll arcn closepath tMatrix setmatrix fill} bdef
/vradius 0 def /hradius 0 def /lry 0 def
/lrx 0 def /uly 0 def /ulx 0 def /rad 0 def
/MRR {/vradius xdef /hradius xdef /lry xdef /lrx xdef /uly xdef
  /ulx xdef newpath tMatrix currentmatrix pop ulx hradius add uly
  vradius add translate hradius vradius scale 0 0 1 180 270 arc 
  tMatrix setmatrix lrx hradius sub uly vradius add translate
  hradius vradius scale 0 0 1 270 360 arc tMatrix setmatrix
  lrx hradius sub lry vradius sub translate hradius vradius scale
  0 0 1 0 90 arc tMatrix setmatrix ulx hradius add lry vradius sub
  translate hradius vradius scale 0 0 1 90 180 arc tMatrix setmatrix
  closepath} bdef
/FRR {MRR stroke } bdef
/PRR {MRR fill } bdef
/MlrRR {/lry xdef /lrx xdef /uly xdef /ulx xdef /rad lry uly sub 2 div def
  newpath tMatrix currentmatrix pop ulx rad add uly rad add translate
  rad rad scale 0 0 1 90 270 arc tMatrix setmatrix lrx rad sub lry rad
  sub translate rad rad scale 0 0 1 270 90 arc tMatrix setmatrix
  closepath} bdef
/FlrRR {MlrRR stroke } bdef
/PlrRR {MlrRR fill } bdef
/MtbRR {/lry xdef /lrx xdef /uly xdef /ulx xdef /rad lrx ulx sub 2 div def
  newpath tMatrix currentmatrix pop ulx rad add uly rad add translate
  rad rad scale 0 0 1 180 360 arc tMatrix setmatrix lrx rad sub lry rad
  sub translate rad rad scale 0 0 1 0 180 arc tMatrix setmatrix
  closepath} bdef
/FtbRR {MtbRR stroke } bdef
/PtbRR {MtbRR fill } bdef
/stri 6 array def /dtri 6 array def
/smat 6 array def /dmat 6 array def
/tmat1 6 array def /tmat2 6 array def /dif 3 array def
/asub {/ind2 exch def /ind1 exch def dup dup
  ind1 get exch ind2 get sub exch } bdef
/tri_to_matrix {
  2 0 asub 3 1 asub 4 0 asub 5 1 asub
  dup 0 get exch 1 get 7 -1 roll astore } bdef
/compute_transform {
  dmat dtri tri_to_matrix tmat1 invertmatrix 
  smat stri tri_to_matrix tmat2 concatmatrix } bdef
/ds {stri astore pop} bdef
/dt {dtri astore pop} bdef
/db {2 copy /cols xdef /rows xdef mul dup 3 mul string
  currentfile exch readhexstring pop
  dup 0 3 index getinterval /rbmap xdef
  dup 2 index dup getinterval /gbmap xdef
  1 index dup 2 mul exch getinterval /bbmap xdef pop pop}bdef
/it {gs np dtri aload pop moveto lineto lineto cp c
  cols rows 8 compute_transform 
  rbmap gbmap bbmap true 3 colorimage gr}bdef
/il {newpath moveto lineto stroke}bdef
currentdict end def
%%EndProlog

%%BeginSetup
MathWorks begin

0 cap

end
%%EndSetup

%%Page: 1 1
%%BeginPageSetup
%%PageBoundingBox:    73   215   554   589
MathWorks begin
bpage
%%EndPageSetup

%%BeginObject: obj1
bplot

/dpi2point 12 def
portraitMode 0216 7344 csm

  664   274  5773  4487 MR c np
85 dict begin %Colortable dictionary
/c0 { 0.000000 0.000000 0.000000 sr} bdef
/c1 { 1.000000 1.000000 1.000000 sr} bdef
/c2 { 0.900000 0.000000 0.000000 sr} bdef
/c3 { 0.000000 0.820000 0.000000 sr} bdef
/c4 { 0.000000 0.000000 0.800000 sr} bdef
/c5 { 0.910000 0.820000 0.320000 sr} bdef
/c6 { 1.000000 0.260000 0.820000 sr} bdef
/c7 { 0.000000 0.820000 0.820000 sr} bdef
c0
1 j
1 sg
   0    0 6913 5186 PR
6 w
0 4226 5355 0 0 -4226 899 4615 4 MP
PP
-5355 0 0 4226 5355 0 0 -4226 899 4615 5 MP stroke
4 w
DO
0 sg
 899 4615 mt  899  389 L
 899  389 mt  899  389 L
1664 4615 mt 1664  389 L
1664  389 mt 1664  389 L
2429 4615 mt 2429  389 L
2429  389 mt 2429  389 L
3194 4615 mt 3194  389 L
3194  389 mt 3194  389 L
3959 4615 mt 3959  389 L
3959  389 mt 3959  389 L
4724 4615 mt 4724  389 L
4724  389 mt 4724  389 L
5489 4615 mt 5489  389 L
5489  389 mt 5489  389 L
6255 4615 mt 6255  389 L
6255  389 mt 6255  389 L
 899 4615 mt 6255 4615 L
6255 4615 mt 6255 4615 L
 899 4192 mt 6255 4192 L
6255 4192 mt 6255 4192 L
 899 3769 mt 6255 3769 L
6255 3769 mt 6255 3769 L
 899 3347 mt 6255 3347 L
6255 3347 mt 6255 3347 L
 899 2924 mt 6255 2924 L
6255 2924 mt 6255 2924 L
 899 2502 mt 6255 2502 L
6255 2502 mt 6255 2502 L
 899 2079 mt 6255 2079 L
6255 2079 mt 6255 2079 L
 899 1656 mt 6255 1656 L
6255 1656 mt 6255 1656 L
 899 1234 mt 6255 1234 L
6255 1234 mt 6255 1234 L
 899  811 mt 6255  811 L
6255  811 mt 6255  811 L
 899  389 mt 6255  389 L
6255  389 mt 6255  389 L
SO
6 w
 899 4615 mt 6254 4615 L
 899  389 mt 6254  389 L
 899 4615 mt  899  389 L
6254 4615 mt 6254  389 L
 899 4615 mt 6254 4615 L
 899 4615 mt  899  389 L
 899 4615 mt  899 4561 L
 899  389 mt  899  442 L
%%IncludeResource: font Helvetica
/Helvetica /ISOLatin1Encoding 120 FMSR

 766 4760 mt 
(1950) s
1664 4615 mt 1664 4561 L
1664  389 mt 1664  442 L
1531 4760 mt 
(1960) s
2429 4615 mt 2429 4561 L
2429  389 mt 2429  442 L
2296 4760 mt 
(1970) s
3194 4615 mt 3194 4561 L
3194  389 mt 3194  442 L
3061 4760 mt 
(1980) s
3959 4615 mt 3959 4561 L
3959  389 mt 3959  442 L
3826 4760 mt 
(1990) s
4724 4615 mt 4724 4561 L
4724  389 mt 4724  442 L
4591 4760 mt 
(2000) s
5489 4615 mt 5489 4561 L
5489  389 mt 5489  442 L
5356 4760 mt 
(2010) s
6255 4615 mt 6255 4561 L
6255  389 mt 6255  442 L
6122 4760 mt 
(2020) s
 899 4615 mt  952 4615 L
6255 4615 mt 6201 4615 L
 664 4659 mt 
(310) s
 899 4192 mt  952 4192 L
6255 4192 mt 6201 4192 L
 664 4236 mt 
(320) s
 899 3769 mt  952 3769 L
6255 3769 mt 6201 3769 L
 664 3813 mt 
(330) s
 899 3347 mt  952 3347 L
6255 3347 mt 6201 3347 L
 664 3391 mt 
(340) s
 899 2924 mt  952 2924 L
6255 2924 mt 6201 2924 L
 664 2968 mt 
(350) s
 899 2502 mt  952 2502 L
6255 2502 mt 6201 2502 L
 664 2546 mt 
(360) s
 899 2079 mt  952 2079 L
6255 2079 mt 6201 2079 L
 664 2123 mt 
(370) s
 899 1656 mt  952 1656 L
6255 1656 mt 6201 1656 L
 664 1700 mt 
(380) s
 899 1234 mt  952 1234 L
6255 1234 mt 6201 1234 L
 664 1278 mt 
(390) s
 899  811 mt  952  811 L
6255  811 mt 6201  811 L
 664  855 mt 
(400) s
 899  389 mt  952  389 L
6255  389 mt 6201  389 L
 664  433 mt 
(410) s
 899 4615 mt 6254 4615 L
 899  389 mt 6254  389 L
 899 4615 mt  899  389 L
6254 4615 mt 6254  389 L
gs 899 389 5357 4227 MR c np
/c8 { 0.000000 0.000000 1.000000 sr} bdef
c8
6 76 6 79 7 94 6 24 7 -23 6 -78 6 -62 6 -8 
7 -46 6 -69 7 -63 6 -13 7 85 6 83 6 63 7 48 
6 -65 7 -46 5 -17 7 -52 6 -53 7 -59 6 -84 6 5 
7 60 6 83 7 58 6 42 6 -19 7 -87 6 -44 6 -11 
7 -54 6 -65 7 -56 6 3 7 51 6 101 6 46 7 26 
6 -39 7 -39 5 -22 7 -27 6 -63 7 -48 6 -63 7 -14 
6 71 7 76 6 81 6 42 7 -36 6 -58 6 -40 6 -64 
7 -45 6 -61 7 -72 6 14 7 60 6 84 6 65 7 23 
6 -25 7 -44 6 -59 6 -20 7 -65 6 -46 6 -53 7 13 
6 42 6 93 7 75 6 19 7 -73 6 -40 6 1 7 -33 
6 -62 6 -53 7 -63 6 0 7 41 6 110 6 61 7 23 
6 -7 7 -81 6 -27 6 -51 7 -37 6 -62 6 -46 7 -10 
6 71 7 75 6 74 5218 1486 100 MP stroke
6 38 7 -24 6 -76 6 -23 7 -28 6 -59 6 -69 7 -64 
6 -16 7 94 6 84 6 61 7 7 6 -8 7 -71 6 -31 
6 -55 7 -38 6 -68 6 -69 7 -7 6 76 7 81 6 76 
6 44 7 -4 6 -89 6 -44 7 -24 6 -46 6 -57 7 -57 
6 -1 7 63 6 90 6 65 7 9 6 -30 7 -65 6 -20 
6 -40 7 -38 6 -72 6 -77 7 19 6 33 7 107 6 58 
6 7 7 -30 6 -56 6 -19 7 -27 6 -50 6 -66 7 -67 
6 -6 7 67 6 88 6 71 7 30 6 -49 7 -31 6 -27 
6 -51 7 -32 6 -52 6 -66 7 -5 6 64 7 84 6 67 
6 5 7 -7 6 -48 6 -45 7 -13 6 -48 6 -57 7 -65 
6 -20 7 96 6 99 7 46 6 27 6 6 7 -65 6 -31 
6 -30 7 -50 6 -64 6 -52 7 -14 6 80 7 78 6 52 
7 19 6 -30 6 -55 4587 2193 100 MP stroke
6 -49 7 -34 6 -45 6 -78 7 -70 6 -24 7 97 6 83 
7 49 6 50 6 -19 7 -76 6 -23 6 -35 7 -36 6 -66 
6 -49 7 -7 6 86 7 92 6 56 6 18 7 -29 6 -30 
6 -32 7 -51 6 -57 6 -48 7 -76 6 13 7 58 6 104 
7 57 6 23 6 -15 7 -76 6 -27 6 -44 7 -39 6 -62 
7 -67 6 -6 6 69 7 87 6 60 7 30 6 -17 6 -55 
6 -45 7 -22 6 -67 7 -61 6 -57 6 -13 7 77 6 87 
7 86 6 28 6 -34 7 -46 6 -52 6 -19 7 -55 6 -52 
6 -36 7 -13 6 84 7 86 6 94 6 17 7 -21 6 -57 
6 -46 7 -31 6 -42 7 -53 6 -65 6 -2 7 79 6 91 
7 87 6 47 6 -32 7 -61 6 -59 6 -44 7 -21 6 -59 
7 -69 6 -10 6 83 7 80 6 60 7 39 6 -40 6 -34 
6 -29 7 -44 6 -49 3956 2818 100 MP stroke
7 -52 6 -55 6 -8 7 79 6 95 7 51 6 24 6 -11 
7 -74 6 -25 6 -13 7 -60 6 -54 7 -50 6 -7 6 72 
7 82 6 60 7 18 6 -26 6 -58 6 -21 7 -55 6 -62 
7 -49 6 -61 6 4 7 70 6 59 7 74 6 25 6 -37 
7 -66 6 -40 6 -19 7 -47 6 -53 7 -62 6 28 6 45 
7 86 6 68 7 28 6 -28 6 -72 6 -38 7 -27 6 -32 
7 -56 6 -60 6 12 7 67 6 80 7 71 6 29 6 -25 
7 -39 6 -61 6 -43 7 -31 6 -53 7 -69 6 -11 6 93 
7 89 6 59 7 27 6 -15 6 -76 6 -33 7 -33 6 -30 
7 -78 6 -49 6 -6 7 107 6 67 7 57 6 19 7 -35 
6 -78 6 -24 6 -49 7 -37 6 -52 7 -59 6 5 6 77 
7 95 6 55 7 33 6 -24 7 -37 5 -46 7 -36 6 -48 
7 -53 6 -63 6 -8 3325 3487 100 MP stroke
7 74 6 87 7 74 6 28 7 -17 6 -47 6 -38 6 -53 
7 -43 6 -47 7 -46 6 -6 6 73 7 83 6 68 7 12 
6 -29 6 -29 6 -73 7 -15 6 -54 7 -61 6 -60 7 2 
6 92 6 69 7 66 6 8 7 -25 6 -39 6 -51 6 -22 
7 -54 6 -44 7 -58 6 9 7 81 6 79 6 57 7 5 
6 -10 7 -48 5 -53 7 -17 6 -48 7 -61 6 -52 7 18 
6 49 7 92 6 57 6 20 7 -29 6 -58 6 -54 6 -20 
7 -53 6 -58 7 -58 6 15 6 69 7 90 6 54 7 23 
6 -13 6 -45 7 -40 6 -34 6 -42 7 -54 6 -48 7 9 
6 63 7 78 6 72 6 15 7 -27 6 -54 6 -27 6 -42 
7 -35 6 -47 7 -46 6 2 7 83 6 76 6 45 7 35 
6 -18 7 -50 6 -32 6 -58 7 -30 6 -20 6 -41 7 13 
6 77 7 65 6 51 2693 3682 100 MP stroke
6 18 7 -42 6 -51 6 -31 7 -43 6 -42 6 -44 7 -61 
6 -6 7 59 6 73 6 44 7 42 6 -15 7 -83 6 -5 
6 -37 7 -32 6 -51 6 -52 7 -9 6 89 7 79 6 52 
6 15 7 -48 6 -25 6 -22 7 -21 6 -44 6 -49 7 -34 
6 -3 7 67 6 70 6 56 7 17 6 3 7 -54 6 -37 
6 -40 7 -39 6 -53 6 -46 7 26 6 54 7 94 6 37 
6 24 7 -28 6 -44 6 -51 7 -18 6 -49 6 -65 7 -44 
6 6 7 69 6 89 6 52 7 8 6 -23 7 -48 6 -31 
6 -24 7 -26 6 -52 6 -60 7 0 6 68 7 69 6 65 
6 38 7 -24 6 -58 6 -23 7 -19 6 -41 6 -55 7 -71 
6 23 7 72 6 86 6 58 7 11 6 -6 7 -63 6 -34 
6 -41 7 -50 6 -24 6 -66 7 22 6 42 7 109 6 20 
6 12 7 -1 6 -52 2062 4154 100 MP stroke
6 -19 7 -43 6 -30 6 -39 7 -43 6 -3 7 84 6 74 
6 61 7 15 6 -95 7 0 6 0 6 -18 7 -53 6 -51 
6 -47 7 9 6 66 7 83 6 74 7 32 6 -36 6 -65 
6 -33 7 -14 6 -44 6 -43 7 -53 6 35 7 48 6 92 
7 41 6 20 6 -16 7 -40 6 -48 6 -26 7 -39 6 -39 
6 -30 7 -24 6 83 7 76 6 50 7 35 6 -47 6 -40 
6 -35 7 -33 6 -31 6 -50 7 -50 6 14 7 74 6 96 
6 60 7 18 6 -42 7 -61 6 -26 6 -23 7 -36 6 -33 
7 -65 6 25 6 40 7 74 6 68 7 6 6 -24 6 -43 
6 -14 7 -32 6 -40 7 -57 6 -3 6 -2 7 73 6 39 
7 48 6 22 6 -3 7 -74 1526 4374 85 MP stroke
gr

c8

end %%Color Dict

eplot
%%EndObject

epage
end

showpage

%%Trailer
%%EOF
