%!PS-Adobe-2.0 EPSF-1.2
%%Creator: MATLAB, The MathWorks, Inc. Version 8.3.0.532 (R2014a). Operating System: Darwin 13.4.0 Darwin Kernel Version 13.4.0: Sun Aug 17 19:50:11 PDT 2014; root:xnu-2422.115.4~1/RELEASE_X86_64 x86_64.
%%Title: ./finDat.eps
%%CreationDate: 10/28/2014  13:33:55
%%DocumentNeededFonts: Helvetica
%%DocumentProcessColors: Cyan Magenta Yellow Black
%%Extensions: CMYK
%%Pages: 1
%%BoundingBox:    59   215   557   589
%%EndComments

%%BeginProlog
% MathWorks dictionary
/MathWorks 160 dict begin
% definition operators
/bdef {bind def} bind def
/ldef {load def} bind def
/xdef {exch def} bdef
/xstore {exch store} bdef
% operator abbreviations
/c  /clip ldef
/cc /concat ldef
/cp /closepath ldef
/gr /grestore ldef
/gs /gsave ldef
/mt /moveto ldef
/np /newpath ldef
/cm /currentmatrix ldef
/sm /setmatrix ldef
/rm /rmoveto ldef
/rl /rlineto ldef
/s {show newpath} bdef
/sc {setcmykcolor} bdef
/sr /setrgbcolor ldef
/sg /setgray ldef
/w /setlinewidth ldef
/j /setlinejoin ldef
/cap /setlinecap ldef
/rc {rectclip} bdef
/rf {rectfill} bdef
% page state control
/pgsv () def
/bpage {/pgsv save def} bdef
/epage {pgsv restore} bdef
/bplot /gsave ldef
/eplot {stroke grestore} bdef
% orientation switch
/portraitMode 0 def /landscapeMode 1 def /rotateMode 2 def
% coordinate system mappings
/dpi2point 0 def
% font control
/FontSize 0 def
/FMS {/FontSize xstore findfont [FontSize 0 0 FontSize neg 0 0]
  makefont setfont} bdef
/reencode {exch dup where {pop load} {pop StandardEncoding} ifelse
  exch dup 3 1 roll findfont dup length dict begin
  { 1 index /FID ne {def}{pop pop} ifelse } forall
  /Encoding exch def currentdict end definefont pop} bdef
/isroman {findfont /CharStrings get /Agrave known} bdef
/FMSR {3 1 roll 1 index dup isroman {reencode} {pop pop} ifelse
  exch FMS} bdef
/csm {1 dpi2point div -1 dpi2point div scale neg translate
 dup landscapeMode eq {pop -90 rotate}
  {rotateMode eq {90 rotate} if} ifelse} bdef
% line types: solid, dotted, dashed, dotdash
/SO { [] 0 setdash } bdef
/DO { [.5 dpi2point mul 4 dpi2point mul] 0 setdash } bdef
/DA { [6 dpi2point mul] 0 setdash } bdef
/DD { [.5 dpi2point mul 4 dpi2point mul 6 dpi2point mul 4
  dpi2point mul] 0 setdash } bdef
% macros for lines and objects
/L {lineto stroke} bdef
/MP {3 1 roll moveto 1 sub {rlineto} repeat} bdef
/AP {{rlineto} repeat} bdef
/PDlw -1 def
/W {/PDlw currentlinewidth def setlinewidth} def
/PP {closepath eofill} bdef
/DP {closepath stroke} bdef
/MR {4 -2 roll moveto dup  0 exch rlineto exch 0 rlineto
  neg 0 exch rlineto closepath} bdef
/FR {MR stroke} bdef
/PR {MR fill} bdef
/L1i {{currentfile picstr readhexstring pop} image} bdef
/tMatrix matrix def
/MakeOval {newpath tMatrix currentmatrix pop translate scale
0 0 1 0 360 arc tMatrix setmatrix} bdef
/FO {MakeOval stroke} bdef
/PO {MakeOval fill} bdef
/PD {currentlinewidth 2 div 0 360 arc fill
   PDlw -1 eq not {PDlw w /PDlw -1 def} if} def
/FA {newpath tMatrix currentmatrix pop translate scale
  0 0 1 5 -2 roll arc tMatrix setmatrix stroke} bdef
/PA {newpath tMatrix currentmatrix pop	translate 0 0 moveto scale
  0 0 1 5 -2 roll arc closepath tMatrix setmatrix fill} bdef
/FAn {newpath tMatrix currentmatrix pop translate scale
  0 0 1 5 -2 roll arcn tMatrix setmatrix stroke} bdef
/PAn {newpath tMatrix currentmatrix pop translate 0 0 moveto scale
  0 0 1 5 -2 roll arcn closepath tMatrix setmatrix fill} bdef
/vradius 0 def /hradius 0 def /lry 0 def
/lrx 0 def /uly 0 def /ulx 0 def /rad 0 def
/MRR {/vradius xdef /hradius xdef /lry xdef /lrx xdef /uly xdef
  /ulx xdef newpath tMatrix currentmatrix pop ulx hradius add uly
  vradius add translate hradius vradius scale 0 0 1 180 270 arc 
  tMatrix setmatrix lrx hradius sub uly vradius add translate
  hradius vradius scale 0 0 1 270 360 arc tMatrix setmatrix
  lrx hradius sub lry vradius sub translate hradius vradius scale
  0 0 1 0 90 arc tMatrix setmatrix ulx hradius add lry vradius sub
  translate hradius vradius scale 0 0 1 90 180 arc tMatrix setmatrix
  closepath} bdef
/FRR {MRR stroke } bdef
/PRR {MRR fill } bdef
/MlrRR {/lry xdef /lrx xdef /uly xdef /ulx xdef /rad lry uly sub 2 div def
  newpath tMatrix currentmatrix pop ulx rad add uly rad add translate
  rad rad scale 0 0 1 90 270 arc tMatrix setmatrix lrx rad sub lry rad
  sub translate rad rad scale 0 0 1 270 90 arc tMatrix setmatrix
  closepath} bdef
/FlrRR {MlrRR stroke } bdef
/PlrRR {MlrRR fill } bdef
/MtbRR {/lry xdef /lrx xdef /uly xdef /ulx xdef /rad lrx ulx sub 2 div def
  newpath tMatrix currentmatrix pop ulx rad add uly rad add translate
  rad rad scale 0 0 1 180 360 arc tMatrix setmatrix lrx rad sub lry rad
  sub translate rad rad scale 0 0 1 0 180 arc tMatrix setmatrix
  closepath} bdef
/FtbRR {MtbRR stroke } bdef
/PtbRR {MtbRR fill } bdef
/stri 6 array def /dtri 6 array def
/smat 6 array def /dmat 6 array def
/tmat1 6 array def /tmat2 6 array def /dif 3 array def
/asub {/ind2 exch def /ind1 exch def dup dup
  ind1 get exch ind2 get sub exch } bdef
/tri_to_matrix {
  2 0 asub 3 1 asub 4 0 asub 5 1 asub
  dup 0 get exch 1 get 7 -1 roll astore } bdef
/compute_transform {
  dmat dtri tri_to_matrix tmat1 invertmatrix 
  smat stri tri_to_matrix tmat2 concatmatrix } bdef
/ds {stri astore pop} bdef
/dt {dtri astore pop} bdef
/db {2 copy /cols xdef /rows xdef mul dup 3 mul string
  currentfile exch readhexstring pop
  dup 0 3 index getinterval /rbmap xdef
  dup 2 index dup getinterval /gbmap xdef
  1 index dup 2 mul exch getinterval /bbmap xdef pop pop}bdef
/it {gs np dtri aload pop moveto lineto lineto cp c
  cols rows 8 compute_transform 
  rbmap gbmap bbmap true 3 colorimage gr}bdef
/il {newpath moveto lineto stroke}bdef
currentdict end def
%%EndProlog

%%BeginSetup
MathWorks begin

0 cap

end
%%EndSetup

%%Page: 1 1
%%BeginPageSetup
%%PageBoundingBox:    59   215   557   589
MathWorks begin
bpage
%%EndPageSetup

%%BeginObject: obj1
bplot

/dpi2point 12 def
portraitMode 0216 7344 csm

  498   274  5978  4489 MR c np
85 dict begin %Colortable dictionary
/c0 { 0.000000 0.000000 0.000000 sr} bdef
/c1 { 1.000000 1.000000 1.000000 sr} bdef
/c2 { 0.900000 0.000000 0.000000 sr} bdef
/c3 { 0.000000 0.820000 0.000000 sr} bdef
/c4 { 0.000000 0.000000 0.800000 sr} bdef
/c5 { 0.910000 0.820000 0.320000 sr} bdef
/c6 { 1.000000 0.260000 0.820000 sr} bdef
/c7 { 0.000000 0.820000 0.820000 sr} bdef
c0
1 j
1 sg
   0    0 6918 5189 PR
6 w
0 4228 5361 0 0 -4228 899 4617 4 MP
PP
-5361 0 0 4228 5361 0 0 -4228 899 4617 5 MP stroke
4 w
DO
0 sg
 899 4617 mt  899  389 L
 899  389 mt  899  389 L
2686 4617 mt 2686  389 L
2686  389 mt 2686  389 L
4473 4617 mt 4473  389 L
4473  389 mt 4473  389 L
6260 4617 mt 6260  389 L
6260  389 mt 6260  389 L
 899 4617 mt 6260 4617 L
6260 4617 mt 6260 4617 L
 899 4147 mt 6260 4147 L
6260 4147 mt 6260 4147 L
 899 3677 mt 6260 3677 L
6260 3677 mt 6260 3677 L
 899 3207 mt 6260 3207 L
6260 3207 mt 6260 3207 L
 899 2737 mt 6260 2737 L
6260 2737 mt 6260 2737 L
 899 2268 mt 6260 2268 L
6260 2268 mt 6260 2268 L
 899 1798 mt 6260 1798 L
6260 1798 mt 6260 1798 L
 899 1328 mt 6260 1328 L
6260 1328 mt 6260 1328 L
 899  858 mt 6260  858 L
6260  858 mt 6260  858 L
 899  389 mt 6260  389 L
6260  389 mt 6260  389 L
SO
6 w
 899 4617 mt 6260 4617 L
 899  389 mt 6260  389 L
 899 4617 mt  899  389 L
6260 4617 mt 6260  389 L
 899 4617 mt 6260 4617 L
 899 4617 mt  899  389 L
 899 4617 mt  899 4563 L
 899  389 mt  899  442 L
%%IncludeResource: font Helvetica
/Helvetica /ISOLatin1Encoding 120 FMSR

 866 4762 mt 
(0) s
2686 4617 mt 2686 4563 L
2686  389 mt 2686  442 L
2553 4762 mt 
(5000) s
4473 4617 mt 4473 4563 L
4473  389 mt 4473  442 L
4307 4762 mt 
(10000) s
6260 4617 mt 6260 4563 L
6260  389 mt 6260  442 L
6094 4762 mt 
(15000) s
 899 4617 mt  952 4617 L
6260 4617 mt 6206 4617 L
 498 4661 mt 
(1.2405) s
 899 4147 mt  952 4147 L
6260 4147 mt 6206 4147 L
 564 4191 mt 
(1.241) s
 899 3677 mt  952 3677 L
6260 3677 mt 6206 3677 L
 498 3721 mt 
(1.2415) s
 899 3207 mt  952 3207 L
6260 3207 mt 6206 3207 L
 564 3251 mt 
(1.242) s
 899 2737 mt  952 2737 L
6260 2737 mt 6206 2737 L
 498 2781 mt 
(1.2425) s
 899 2268 mt  952 2268 L
6260 2268 mt 6206 2268 L
 564 2312 mt 
(1.243) s
 899 1798 mt  952 1798 L
6260 1798 mt 6206 1798 L
 498 1842 mt 
(1.2435) s
 899 1328 mt  952 1328 L
6260 1328 mt 6206 1328 L
 564 1372 mt 
(1.244) s
 899  858 mt  952  858 L
6260  858 mt 6206  858 L
 498  902 mt 
(1.2445) s
 899  389 mt  952  389 L
6260  389 mt 6206  389 L
 564  433 mt 
(1.245) s
 899 4617 mt 6260 4617 L
 899  389 mt 6260  389 L
 899 4617 mt  899  389 L
6260 4617 mt 6260  389 L
gs 899 389 5362 4229 MR c np
/c8 { 0.000000 0.000000 1.000000 sr} bdef
c8
1 -47 0 47 1 -47 1 47 1 0 1 94 0 -94 1 0 
1 0 1 0 1 0 0 94 1 0 1 0 1 0 1 47 
1 0 0 47 1 0 0 -47 1 -47 1 0 1 0 1 0 
1 0 1 -94 0 -47 1 0 0 141 0 -141 1 47 1 0 
0 -47 1 47 1 0 1 0 1 0 1 0 1 0 1 -141 
1 0 1 -47 0 -47 1 -47 1 0 1 0 0 -94 1 0 
1 0 0 -47 1 0 1 0 0 -47 1 0 1 0 1 0 
0 47 1 -47 1 0 0 47 0 -47 1 0 1 47 1 0 
1 -47 1 0 1 0 1 0 0 -47 1 0 1 0 0 -47 
1 -94 0 47 1 0 1 0 0 47 1 0 1 0 0 47 
1 0 0 -47 1 0 0 94 1 -47 1 47 1 0 0 -94 
1 0 0 -47 1 0 1 0 0 -47 0 47 1 0 1 0 
0 -47 1 0 1 0 5974 4006 100 MP stroke
0 -47 0 47 1 -94 1 0 1 0 1 94 0 -94 1 0 
0 -94 1 0 1 0 1 0 1 0 1 0 0 47 0 -47 
1 0 1 0 1 -47 1 0 1 0 1 47 1 94 0 47 
1 0 1 47 1 0 0 47 1 -47 1 0 0 -94 1 0 
0 -94 1 0 0 -47 1 47 0 -94 1 0 1 -94 1 0 
0 -47 1 -47 0 47 1 47 1 -47 0 -47 1 0 0 94 
0 -47 1 0 0 47 1 -94 0 94 1 -94 0 47 1 47 
1 0 1 94 1 0 0 -47 1 47 0 -47 1 -47 1 0 
1 0 1 0 1 94 0 -47 1 94 1 0 1 94 0 -47 
1 -94 0 94 1 -94 0 94 1 -94 0 47 1 47 0 94 
1 47 0 94 1 47 0 -94 1 94 1 -94 1 0 1 47 
1 0 0 -47 1 94 1 0 1 0 0 -47 1 0 0 -141 
1 0 1 -94 0 141 5909 4053 100 MP stroke
1 -47 1 0 0 94 1 0 0 47 1 0 0 141 1 0 
1 0 1 -47 0 47 1 -47 0 -47 0 94 1 94 1 0 
0 94 1 94 1 -94 0 47 1 0 0 -141 0 47 1 47 
1 0 1 188 1 0 0 47 1 0 1 0 0 -141 1 0 
1 0 1 0 0 -94 1 0 1 47 0 47 1 0 1 0 
1 0 1 0 0 47 1 0 0 47 1 0 1 0 1 47 
1 0 1 47 1 47 1 0 1 47 1 -47 0 47 1 0 
0 94 1 0 1 0 1 -94 0 -47 1 0 1 0 0 -94 
1 0 1 0 1 -47 1 0 1 0 0 94 1 0 1 94 
1 0 0 -94 1 0 1 0 0 -47 1 47 1 -47 1 47 
0 -94 0 47 1 47 1 0 1 -94 1 0 1 -94 1 -94 
0 -47 1 0 0 -47 1 0 0 -94 1 0 1 0 1 0 
1 0 1 0 1 0 5838 3818 100 MP stroke
1 0 1 0 0 47 1 -47 1 0 1 0 0 47 1 47 
1 0 1 -94 0 47 1 -94 0 47 1 0 0 -94 1 0 
1 -47 0 -47 1 0 1 94 0 94 1 0 0 94 1 0 
1 94 1 47 0 47 1 0 0 47 1 0 0 47 1 0 
1 0 0 47 1 0 1 0 1 0 0 47 0 -47 1 0 
1 0 0 47 1 0 1 0 0 -94 1 0 1 0 1 0 
0 -94 1 0 1 0 1 0 0 47 1 47 1 0 0 47 
1 47 0 -47 1 47 1 0 1 0 1 0 1 0 1 0 
1 0 1 0 0 -94 1 0 1 0 0 47 1 0 1 47 
1 0 1 0 1 0 1 0 1 0 1 -47 0 -47 1 0 
0 -94 1 0 1 0 1 0 1 0 1 0 0 94 1 0 
1 0 1 0 1 94 0 47 1 0 1 0 0 -141 0 188 
1 0 1 0 1 0 5767 3254 100 MP stroke
1 0 1 0 0 94 1 0 1 0 1 0 0 -47 1 -47 
1 0 1 0 1 0 1 0 1 0 1 0 1 0 1 0 
1 0 1 0 1 0 1 0 1 0 0 -94 1 0 1 47 
1 0 1 47 1 0 0 -47 1 0 1 -47 1 0 1 0 
1 0 0 -47 0 47 1 0 1 0 1 0 1 0 1 0 
1 0 1 0 0 188 1 0 1 0 1 0 1 0 1 0 
1 0 1 0 1 0 1 0 1 0 1 0 1 0 1 0 
1 0 1 0 1 0 1 0 1 0 1 0 1 0 1 0 
1 0 1 0 1 0 1 0 1 0 1 0 1 0 1 0 
1 0 1 0 1 0 1 0 1 0 1 0 1 0 1 0 
1 0 1 0 1 0 1 0 1 0 1 0 1 0 1 0 
1 0 1 0 1 0 1 0 1 0 1 0 1 0 1 0 
1 0 1 0 0 -47 5676 3207 100 MP stroke
1 0 0 47 1 0 1 0 0 94 1 -47 0 47 1 0 
1 0 1 0 1 0 0 -94 1 0 0 47 1 0 0 -47 
1 47 0 -47 1 0 1 0 1 0 0 -94 1 0 1 0 
1 0 1 0 0 -47 1 0 1 -47 1 47 0 -47 1 47 
0 47 1 0 0 -94 1 0 0 47 1 -47 1 0 1 0 
1 0 1 0 1 0 1 0 1 0 1 47 1 0 0 47 
1 0 1 0 0 -47 1 0 0 47 1 0 1 0 0 -47 
1 -47 1 0 1 0 1 0 1 0 1 0 1 0 1 0 
0 94 1 0 1 0 1 0 1 0 0 94 1 -94 1 0 
1 0 1 0 1 0 1 -94 1 0 1 0 1 0 1 47 
0 47 1 -94 0 94 1 0 1 0 1 0 1 0 1 0 
1 0 1 47 0 47 1 0 1 0 0 -94 1 0 0 94 
1 47 1 0 1 0 5601 3113 100 MP stroke
1 0 1 0 0 47 1 0 1 0 1 0 1 0 1 0 
1 0 1 0 1 0 1 0 1 0 1 0 1 0 1 0 
1 0 1 0 1 0 1 0 1 0 1 0 1 0 1 0 
1 0 1 0 1 0 1 0 1 0 1 0 1 0 1 0 
1 0 1 0 1 -47 0 47 1 0 1 0 1 0 1 0 
1 0 1 0 1 0 1 0 1 0 1 0 1 0 0 -94 
1 0 1 0 1 0 1 94 1 0 0 -47 1 0 1 0 
1 0 0 47 1 0 1 0 1 0 0 47 1 0 0 47 
1 0 1 0 0 -47 1 0 1 0 0 -94 1 -47 1 0 
1 0 1 0 1 0 1 0 1 0 0 94 1 0 1 0 
0 -94 1 0 1 0 1 0 1 0 1 0 1 0 1 0 
1 0 1 0 1 47 0 -47 1 0 1 0 1 0 1 0 
1 0 0 47 1 47 5515 3066 100 MP stroke
1 0 1 0 1 0 1 0 0 -47 1 0 0 47 0 -94 
1 0 1 0 0 47 1 47 1 0 0 -47 1 0 0 47 
1 0 1 0 1 0 1 0 0 47 1 0 0 -47 1 47 
0 47 1 0 0 -47 1 -47 1 0 1 47 0 -47 1 0 
1 0 1 0 1 0 1 0 1 0 0 47 0 -47 1 0 
0 94 1 0 1 0 1 0 1 0 1 94 1 0 1 0 
1 0 1 0 1 94 1 0 0 47 1 0 0 -47 1 0 
0 47 1 47 1 47 1 0 1 0 1 0 1 0 1 0 
1 0 1 0 1 0 1 0 1 0 1 47 0 -47 1 0 
1 0 0 -47 1 47 1 0 0 47 1 0 1 0 0 94 
1 0 1 0 1 0 1 0 1 0 1 0 1 0 1 0 
1 0 1 0 1 0 1 0 0 46 1 0 1 0 1 0 
1 0 1 0 1 0 5438 2456 100 MP stroke
1 0 0 47 1 0 1 0 1 0 1 0 1 0 1 0 
1 0 1 0 1 0 1 0 1 0 1 0 1 0 1 0 
1 0 1 0 1 0 1 0 1 0 1 0 1 0 1 0 
1 0 1 0 1 0 1 0 1 0 1 0 1 0 1 0 
1 0 1 0 1 0 1 0 1 0 1 0 0 -47 1 0 
0 47 1 0 0 -93 1 0 1 0 1 0 1 0 1 0 
1 0 1 0 0 -94 1 47 1 0 0 -47 1 94 1 93 
1 0 1 0 1 0 1 0 0 94 1 0 1 0 1 0 
1 0 1 0 0 47 1 0 1 0 1 0 1 0 1 0 
1 0 1 -47 1 0 1 0 1 0 1 0 1 0 1 0 
1 0 1 47 1 0 1 0 1 0 1 47 0 -47 1 0 
1 0 1 0 1 0 0 -47 1 94 1 0 1 0 1 0 
1 0 1 0 1 0 5349 2221 100 MP stroke
1 0 1 0 1 0 1 0 1 -47 1 0 0 47 1 0 
0 -94 1 47 1 0 1 47 1 0 1 47 0 -47 1 0 
0 47 0 -47 1 0 0 -94 1 0 1 0 1 47 0 47 
1 0 1 0 1 0 1 0 1 0 0 47 1 0 0 -47 
0 94 1 0 1 0 1 -94 0 47 1 0 1 0 0 47 
1 0 0 -47 1 0 1 0 1 0 0 -47 1 0 0 94 
1 0 1 0 1 0 1 0 1 0 0 47 1 0 1 0 
1 47 1 0 1 0 1 0 0 -94 1 0 1 0 1 0 
1 0 1 0 1 0 1 0 1 0 1 0 1 0 1 0 
1 0 1 0 1 0 1 0 1 0 1 0 1 0 1 0 
1 0 1 0 1 0 1 0 0 -94 1 0 1 0 0 47 
1 0 1 0 1 47 1 0 1 -141 1 0 1 47 1 0 
0 47 1 0 0 -47 5271 2221 100 MP stroke
0 94 1 0 0 -141 1 0 0 47 1 -47 1 0 1 0 
0 47 1 0 1 0 1 0 1 94 1 0 0 94 1 0 
0 47 1 -47 0 47 1 0 0 47 1 0 1 0 1 0 
1 0 1 -47 1 47 1 0 1 0 1 0 1 0 1 0 
0 -47 0 47 1 0 1 -94 0 188 1 0 0 -94 1 0 
1 0 1 0 1 47 1 0 0 47 1 0 0 -47 1 0 
1 0 1 0 1 0 1 0 1 0 1 0 1 0 1 47 
0 -47 1 0 1 0 1 0 0 -47 1 94 1 0 1 0 
1 0 1 -94 1 0 1 47 1 0 0 47 1 -47 0 -47 
0 47 1 0 0 47 1 -141 1 0 1 0 0 -47 1 0 
1 0 1 0 1 0 1 0 1 0 1 0 1 0 1 0 
1 0 1 0 1 0 1 0 1 0 1 0 1 0 1 0 
1 0 1 -94 1 0 5193 2127 100 MP stroke
1 0 1 0 0 -94 1 0 1 0 0 -94 1 0 1 0 
1 0 0 -94 1 0 1 0 0 47 1 0 1 -47 0 47 
1 0 0 47 1 94 0 -94 1 0 1 0 0 94 1 0 
0 -47 1 0 1 47 0 -47 1 0 1 0 1 0 0 47 
1 0 1 0 1 0 0 -47 1 0 1 0 1 0 1 0 
1 0 1 0 1 0 1 0 0 -47 1 0 0 -47 1 -47 
0 94 1 -47 1 47 0 -47 1 0 1 0 1 47 0 -94 
1 0 1 0 1 0 1 0 1 0 1 0 0 47 1 0 
0 -47 1 47 1 0 0 47 1 0 0 -94 1 0 0 -47 
0 47 1 0 1 0 1 0 1 0 1 0 1 0 1 0 
1 0 1 0 1 0 0 -47 1 0 0 47 1 0 0 -93 
1 0 1 0 1 0 1 0 0 -141 1 0 1 0 1 0 
1 47 1 0 1 0 5121 2596 100 MP stroke
1 0 1 0 1 0 1 -47 1 0 1 -47 0 -47 1 0 
1 0 0 -47 1 -94 1 0 1 0 1 0 0 -47 1 0 
0 47 1 0 1 188 0 -141 1 47 0 -94 0 141 1 0 
1 0 1 0 0 141 0 -94 1 0 1 0 0 47 1 -47 
1 0 0 47 0 -47 1 94 0 -47 0 47 1 0 1 0 
0 -94 1 0 0 47 1 47 0 -94 1 0 1 0 1 0 
1 0 1 0 1 -47 1 0 1 47 0 -94 1 0 1 -47 
0 -47 1 0 1 -94 1 0 1 0 1 0 1 0 0 -47 
1 47 0 -47 1 47 1 0 1 0 0 47 1 0 1 0 
1 -47 1 0 0 -47 1 47 1 0 1 0 1 0 1 0 
0 47 1 0 1 0 1 -47 1 0 0 94 1 0 1 0 
1 0 1 0 1 0 1 0 1 0 1 0 1 0 1 0 
1 0 1 0 1 0 5047 2878 100 MP stroke
1 0 1 0 1 0 1 0 1 0 1 0 1 0 1 0 
1 0 1 0 1 0 1 0 1 0 1 0 1 -47 1 0 
1 47 0 -47 1 -94 0 47 1 0 1 0 1 0 1 0 
0 47 1 0 1 -47 0 47 1 0 1 47 0 -94 1 47 
1 0 0 -47 1 -47 0 47 1 0 1 0 1 0 1 0 
1 0 1 0 1 0 0 -47 1 0 1 0 0 -47 1 94 
1 0 1 0 1 0 1 0 1 0 0 94 1 0 1 0 
1 0 1 0 1 94 1 0 1 0 1 0 1 -94 1 0 
1 0 1 0 1 47 1 0 0 47 1 0 0 -47 1 47 
1 0 1 0 1 0 1 0 1 0 1 0 1 0 1 0 
1 -47 0 47 1 0 0 -47 1 0 0 47 1 0 1 0 
1 0 0 94 1 0 1 0 1 0 1 0 1 0 0 47 
1 0 1 0 1 0 4965 2643 100 MP stroke
1 -47 0 94 1 -94 1 0 1 0 1 0 1 47 0 -47 
1 0 0 94 1 0 0 47 1 0 0 -47 1 0 1 -94 
0 94 1 0 1 0 0 -94 1 0 1 0 1 0 1 0 
1 0 1 0 1 0 1 0 1 0 1 0 1 0 0 94 
1 0 0 94 1 0 0 -47 1 0 1 0 1 0 1 47 
1 0 0 -94 1 0 1 0 0 47 1 47 1 0 1 0 
1 0 1 0 1 -47 1 0 1 0 0 -47 1 0 1 0 
1 0 1 0 1 0 1 0 1 94 0 -94 1 -47 1 0 
0 47 1 0 1 0 1 -47 1 94 1 0 0 -47 1 47 
0 47 1 -47 1 0 1 0 0 47 1 0 1 0 0 46 
1 0 0 47 1 0 0 -93 1 0 1 0 1 -47 0 47 
1 0 1 0 1 0 1 0 1 0 1 -47 1 0 0 -47 
1 -47 0 47 1 0 4890 2596 100 MP stroke
1 0 1 0 1 -141 1 0 0 47 0 -47 1 0 1 47 
0 47 1 0 0 47 1 47 0 -94 1 0 1 94 1 47 
1 0 1 0 0 -94 1 0 1 47 1 0 0 -47 1 0 
1 0 1 0 0 -94 1 0 1 0 1 0 1 0 1 -47 
1 0 1 -47 1 0 0 47 0 -47 1 0 1 0 1 0 
0 47 0 -47 1 -47 0 47 1 0 0 -47 1 47 0 47 
1 -47 0 47 1 0 0 47 1 0 1 94 0 -47 1 0 
0 47 1 0 0 94 1 0 1 0 1 -94 0 -47 0 47 
1 94 0 -141 0 47 1 0 1 0 1 -47 1 0 0 -94 
1 0 1 0 1 0 1 0 1 0 0 -47 1 94 0 -47 
1 0 1 47 1 47 1 -94 0 47 1 -47 0 -94 1 0 
0 -47 0 47 1 -47 0 -47 0 141 1 94 1 0 1 47 
1 -47 0 47 0 -47 4826 2690 100 MP stroke
1 0 1 0 1 -94 1 -47 0 -94 1 -47 0 -47 1 -47 
0 47 1 0 0 188 1 -47 0 47 0 -47 1 141 0 94 
0 -94 1 47 1 94 0 -47 1 0 1 0 1 0 0 47 
1 0 0 94 1 93 1 0 0 47 1 0 0 94 1 0 
1 0 0 47 1 0 0 -47 1 -47 1 -47 0 -47 1 -93 
1 0 0 140 1 0 0 -47 1 47 0 47 1 0 1 94 
0 -47 0 94 1 0 1 0 1 0 0 -47 1 0 1 -47 
0 47 0 -47 1 141 1 94 0 94 1 94 1 47 0 -47 
1 0 0 -47 1 0 0 -47 1 0 1 0 0 94 1 0 
1 141 0 94 0 -94 1 -47 0 94 1 47 0 141 0 -47 
1 0 1 0 0 94 0 -94 1 -94 1 -94 0 -141 1 188 
1 0 0 94 1 47 0 -141 1 141 0 47 1 0 0 188 
0 -47 1 47 1 47 4769 1234 100 MP stroke
0 -141 0 47 1 0 0 -47 1 -94 0 -94 1 94 0 -47 
1 0 0 47 1 0 0 -94 1 -141 0 -47 1 0 0 -94 
0 94 1 0 0 -94 1 0 1 -94 0 -47 1 -188 1 0 
0 -188 1 -47 1 0 1 94 0 141 0 -47 1 47 0 188 
1 0 0 141 1 0 1 0 1 -47 1 0 1 0 0 47 
1 0 1 0 1 0 1 0 0 -47 1 0 1 0 0 94 
1 0 1 0 0 -94 1 0 1 0 1 0 0 141 1 0 
1 0 1 0 1 0 1 0 1 0 0 -141 1 0 0 141 
1 0 1 0 1 0 1 -94 1 0 1 0 1 0 1 0 
0 -47 1 94 1 0 0 -47 1 0 1 0 0 47 1 0 
1 0 1 0 1 0 1 -47 0 -47 1 0 0 47 1 0 
1 0 1 0 1 0 1 0 0 -47 1 47 1 0 1 0 
1 -94 1 0 1 47 4700 1892 100 MP stroke
1 0 1 0 1 0 1 0 1 0 1 0 1 -47 0 47 
1 0 1 -47 1 0 1 0 1 0 1 0 1 0 1 0 
1 0 1 0 1 0 0 -47 1 0 0 47 1 0 0 47 
1 0 1 0 0 47 1 -47 0 -47 1 0 0 94 1 0 
0 -47 1 -47 1 0 1 47 1 0 1 0 1 47 1 0 
1 0 1 0 1 0 1 0 1 0 1 0 1 -47 1 -47 
1 141 1 0 1 0 0 -47 1 0 1 0 0 -47 1 0 
1 47 1 -47 1 0 1 0 1 0 1 0 1 0 1 0 
1 0 1 0 1 0 1 0 1 0 0 47 1 47 0 -47 
1 0 1 0 1 0 1 0 1 0 1 0 1 0 1 0 
1 0 1 47 1 47 0 -47 1 0 1 -47 0 47 1 -47 
1 0 1 0 0 -47 1 0 1 0 1 0 1 0 0 47 
0 -47 1 0 1 0 4618 1892 100 MP stroke
1 0 0 -47 1 0 1 0 0 47 1 0 0 -47 1 0 
1 0 1 0 1 0 1 0 1 0 1 0 1 0 1 0 
1 0 1 0 1 0 1 0 1 0 1 0 1 0 1 0 
1 0 1 0 1 0 1 0 1 0 1 0 1 0 1 0 
1 0 1 0 1 0 1 0 1 0 1 -47 1 0 1 0 
0 -47 1 0 0 94 1 0 1 0 1 0 1 0 1 0 
1 0 0 -47 1 0 1 0 0 47 1 -94 1 0 0 -47 
1 0 1 0 1 0 1 0 1 0 1 0 1 0 1 0 
1 0 1 0 1 0 1 0 1 0 1 0 1 0 1 0 
1 -47 1 0 1 0 1 0 1 0 1 0 0 -47 1 0 
1 47 0 -47 1 0 1 0 1 0 1 0 1 0 1 0 
1 0 1 0 1 0 1 0 1 0 1 0 1 0 1 0 
1 0 1 0 1 0 4529 2174 100 MP stroke
1 0 1 0 1 0 1 0 1 0 1 0 1 0 1 0 
1 0 1 0 1 0 0 -47 1 0 1 0 1 0 1 0 
1 47 1 0 1 0 1 0 1 0 1 0 1 0 1 0 
1 0 1 0 1 0 1 0 1 0 1 0 1 0 1 0 
1 0 1 0 1 0 1 47 1 0 1 0 1 0 1 0 
1 0 0 -47 1 0 1 0 1 0 1 0 1 47 1 0 
1 0 1 0 0 -47 1 0 0 -47 1 0 0 47 1 0 
1 0 1 0 1 -47 1 0 0 47 1 0 0 -47 1 0 
1 0 1 0 1 0 1 0 1 0 1 94 1 0 1 0 
1 0 1 0 0 -47 1 47 1 0 1 0 1 0 1 0 
1 0 1 0 1 0 1 0 1 0 1 0 1 -47 0 47 
1 -94 1 0 1 0 1 0 0 47 1 0 0 -47 1 0 
1 47 0 47 1 -94 4442 2221 100 MP stroke
1 0 0 94 0 -94 1 0 1 0 0 47 1 47 1 -47 
0 -47 1 0 1 0 1 0 1 0 1 0 1 0 1 47 
1 0 1 0 0 47 1 0 1 -47 0 47 1 0 1 0 
1 0 1 0 1 0 0 94 1 -47 1 0 1 0 1 0 
1 0 1 0 1 0 1 0 1 0 1 0 1 0 1 0 
1 0 1 0 1 0 1 0 1 0 1 -47 1 0 1 0 
1 0 1 0 1 0 1 0 1 0 1 0 1 0 0 47 
1 0 1 0 1 0 1 0 1 0 1 0 1 0 1 0 
1 0 1 0 1 -47 1 0 1 0 1 0 1 0 1 47 
1 0 0 47 1 0 1 0 1 0 1 0 1 0 1 0 
0 47 1 0 0 47 1 0 1 0 1 -47 0 -47 1 47 
1 -47 1 0 1 0 1 0 1 47 0 -47 1 0 1 0 
1 0 1 0 1 0 4356 2033 100 MP stroke
1 0 1 0 0 94 1 0 1 0 1 0 1 0 1 0 
1 0 1 0 1 0 1 0 1 0 1 0 1 0 1 0 
1 0 1 0 1 0 0 47 1 0 0 -47 1 0 1 0 
1 0 1 0 1 0 0 47 1 0 1 0 1 0 1 0 
0 47 1 0 0 -47 1 47 1 -47 0 -47 1 0 1 94 
1 0 1 0 1 0 1 0 1 0 1 0 1 0 1 -47 
0 47 1 47 1 0 0 -47 1 -47 0 -47 1 0 1 0 
1 0 1 0 1 0 1 0 1 0 1 0 1 0 1 0 
1 0 1 0 1 0 1 0 1 47 1 0 1 0 0 47 
1 0 1 0 1 0 1 0 1 0 1 0 1 0 1 0 
1 0 1 0 1 0 1 0 1 0 1 0 1 0 1 0 
1 0 1 0 1 0 1 0 1 0 1 -47 1 0 1 0 
1 0 1 0 1 0 4268 1892 100 MP stroke
1 0 1 0 1 0 1 0 1 0 0 47 1 0 1 0 
1 0 1 0 1 0 1 0 0 -94 1 0 1 47 1 -47 
0 47 1 -47 0 47 1 0 0 47 0 -94 1 94 0 -47 
1 0 1 0 1 47 1 0 1 0 1 -47 1 0 1 0 
0 47 1 0 1 0 1 -47 1 0 1 0 1 47 1 0 
1 0 1 0 1 0 0 -47 1 0 1 47 1 0 1 0 
1 0 0 47 1 0 1 0 1 0 1 -47 1 0 1 0 
1 0 1 0 1 0 1 0 1 0 1 0 1 0 1 0 
1 0 1 0 1 0 1 94 1 0 1 0 1 0 1 0 
1 0 0 47 1 0 1 0 1 0 1 -47 1 0 1 0 
1 47 1 0 1 0 1 0 1 0 0 -47 1 0 1 0 
1 0 0 47 1 0 1 0 1 0 1 0 1 0 0 -47 
1 0 1 0 0 47 4184 1704 100 MP stroke
1 0 1 0 1 0 1 0 1 0 1 0 1 0 1 0 
1 0 1 -47 0 47 0 -47 1 47 1 -47 1 0 1 0 
1 0 1 0 1 0 1 -47 1 0 1 0 1 0 1 0 
1 0 1 0 1 0 1 0 1 0 1 0 1 0 1 0 
0 47 0 -47 1 0 1 0 1 0 1 0 1 0 1 0 
1 0 1 0 1 0 1 0 1 0 1 0 1 0 1 0 
1 0 1 0 1 0 1 0 1 0 1 0 1 0 1 0 
1 0 1 0 1 0 0 47 1 0 1 0 0 -47 1 0 
1 0 1 0 1 0 1 0 1 0 1 0 1 0 1 0 
1 0 1 0 1 0 1 0 1 0 1 0 1 94 1 0 
1 0 1 0 1 0 1 -94 0 94 1 0 0 47 0 -47 
1 -47 1 0 0 -141 1 0 1 0 1 0 1 0 1 0 
1 0 1 0 1 0 4095 1892 100 MP stroke
1 0 0 -47 1 0 1 0 1 0 1 0 1 0 1 0 
1 0 0 47 1 0 1 0 1 0 1 0 1 0 1 0 
1 0 1 0 0 47 1 0 1 47 0 -47 1 47 1 0 
1 0 1 0 0 47 1 0 1 0 1 47 1 0 1 0 
0 47 1 -47 0 47 1 0 1 47 1 0 0 -47 1 47 
0 -47 0 94 1 47 1 0 1 0 1 0 0 47 1 0 
1 0 1 0 1 -47 0 -47 1 0 1 0 1 0 1 0 
1 0 1 0 1 0 0 -47 1 0 1 0 1 0 1 0 
1 0 1 0 1 0 1 0 1 0 1 0 1 0 1 0 
1 0 1 0 1 0 1 0 1 0 1 0 1 0 1 0 
1 0 1 0 0 -47 1 47 1 -47 0 47 0 -47 1 47 
1 0 1 0 1 0 1 0 1 0 1 0 1 0 1 0 
1 0 1 0 1 0 4012 1610 100 MP stroke
1 0 1 0 1 0 1 0 1 0 1 0 1 0 1 0 
0 -47 1 47 1 0 0 47 1 0 1 0 1 0 1 0 
0 -47 1 0 1 0 1 -47 0 47 1 0 1 0 0 -47 
1 0 1 0 1 0 1 0 1 47 0 -47 0 47 1 0 
1 -47 1 0 1 0 1 0 1 0 1 0 1 0 1 0 
1 0 1 0 1 0 1 0 1 0 1 -47 1 0 0 47 
1 0 1 0 1 0 1 0 1 0 1 0 1 0 1 0 
1 0 1 0 0 -47 1 0 0 47 1 -47 1 0 0 47 
1 -47 1 0 1 0 0 47 1 0 1 0 0 -47 1 0 
0 47 1 0 1 0 1 0 1 0 1 0 1 0 1 0 
1 0 1 0 1 0 1 0 1 0 1 0 1 0 1 0 
1 0 1 0 1 0 1 0 1 0 1 0 1 0 1 0 
1 0 1 0 1 47 3927 1610 100 MP stroke
1 0 1 0 1 0 1 0 1 0 1 0 1 0 1 0 
1 0 1 0 0 -47 1 94 1 0 0 -47 1 0 1 0 
0 47 1 0 1 -47 1 0 0 47 0 -94 1 0 1 0 
0 47 1 0 1 -47 1 0 1 0 1 0 1 0 1 0 
1 0 1 0 1 0 1 0 1 0 1 0 1 0 1 0 
1 0 1 0 1 0 0 47 1 0 0 -47 1 47 1 0 
0 -47 0 47 1 0 1 0 1 47 1 0 0 -47 1 0 
0 47 0 -47 1 47 1 0 1 0 1 0 1 0 1 0 
1 0 1 47 1 0 0 47 1 0 1 0 1 0 0 94 
1 0 1 0 1 0 1 0 1 0 1 0 1 0 1 0 
1 0 1 0 0 -47 1 0 0 47 1 0 1 0 0 47 
1 0 0 -47 1 0 0 -47 1 -47 1 0 1 0 1 0 
1 -47 1 0 1 0 3848 1516 100 MP stroke
1 0 1 -47 1 0 1 0 1 0 1 0 1 0 1 0 
1 0 1 0 1 0 1 0 1 0 1 0 1 0 1 0 
1 0 1 0 1 0 1 0 1 0 1 0 1 0 1 0 
1 0 1 0 1 47 1 0 1 0 1 0 1 0 1 0 
0 -47 1 0 1 0 1 0 1 0 1 0 0 47 1 -47 
1 0 0 94 1 0 0 -47 1 0 1 0 1 -47 1 0 
0 47 1 0 1 -47 1 0 0 94 1 0 1 -94 0 -47 
1 47 0 -94 0 94 1 0 1 0 1 0 1 0 1 0 
1 0 1 0 1 0 1 0 1 -94 1 0 1 0 1 0 
1 0 0 47 1 0 1 0 0 -47 1 0 1 -47 1 47 
0 -47 1 0 1 0 1 -47 1 0 1 0 1 0 1 0 
1 0 1 0 1 0 1 0 1 0 1 0 1 0 1 0 
1 0 1 0 1 0 3761 1751 100 MP stroke
1 0 1 0 1 0 1 0 1 0 1 0 1 0 1 0 
1 0 1 0 1 0 1 0 1 0 1 0 1 0 1 0 
1 0 1 0 1 0 1 0 1 0 1 0 1 0 1 0 
1 -47 1 0 1 0 1 0 1 0 1 0 1 0 1 0 
1 0 1 0 0 47 0 -47 1 0 0 -47 0 47 1 0 
1 0 1 0 1 0 1 0 1 0 1 0 0 -47 1 0 
1 0 1 0 1 0 1 0 1 0 1 0 1 0 1 0 
1 0 1 -47 0 94 1 -94 0 47 1 0 1 0 1 0 
1 0 0 -47 1 0 1 0 1 0 0 47 1 0 1 0 
0 -47 0 47 1 0 1 0 0 -47 1 0 1 0 1 0 
1 0 1 0 1 0 1 0 1 0 1 0 1 47 1 47 
1 0 1 -47 0 -47 1 0 1 0 1 0 1 0 1 0 
1 47 1 0 1 0 3675 1845 100 MP stroke
1 0 1 0 1 0 1 0 1 0 1 0 1 0 1 0 
1 0 1 0 1 0 1 0 1 0 1 0 1 0 1 0 
1 0 1 0 1 0 1 0 1 0 1 0 1 0 1 0 
1 0 1 0 1 0 1 0 1 0 0 47 1 0 1 0 
1 0 1 0 1 0 1 0 1 0 1 0 1 0 1 0 
1 0 1 0 1 0 1 0 1 0 1 0 1 0 1 0 
1 0 1 0 1 0 1 47 0 47 1 94 1 0 1 0 
1 0 1 0 1 0 1 0 1 0 1 0 1 0 1 0 
1 0 1 0 1 0 1 0 1 0 1 0 1 0 1 0 
1 -47 0 47 1 -47 1 0 1 0 1 47 1 0 1 0 
1 0 1 0 1 0 1 0 1 0 0 47 1 -47 0 94 
1 0 1 0 1 -47 1 0 1 0 1 0 1 0 1 0 
1 0 1 0 1 0 3581 1563 100 MP stroke
1 0 1 0 1 0 1 0 1 0 1 0 1 -47 0 47 
1 0 1 0 1 0 1 0 1 0 1 0 1 0 1 0 
1 0 1 0 1 0 1 0 1 0 1 0 1 0 1 0 
1 0 1 0 1 0 1 -47 1 0 1 0 1 0 1 0 
1 0 1 0 1 0 1 0 1 0 1 0 1 0 1 0 
1 0 1 0 0 -47 1 47 1 0 1 0 0 -47 1 47 
1 -47 0 47 1 0 1 0 1 0 1 47 1 0 1 0 
1 0 1 0 1 0 1 0 1 0 0 -47 1 0 0 -47 
0 47 1 47 1 0 1 0 1 0 1 0 1 0 1 0 
1 0 1 0 1 0 1 0 1 0 1 0 1 0 1 0 
1 0 1 0 0 -47 1 0 0 47 1 94 1 0 1 0 
1 0 1 0 1 0 1 0 1 0 1 0 1 0 1 0 
1 0 1 0 1 0 3491 1469 100 MP stroke
1 0 1 0 1 0 1 47 1 0 0 -47 1 0 1 0 
1 0 1 0 1 0 1 0 1 0 1 0 1 0 1 0 
1 0 1 0 1 0 1 0 1 0 1 0 1 0 1 0 
1 0 1 0 1 0 0 47 1 0 1 0 1 0 0 -47 
1 0 1 0 1 0 1 0 1 0 1 0 1 0 1 0 
1 0 1 -47 1 0 0 47 1 0 1 0 1 0 1 0 
1 0 1 0 0 47 1 0 0 -47 1 0 1 0 1 0 
1 0 1 0 1 0 1 0 1 0 1 0 1 -47 1 0 
0 -47 1 0 1 47 1 0 0 -47 1 0 0 -47 1 0 
1 0 1 0 1 0 1 0 1 0 1 0 1 0 1 0 
1 0 1 0 1 0 1 0 1 0 1 0 1 0 1 0 
1 0 1 0 1 0 1 0 1 0 1 0 1 0 1 0 
1 0 1 0 1 0 3401 1610 100 MP stroke
1 0 0 -94 1 0 1 0 1 0 1 0 1 0 1 0 
1 0 1 0 1 0 0 47 1 0 1 0 0 47 1 -47 
0 47 1 -47 0 47 1 0 0 -47 1 -47 1 0 1 0 
1 0 0 47 1 47 1 0 0 -47 1 0 1 0 1 0 
1 0 1 0 1 0 1 0 1 0 1 0 1 0 1 47 
1 -47 1 0 1 0 1 0 0 47 1 0 1 -47 1 0 
1 0 1 0 1 47 1 -47 0 94 1 0 1 0 1 0 
1 47 1 0 1 0 1 0 1 0 0 -47 1 0 0 -47 
1 0 1 0 1 0 1 0 1 0 1 0 1 0 0 47 
1 0 1 0 1 0 1 0 1 0 1 0 1 0 1 0 
1 0 1 0 1 0 1 0 1 0 1 0 0 94 1 -47 
0 -47 1 0 1 0 1 0 1 0 1 0 1 0 1 0 
1 0 1 0 0 -94 3318 1657 100 MP stroke
1 0 1 0 1 0 1 0 1 0 1 0 1 0 1 0 
1 0 1 0 1 0 1 0 1 0 1 0 1 0 1 0 
1 0 1 0 1 0 1 0 1 0 0 -47 1 0 1 47 
1 0 0 -47 1 0 1 0 1 0 1 0 1 0 1 0 
1 0 0 -47 1 0 1 0 1 0 1 0 1 0 1 0 
1 0 1 0 1 0 0 -47 1 47 0 -47 1 0 1 0 
1 0 1 0 0 -47 0 47 1 0 1 -47 0 47 0 -47 
1 0 1 0 0 94 1 0 1 0 1 0 0 188 1 -47 
1 0 0 47 1 0 0 -47 1 47 1 0 1 -47 1 0 
1 0 0 47 1 0 0 -47 1 -47 1 0 1 0 1 94 
1 0 1 0 1 0 0 -94 1 0 0 47 1 0 1 0 
0 47 1 0 1 0 0 47 1 0 1 0 1 0 1 0 
1 0 1 0 1 0 3238 1516 100 MP stroke
1 0 1 0 1 0 1 0 1 0 1 0 1 0 1 0 
1 0 1 0 1 0 1 0 1 0 1 0 1 0 1 47 
0 -47 1 0 1 0 1 0 0 -47 0 47 1 0 1 0 
1 0 1 0 1 0 1 0 1 0 1 0 1 0 1 0 
1 0 1 0 1 0 1 0 1 0 0 47 1 -47 1 0 
1 0 1 0 1 0 1 0 1 0 1 0 1 0 1 0 
1 0 1 0 0 47 1 0 1 0 1 0 1 0 1 0 
1 0 1 0 1 0 1 0 1 0 1 0 1 0 1 0 
1 0 1 0 1 0 0 -47 1 0 1 0 1 0 1 0 
1 -47 1 0 1 0 1 0 1 -47 1 0 1 0 1 0 
0 47 1 0 1 0 0 47 1 0 1 0 1 -47 1 47 
0 -47 1 0 1 0 1 0 1 0 1 0 1 0 1 0 
1 -47 0 94 1 0 3149 1516 100 MP stroke
1 0 1 0 1 0 1 0 1 0 0 -47 1 0 0 -94 
1 0 1 0 1 0 0 141 1 0 1 0 1 0 1 0 
1 0 1 0 1 0 1 0 1 0 1 0 1 0 1 0 
1 -47 0 47 0 -47 1 0 1 0 1 0 1 0 1 0 
1 0 1 0 1 0 1 0 1 0 1 0 1 0 1 0 
1 0 1 0 1 0 1 0 1 0 1 0 1 0 1 0 
1 0 1 0 1 0 1 0 1 0 1 0 1 0 0 47 
1 0 1 0 0 -47 1 47 1 0 1 0 1 -47 0 47 
1 0 1 0 1 -47 1 0 1 47 1 0 1 0 1 0 
1 0 1 0 1 -47 1 0 0 47 1 0 1 0 1 0 
1 0 1 0 1 0 1 0 1 0 1 0 0 -47 1 0 
1 0 1 0 1 0 1 0 1 0 1 47 1 0 1 0 
1 0 1 0 1 0 3060 1516 100 MP stroke
0 -47 1 47 0 -47 1 0 0 47 1 -47 0 47 1 -47 
0 47 1 0 0 -47 1 47 1 0 1 0 1 0 1 0 
0 -47 1 0 1 0 1 0 1 0 1 0 1 -47 1 0 
1 0 0 47 1 0 1 0 1 0 1 0 1 0 0 47 
1 0 0 -47 0 47 1 -47 1 -47 0 47 1 0 1 0 
1 0 1 0 1 0 1 0 1 0 1 0 1 0 1 0 
1 0 1 0 1 0 1 0 1 0 1 0 1 0 1 0 
1 0 1 0 1 0 1 0 1 0 1 0 1 0 1 0 
1 0 1 0 0 47 1 0 1 0 1 -47 1 0 1 0 
1 0 1 0 1 0 1 0 1 0 1 0 1 0 1 0 
1 0 1 0 1 0 1 0 1 0 1 0 1 0 1 0 
1 0 1 0 1 -47 1 0 1 0 1 0 1 0 1 0 
1 0 1 0 1 0 2974 1610 100 MP stroke
1 0 1 0 1 0 0 -47 1 47 0 -47 1 0 1 47 
0 -47 1 47 0 -47 1 0 0 -47 0 47 1 0 1 0 
1 0 0 47 1 0 0 -94 0 47 1 94 0 -94 1 0 
1 0 1 -47 1 0 0 47 1 0 1 0 1 0 1 0 
1 0 1 -47 1 0 1 0 1 0 1 0 1 0 1 0 
1 0 1 0 1 0 0 47 1 0 1 0 1 0 1 0 
1 0 1 0 0 -47 1 0 1 0 1 0 1 0 1 0 
1 0 1 0 1 47 1 0 1 0 1 0 1 0 0 -94 
1 0 1 0 1 0 1 0 1 0 1 0 1 0 1 0 
1 0 1 0 1 0 1 0 1 0 1 0 1 0 1 0 
1 0 1 0 1 0 1 0 1 0 1 0 1 141 1 0 
1 0 1 0 1 0 1 0 1 0 1 -47 0 47 1 0 
1 0 1 0 1 0 2890 1610 100 MP stroke
1 0 1 0 1 0 1 0 1 47 1 0 1 0 1 0 
1 -47 1 0 0 -47 1 0 1 0 1 0 1 0 0 47 
1 0 1 0 1 0 1 0 1 0 0 -47 1 47 0 -47 
1 0 1 47 1 -47 0 -47 0 94 1 -47 0 47 1 0 
0 -47 1 0 1 0 1 47 1 0 1 0 0 -47 0 47 
1 0 1 0 0 -47 1 -47 0 -47 1 0 1 0 1 0 
1 0 1 0 1 -47 1 0 1 0 1 0 1 -47 1 0 
1 47 1 0 1 0 0 -47 1 0 0 47 1 0 1 0 
0 -47 1 0 1 0 1 -47 0 47 0 -47 1 0 1 0 
1 0 1 0 0 -47 1 0 1 0 1 0 0 -47 1 94 
1 0 1 0 1 0 1 0 1 0 1 0 1 0 1 0 
1 0 1 0 1 0 1 0 1 0 1 -47 1 0 1 -47 
0 -47 0 47 1 0 2812 1986 100 MP stroke
0 -47 1 0 0 47 1 94 0 -47 1 0 0 47 1 0 
1 0 1 0 1 0 1 0 1 0 1 0 1 0 0 47 
1 -47 1 0 1 0 1 0 1 0 0 -47 0 47 1 -47 
1 0 1 0 1 0 1 0 0 94 1 -47 1 0 1 0 
1 0 1 0 1 0 1 0 1 0 0 -94 1 47 1 -47 
0 47 1 -47 0 47 1 47 1 0 0 47 0 -47 1 -47 
0 47 1 0 0 47 1 0 1 0 1 0 1 0 1 0 
1 0 1 0 0 94 1 0 1 0 1 94 1 0 1 0 
1 0 1 0 1 0 1 0 1 0 0 -47 1 0 1 0 
1 47 1 47 0 -47 1 94 1 0 1 47 1 -47 0 47 
0 -47 1 47 1 -47 1 0 1 47 0 -47 1 0 1 0 
1 0 1 0 0 47 1 -47 1 0 1 0 1 0 0 47 
1 47 1 0 1 0 2736 1469 100 MP stroke
1 0 1 0 1 0 1 0 1 0 1 0 0 47 1 0 
1 0 1 47 1 0 1 0 1 0 0 -94 1 0 1 0 
1 0 1 0 1 0 1 0 1 0 1 0 1 0 1 0 
1 0 1 94 1 0 1 0 1 0 1 0 1 47 1 0 
0 47 1 0 1 0 1 0 1 0 1 0 1 0 1 0 
1 0 0 -94 1 0 0 94 1 0 1 0 1 0 1 0 
1 0 1 0 1 0 1 0 1 0 1 0 1 0 1 0 
1 0 1 0 1 0 1 0 1 0 1 0 0 47 1 0 
0 -47 1 0 0 47 1 0 0 47 1 -47 1 0 0 -47 
1 94 0 -47 1 -47 1 0 1 94 1 0 0 -47 1 0 
0 47 1 0 1 0 1 0 1 47 1 0 1 0 1 0 
1 -47 0 94 1 0 0 -47 1 0 1 0 1 0 1 0 
1 0 1 0 1 0 2652 1140 100 MP stroke
0 -47 1 0 0 47 1 0 0 47 1 0 1 0 1 0 
1 0 1 0 0 47 1 0 0 -47 1 0 1 0 1 0 
1 0 0 47 1 0 1 0 1 0 0 -47 1 0 1 0 
0 47 1 0 1 0 1 0 0 47 1 -94 1 0 1 0 
1 0 0 94 1 0 1 0 1 47 1 0 1 0 1 0 
1 0 0 -47 1 0 1 -47 1 0 1 0 1 0 1 0 
1 0 1 0 1 0 1 0 1 0 1 0 1 0 1 0 
1 0 1 0 1 0 1 0 1 0 1 0 1 0 1 0 
1 0 1 0 1 0 1 0 1 0 0 -47 1 0 1 0 
1 0 1 0 1 0 1 0 1 0 1 0 1 0 1 0 
1 0 1 0 1 0 1 0 1 0 1 0 0 -47 1 0 
1 0 1 0 0 47 1 0 1 0 1 0 1 0 1 0 
1 0 1 0 1 0 2567 1093 100 MP stroke
1 0 1 0 1 0 0 47 1 -47 0 47 0 -47 1 0 
1 47 0 -47 1 47 0 -47 1 0 1 0 1 0 1 0 
1 0 1 0 1 0 1 0 1 0 1 0 1 0 1 0 
1 0 1 0 1 0 1 0 1 0 1 0 1 0 1 0 
1 47 1 0 1 0 1 0 1 0 1 0 1 0 1 0 
0 47 1 0 1 0 1 0 1 0 1 0 1 0 1 0 
1 0 1 0 1 0 1 0 1 0 0 47 1 0 0 -47 
1 0 1 0 0 -47 1 0 0 -47 0 47 1 0 1 -47 
0 94 1 0 1 0 1 0 0 47 1 0 1 0 1 0 
1 -47 0 47 1 0 1 0 0 -47 1 0 0 47 1 0 
1 0 1 0 1 0 1 0 1 0 1 0 1 0 1 0 
1 0 1 0 1 0 1 0 1 0 1 0 1 0 1 0 
1 0 1 0 1 0 2484 952 100 MP stroke
1 0 1 0 1 0 1 0 1 0 1 0 1 0 1 0 
1 0 1 0 0 47 1 0 1 0 1 0 1 0 1 0 
1 0 1 0 1 47 1 0 1 0 1 0 1 0 1 0 
1 0 1 47 1 0 1 -47 0 47 1 0 1 0 0 47 
1 0 1 0 1 -47 0 47 1 0 1 -47 0 47 1 0 
1 0 1 0 1 0 1 0 1 0 1 -47 0 47 1 0 
1 0 1 0 1 0 1 0 1 0 1 0 1 0 1 0 
1 0 1 0 1 0 1 0 1 0 1 0 1 0 1 0 
1 0 1 0 1 0 1 -47 0 141 1 0 0 -47 0 47 
1 -47 1 0 1 0 1 0 0 47 1 0 1 0 1 0 
1 0 1 0 1 0 1 0 1 0 1 0 1 0 1 0 
1 0 1 0 1 0 1 0 1 0 1 0 1 0 1 0 
1 0 1 0 1 0 2395 670 100 MP stroke
1 0 1 0 1 0 1 0 1 0 1 0 1 0 1 0 
1 0 1 0 1 0 1 0 1 0 1 0 1 0 1 0 
1 0 1 0 1 0 1 0 1 0 1 0 1 0 1 0 
1 0 1 0 1 0 1 0 1 0 1 0 1 0 1 0 
1 0 1 0 1 0 1 0 1 0 1 0 1 0 1 0 
1 0 1 0 1 0 1 0 1 0 1 0 1 0 1 0 
1 0 1 0 1 0 1 0 1 0 1 0 1 0 1 0 
1 0 1 0 1 0 1 0 1 0 1 0 1 0 1 0 
1 0 1 0 1 0 1 0 1 0 1 0 1 0 1 0 
1 0 1 0 1 0 1 0 1 0 1 0 1 0 1 0 
1 0 1 0 1 0 0 47 1 -47 1 47 0 -94 1 0 
1 0 1 0 1 0 1 0 1 0 1 47 1 0 1 0 
1 0 1 0 1 0 2298 670 100 MP stroke
1 0 1 0 1 0 1 0 1 0 1 0 1 0 1 0 
1 0 1 0 1 0 1 0 1 0 1 0 1 0 1 0 
1 0 1 0 1 0 1 0 1 0 1 0 1 0 1 0 
1 0 1 0 1 0 1 0 1 0 1 0 1 0 1 0 
1 0 0 47 1 0 1 0 1 0 1 0 1 0 1 0 
1 0 1 0 1 0 1 0 1 0 1 0 1 0 1 0 
1 0 1 0 1 0 1 0 1 0 1 0 1 0 1 0 
1 0 1 0 1 0 1 0 1 0 1 0 1 0 1 0 
1 0 1 0 1 0 1 0 1 0 1 0 1 0 1 0 
1 0 1 0 1 0 1 0 1 0 1 0 1 0 1 0 
1 0 1 0 1 0 1 0 1 0 1 0 1 0 1 0 
1 0 1 0 1 0 1 0 1 0 1 0 1 0 1 0 
1 0 1 0 1 0 2200 623 100 MP stroke
1 0 1 0 1 0 1 0 1 0 1 0 1 0 1 0 
1 0 1 0 1 0 1 0 1 0 1 0 1 0 1 0 
1 0 1 0 0 -47 1 0 1 0 1 0 1 0 1 0 
1 0 1 0 1 0 1 0 0 47 0 -47 1 0 1 0 
1 47 0 -47 1 0 1 0 0 47 1 0 1 0 1 0 
1 0 0 -47 1 0 1 0 1 0 1 0 1 47 1 0 
1 0 1 0 1 0 1 0 1 0 1 0 1 0 1 0 
1 0 1 0 1 0 1 -47 0 47 1 0 1 0 1 -47 
1 0 1 0 1 0 1 47 0 -47 1 0 1 47 1 0 
1 0 1 0 1 0 1 0 1 0 1 0 1 0 1 0 
1 0 1 0 1 0 1 0 1 0 1 0 1 0 1 0 
1 0 1 0 1 0 1 0 1 0 1 0 1 0 1 0 
1 0 1 0 1 0 2109 623 100 MP stroke
1 0 1 47 1 0 1 0 0 47 1 47 1 0 1 0 
1 0 1 0 0 -47 1 0 1 0 1 0 1 0 1 0 
1 0 1 0 1 0 1 0 1 0 1 0 1 0 0 47 
1 0 1 0 1 0 1 0 1 0 1 0 1 47 0 -47 
1 0 0 47 1 -94 1 0 1 0 1 0 1 0 1 0 
1 0 1 0 1 0 1 0 1 0 1 0 1 0 1 0 
1 0 1 0 1 0 1 0 1 0 1 0 1 0 1 0 
1 0 1 0 1 0 1 0 0 47 1 0 1 0 1 -47 
0 94 1 0 1 0 1 0 1 0 1 0 1 -94 1 0 
0 -94 1 0 1 0 1 0 1 0 0 -47 0 47 1 0 
0 47 1 0 0 -47 1 0 0 47 1 0 1 0 0 47 
1 0 1 0 1 0 1 0 1 0 1 0 1 0 0 -47 
1 0 0 -47 1 0 2026 623 100 MP stroke
1 0 1 0 1 0 0 47 1 0 1 0 0 -47 1 0 
1 0 1 0 0 47 1 0 1 0 1 -47 0 -94 1 0 
1 -47 0 -47 1 0 1 0 1 0 1 0 1 0 1 0 
1 0 1 0 1 0 1 0 1 0 1 -47 1 47 1 0 
1 0 1 0 0 47 1 0 1 0 1 0 0 -47 1 0 
1 0 0 47 1 0 1 0 1 0 1 0 1 0 1 0 
1 0 0 -47 1 47 1 0 1 0 1 -47 1 0 1 0 
0 -47 1 0 1 0 1 0 1 0 0 47 1 0 1 0 
1 0 0 47 1 -47 0 47 1 -47 1 0 1 0 0 47 
1 0 1 0 1 0 1 0 1 0 1 0 1 0 1 0 
1 0 1 0 1 0 1 0 1 0 1 0 1 0 1 0 
1 0 1 0 0 -47 1 0 1 0 1 0 1 0 1 0 
0 47 1 0 1 0 1943 764 100 MP stroke
1 0 1 0 0 -47 1 0 0 -47 1 0 1 0 1 -47 
1 0 1 0 1 0 1 0 1 0 1 0 1 -47 1 0 
1 0 1 0 1 0 1 0 1 0 1 0 1 0 1 47 
0 -47 1 0 0 47 1 0 0 -47 0 47 1 0 1 0 
0 -47 1 0 1 0 0 47 1 -47 0 47 1 0 1 0 
1 0 1 0 0 -47 1 0 1 0 1 0 1 0 1 0 
1 0 1 0 1 0 1 0 1 0 1 0 1 0 1 0 
1 -47 1 0 1 0 1 0 1 0 1 0 1 0 1 0 
1 47 0 -47 1 0 1 0 1 0 1 0 0 -47 1 141 
0 -94 1 0 1 0 1 0 1 0 1 0 1 0 1 0 
1 0 1 0 0 -47 1 0 0 47 1 -47 0 47 1 0 
1 0 1 0 1 0 1 0 1 0 0 -47 1 0 0 47 
1 0 1 0 1 0 1862 999 100 MP stroke
1 0 1 0 1 0 1 0 1 0 1 0 1 0 1 0 
1 0 1 0 1 0 1 0 1 0 1 0 1 0 1 0 
1 0 1 -47 1 0 1 0 1 0 1 0 1 0 1 0 
1 0 1 0 1 0 1 0 1 0 1 -47 1 0 1 0 
1 0 1 0 1 0 1 0 1 0 1 0 1 0 1 0 
1 0 1 0 1 0 0 -47 1 0 1 0 1 0 1 0 
1 0 0 -47 1 0 0 94 1 0 0 -94 1 47 1 0 
0 -47 1 0 1 0 1 0 0 94 1 0 1 -47 0 141 
1 0 1 0 1 0 1 0 1 0 1 0 1 0 1 0 
1 0 1 0 1 -47 1 0 1 0 1 0 1 0 1 0 
0 -47 1 0 0 94 1 0 1 0 0 -47 1 0 0 -47 
1 47 1 0 0 47 1 0 1 0 1 0 1 0 1 0 
0 -94 1 0 1 0 1776 1093 100 MP stroke
1 47 1 0 1 47 1 0 1 0 1 0 1 0 1 0 
1 0 1 0 1 0 1 0 1 0 1 0 1 0 0 -94 
1 0 1 47 0 47 1 0 1 0 1 0 1 0 1 0 
1 0 1 0 1 0 1 0 1 0 1 0 1 0 1 0 
1 0 1 0 1 0 1 0 1 0 1 0 1 0 1 0 
1 0 1 0 1 0 1 0 1 0 1 0 1 0 1 0 
1 0 1 0 1 0 1 0 1 0 1 0 1 0 1 0 
1 0 1 0 1 0 1 0 1 0 1 0 1 0 1 0 
1 0 1 0 1 0 1 0 1 0 1 0 1 0 1 0 
1 0 1 0 1 0 1 0 1 0 1 0 1 0 1 0 
1 0 1 0 1 0 1 0 1 0 1 0 1 0 1 -47 
1 0 0 47 1 0 1 0 1 0 1 0 1 0 1 0 
1 0 1 0 1 0 1680 999 100 MP stroke
1 0 1 0 1 0 1 0 1 0 1 0 1 0 1 0 
1 0 1 0 1 0 1 0 1 0 1 0 1 0 1 0 
1 0 1 0 1 0 1 0 1 0 1 0 1 0 1 0 
1 0 1 0 1 0 1 0 1 0 1 0 1 0 1 0 
1 0 1 0 1 0 1 0 1 0 1 0 1 0 1 0 
0 -47 1 0 0 -47 1 0 0 47 1 47 1 0 1 -47 
1 0 0 47 1 0 1 0 1 0 1 0 1 0 1 0 
1 0 1 -47 1 0 1 0 1 0 1 0 1 -47 0 47 
1 -47 0 47 1 0 0 47 1 0 1 0 1 0 1 0 
1 0 1 0 1 0 1 0 1 0 1 0 1 0 1 0 
1 0 1 0 1 0 1 0 1 0 1 0 1 0 1 0 
1 0 1 0 1 0 1 0 1 0 1 0 1 0 1 0 
1 0 1 0 1 0 1588 999 100 MP stroke
1 0 1 0 1 0 1 -47 1 0 1 47 0 -47 1 0 
0 47 1 0 1 0 1 0 1 0 1 0 1 0 1 0 
1 0 1 0 1 0 1 0 1 0 1 0 1 0 1 0 
1 0 1 0 1 0 1 0 1 0 1 0 1 0 1 0 
0 47 1 0 1 -47 0 141 1 0 0 -47 1 0 0 47 
1 0 1 0 0 -47 1 0 1 0 0 47 1 0 1 0 
1 0 1 0 1 0 1 0 1 0 1 0 1 0 1 0 
1 0 1 0 1 0 1 0 1 0 1 0 0 -94 1 0 
1 0 1 0 1 0 1 0 1 0 1 0 1 0 1 0 
1 0 1 0 1 0 1 0 1 0 1 0 1 0 1 0 
1 0 1 0 1 0 1 0 1 0 1 0 1 0 1 0 
1 0 0 -47 1 0 1 0 1 0 1 0 1 0 1 0 
1 47 1 0 1 0 1499 952 100 MP stroke
1 0 0 -47 1 0 1 0 1 0 1 0 1 0 1 0 
1 0 1 0 1 0 1 0 1 0 1 0 1 0 1 0 
0 -47 1 0 1 0 1 0 1 0 1 0 1 0 1 0 
1 0 1 0 1 0 1 0 1 0 1 0 1 0 1 0 
0 -47 0 47 1 47 1 0 1 0 1 0 1 0 1 0 
0 -94 1 0 1 0 1 0 1 0 1 0 0 -47 1 0 
0 -47 1 0 1 0 1 0 1 0 1 0 1 0 1 0 
1 0 1 0 1 0 0 -47 1 0 0 47 1 -47 1 0 
1 0 1 0 1 0 1 0 1 0 1 0 1 0 1 0 
1 0 1 0 1 0 1 0 1 0 1 0 1 0 1 0 
0 -47 1 0 0 47 1 47 1 0 0 -94 1 47 1 0 
1 0 1 0 1 0 0 47 1 0 1 0 1 0 0 -47 
1 0 1 0 1 47 1414 1187 100 MP stroke
0 -47 1 47 0 47 1 0 0 -94 1 0 0 47 1 0 
1 0 1 0 1 0 0 47 1 0 1 0 1 0 1 0 
1 -47 0 47 1 0 0 47 0 -47 1 0 1 0 1 0 
1 0 1 0 0 47 1 0 1 0 1 0 0 -47 1 0 
1 47 1 0 1 0 1 0 1 0 1 0 1 0 1 0 
1 0 1 0 1 0 1 0 1 0 1 0 1 0 1 0 
1 0 1 0 1 0 1 0 1 0 1 0 1 0 1 0 
1 0 0 -47 1 0 1 0 1 0 1 0 0 47 1 0 
0 -47 1 0 1 0 0 94 1 -47 1 0 1 0 1 0 
1 0 1 0 1 0 1 0 1 -47 1 0 1 0 1 0 
1 0 1 0 0 -47 1 0 1 0 0 47 1 0 1 0 
0 47 1 0 1 0 0 47 1 0 1 0 0 -94 1 47 
0 -47 1 0 1 0 1335 1140 100 MP stroke
1 0 1 0 0 -47 0 47 1 0 1 0 0 -47 1 0 
1 0 1 0 1 0 1 0 1 47 0 47 0 -47 1 0 
1 0 0 47 1 0 1 0 1 0 1 0 1 0 1 0 
1 0 1 0 1 0 1 0 1 0 1 0 1 0 1 0 
1 0 1 47 1 -47 1 0 1 0 1 0 1 0 0 -94 
1 0 1 47 1 0 0 -47 1 0 0 94 1 0 1 0 
0 47 1 0 1 0 1 0 1 -47 1 0 1 0 1 0 
1 0 1 0 0 47 1 0 0 -47 1 0 1 0 0 47 
1 -47 0 47 1 0 1 0 0 -47 1 0 1 0 1 0 
1 0 0 47 1 0 1 0 1 0 1 0 1 0 1 0 
1 0 1 0 1 0 1 0 1 0 1 0 1 0 1 0 
1 0 1 0 1 0 1 0 1 0 1 0 1 0 1 0 
1 0 1 0 1 0 1252 1046 100 MP stroke
1 0 1 0 1 0 0 -47 1 0 1 0 1 0 1 0 
1 0 1 0 1 0 1 0 1 47 1 0 1 0 1 0 
1 0 0 -47 1 0 1 47 0 47 1 0 1 0 1 0 
1 0 1 0 0 -94 1 0 1 0 0 47 1 0 1 0 
0 -47 1 0 1 0 0 47 1 0 1 0 1 0 1 0 
0 -47 1 0 0 47 1 0 1 -47 1 0 1 0 1 0 
1 47 1 0 1 0 1 0 1 0 1 0 1 0 1 0 
1 0 1 47 1 0 1 0 0 -47 1 0 1 0 1 0 
1 0 1 0 1 0 1 0 1 0 1 0 1 0 0 47 
1 0 1 0 1 0 1 0 1 0 1 0 1 0 1 0 
1 0 1 0 1 0 1 0 1 0 1 0 1 0 1 0 
1 0 1 0 1 0 1 0 1 0 1 0 1 0 1 0 
1 0 1 0 1 0 1164 999 100 MP stroke
1 0 1 0 1 0 1 0 1 -47 1 0 1 0 1 0 
1 0 1 0 1 0 1 0 1 0 1 0 1 0 1 0 
1 0 1 0 1 0 1 0 1 0 1 0 1 0 1 0 
1 0 1 0 0 -47 1 0 1 0 1 0 1 0 1 0 
1 0 1 0 1 0 0 94 0 -47 1 -47 0 47 1 0 
1 0 1 0 1 0 1 0 1 0 1 0 1 0 1 0 
1 0 1 0 1 0 1 0 1 0 1 0 1 0 1 0 
1 0 1 0 0 47 1 -47 1 0 1 0 1 0 1 0 
1 0 1 0 1 47 1 0 1 0 1 0 1 -47 1 0 
1 0 1 0 1 0 1 0 1 0 1 0 1 0 1 0 
1 0 1 0 1 0 1 0 1 0 1 0 0 47 0 -47 
1 0 1 0 0 -47 1 0 1 0 0 47 1 -47 1 0 
1 0 1 0 1 0 1074 1093 100 MP stroke
1 0 1 0 1 0 1 0 1 0 1 0 1 0 1 0 
1 0 1 0 0 47 1 0 0 47 1 0 1 47 1 0 
1 0 1 0 1 0 1 -47 1 0 1 0 1 47 1 0 
1 0 0 -47 1 47 1 0 1 0 0 -47 0 47 1 0 
1 0 1 47 1 0 1 0 1 0 1 0 1 0 1 0 
1 0 1 0 1 0 1 0 1 0 1 0 1 0 1 0 
1 0 1 0 1 0 1 0 1 0 1 0 1 0 1 0 
1 0 1 0 1 0 1 0 1 0 1 0 1 0 1 0 
1 0 1 0 1 0 1 0 1 0 1 0 1 0 1 0 
1 0 1 0 1 0 1 0 1 0 1 0 1 0 1 0 
1 0 1 0 1 0 1 0 0 -47 1 0 1 0 1 0 
1 0 1 0 1 0 1 0 1 0 1 0 1 -47 1 0 
1 0 1 0 1 0 981 999 100 MP stroke
1 0 1 0 1 0 1 0 1 0 1 0 1 0 1 0 
1 0 1 0 1 0 1 0 1 0 1 0 1 0 1 0 
1 0 1 0 1 0 1 0 1 0 1 0 1 0 1 0 
1 0 1 0 1 0 1 0 1 0 1 0 1 0 1 0 
1 0 1 0 1 0 1 0 1 0 1 0 1 0 1 0 
1 0 1 0 1 0 1 0 1 0 1 0 1 0 1 0 
1 0 1 0 1 0 1 0 1 0 1 0 1 0 1 0 
1 0 1 0 1 0 1 0 1 0 1 0 1 0 1 0 
1 0 1 0 1 0 1 0 1 0 1 0 1 0 1 0 
1 0 1 0 1 0 1 0 1 0 1 0 1 0 1 0 
1 0 0 47 1 0 899 952 84 MP stroke
gr

c8

end %%Color Dict

eplot
%%EndObject

epage
end

showpage

%%Trailer
%%EOF
