%!PS-Adobe-2.0 EPSF-1.2
%%Creator: MATLAB, The MathWorks, Inc. Version 8.3.0.532 (R2014a). Operating System: Darwin 13.4.0 Darwin Kernel Version 13.4.0: Sun Aug 17 19:50:11 PDT 2014; root:xnu-2422.115.4~1/RELEASE_X86_64 x86_64.
%%Title: ../laser.eps
%%CreationDate: 10/28/2014  16:03:38
%%DocumentNeededFonts: Helvetica
%%DocumentProcessColors: Cyan Magenta Yellow Black
%%Extensions: CMYK
%%Pages: 1
%%BoundingBox:    73   215   554   589
%%EndComments

%%BeginProlog
% MathWorks dictionary
/MathWorks 160 dict begin
% definition operators
/bdef {bind def} bind def
/ldef {load def} bind def
/xdef {exch def} bdef
/xstore {exch store} bdef
% operator abbreviations
/c  /clip ldef
/cc /concat ldef
/cp /closepath ldef
/gr /grestore ldef
/gs /gsave ldef
/mt /moveto ldef
/np /newpath ldef
/cm /currentmatrix ldef
/sm /setmatrix ldef
/rm /rmoveto ldef
/rl /rlineto ldef
/s {show newpath} bdef
/sc {setcmykcolor} bdef
/sr /setrgbcolor ldef
/sg /setgray ldef
/w /setlinewidth ldef
/j /setlinejoin ldef
/cap /setlinecap ldef
/rc {rectclip} bdef
/rf {rectfill} bdef
% page state control
/pgsv () def
/bpage {/pgsv save def} bdef
/epage {pgsv restore} bdef
/bplot /gsave ldef
/eplot {stroke grestore} bdef
% orientation switch
/portraitMode 0 def /landscapeMode 1 def /rotateMode 2 def
% coordinate system mappings
/dpi2point 0 def
% font control
/FontSize 0 def
/FMS {/FontSize xstore findfont [FontSize 0 0 FontSize neg 0 0]
  makefont setfont} bdef
/reencode {exch dup where {pop load} {pop StandardEncoding} ifelse
  exch dup 3 1 roll findfont dup length dict begin
  { 1 index /FID ne {def}{pop pop} ifelse } forall
  /Encoding exch def currentdict end definefont pop} bdef
/isroman {findfont /CharStrings get /Agrave known} bdef
/FMSR {3 1 roll 1 index dup isroman {reencode} {pop pop} ifelse
  exch FMS} bdef
/csm {1 dpi2point div -1 dpi2point div scale neg translate
 dup landscapeMode eq {pop -90 rotate}
  {rotateMode eq {90 rotate} if} ifelse} bdef
% line types: solid, dotted, dashed, dotdash
/SO { [] 0 setdash } bdef
/DO { [.5 dpi2point mul 4 dpi2point mul] 0 setdash } bdef
/DA { [6 dpi2point mul] 0 setdash } bdef
/DD { [.5 dpi2point mul 4 dpi2point mul 6 dpi2point mul 4
  dpi2point mul] 0 setdash } bdef
% macros for lines and objects
/L {lineto stroke} bdef
/MP {3 1 roll moveto 1 sub {rlineto} repeat} bdef
/AP {{rlineto} repeat} bdef
/PDlw -1 def
/W {/PDlw currentlinewidth def setlinewidth} def
/PP {closepath eofill} bdef
/DP {closepath stroke} bdef
/MR {4 -2 roll moveto dup  0 exch rlineto exch 0 rlineto
  neg 0 exch rlineto closepath} bdef
/FR {MR stroke} bdef
/PR {MR fill} bdef
/L1i {{currentfile picstr readhexstring pop} image} bdef
/tMatrix matrix def
/MakeOval {newpath tMatrix currentmatrix pop translate scale
0 0 1 0 360 arc tMatrix setmatrix} bdef
/FO {MakeOval stroke} bdef
/PO {MakeOval fill} bdef
/PD {currentlinewidth 2 div 0 360 arc fill
   PDlw -1 eq not {PDlw w /PDlw -1 def} if} def
/FA {newpath tMatrix currentmatrix pop translate scale
  0 0 1 5 -2 roll arc tMatrix setmatrix stroke} bdef
/PA {newpath tMatrix currentmatrix pop	translate 0 0 moveto scale
  0 0 1 5 -2 roll arc closepath tMatrix setmatrix fill} bdef
/FAn {newpath tMatrix currentmatrix pop translate scale
  0 0 1 5 -2 roll arcn tMatrix setmatrix stroke} bdef
/PAn {newpath tMatrix currentmatrix pop translate 0 0 moveto scale
  0 0 1 5 -2 roll arcn closepath tMatrix setmatrix fill} bdef
/vradius 0 def /hradius 0 def /lry 0 def
/lrx 0 def /uly 0 def /ulx 0 def /rad 0 def
/MRR {/vradius xdef /hradius xdef /lry xdef /lrx xdef /uly xdef
  /ulx xdef newpath tMatrix currentmatrix pop ulx hradius add uly
  vradius add translate hradius vradius scale 0 0 1 180 270 arc 
  tMatrix setmatrix lrx hradius sub uly vradius add translate
  hradius vradius scale 0 0 1 270 360 arc tMatrix setmatrix
  lrx hradius sub lry vradius sub translate hradius vradius scale
  0 0 1 0 90 arc tMatrix setmatrix ulx hradius add lry vradius sub
  translate hradius vradius scale 0 0 1 90 180 arc tMatrix setmatrix
  closepath} bdef
/FRR {MRR stroke } bdef
/PRR {MRR fill } bdef
/MlrRR {/lry xdef /lrx xdef /uly xdef /ulx xdef /rad lry uly sub 2 div def
  newpath tMatrix currentmatrix pop ulx rad add uly rad add translate
  rad rad scale 0 0 1 90 270 arc tMatrix setmatrix lrx rad sub lry rad
  sub translate rad rad scale 0 0 1 270 90 arc tMatrix setmatrix
  closepath} bdef
/FlrRR {MlrRR stroke } bdef
/PlrRR {MlrRR fill } bdef
/MtbRR {/lry xdef /lrx xdef /uly xdef /ulx xdef /rad lrx ulx sub 2 div def
  newpath tMatrix currentmatrix pop ulx rad add uly rad add translate
  rad rad scale 0 0 1 180 360 arc tMatrix setmatrix lrx rad sub lry rad
  sub translate rad rad scale 0 0 1 0 180 arc tMatrix setmatrix
  closepath} bdef
/FtbRR {MtbRR stroke } bdef
/PtbRR {MtbRR fill } bdef
/stri 6 array def /dtri 6 array def
/smat 6 array def /dmat 6 array def
/tmat1 6 array def /tmat2 6 array def /dif 3 array def
/asub {/ind2 exch def /ind1 exch def dup dup
  ind1 get exch ind2 get sub exch } bdef
/tri_to_matrix {
  2 0 asub 3 1 asub 4 0 asub 5 1 asub
  dup 0 get exch 1 get 7 -1 roll astore } bdef
/compute_transform {
  dmat dtri tri_to_matrix tmat1 invertmatrix 
  smat stri tri_to_matrix tmat2 concatmatrix } bdef
/ds {stri astore pop} bdef
/dt {dtri astore pop} bdef
/db {2 copy /cols xdef /rows xdef mul dup 3 mul string
  currentfile exch readhexstring pop
  dup 0 3 index getinterval /rbmap xdef
  dup 2 index dup getinterval /gbmap xdef
  1 index dup 2 mul exch getinterval /bbmap xdef pop pop}bdef
/it {gs np dtri aload pop moveto lineto lineto cp c
  cols rows 8 compute_transform 
  rbmap gbmap bbmap true 3 colorimage gr}bdef
/il {newpath moveto lineto stroke}bdef
currentdict end def
%%EndProlog

%%BeginSetup
MathWorks begin

0 cap

end
%%EndSetup

%%Page: 1 1
%%BeginPageSetup
%%PageBoundingBox:    73   215   554   589
MathWorks begin
bpage
%%EndPageSetup

%%BeginObject: obj1
bplot

/dpi2point 12 def
portraitMode 0216 7344 csm

  664   274  5778  4489 MR c np
85 dict begin %Colortable dictionary
/c0 { 0.000000 0.000000 0.000000 sr} bdef
/c1 { 1.000000 1.000000 1.000000 sr} bdef
/c2 { 0.900000 0.000000 0.000000 sr} bdef
/c3 { 0.000000 0.820000 0.000000 sr} bdef
/c4 { 0.000000 0.000000 0.800000 sr} bdef
/c5 { 0.910000 0.820000 0.320000 sr} bdef
/c6 { 1.000000 0.260000 0.820000 sr} bdef
/c7 { 0.000000 0.820000 0.820000 sr} bdef
c0
1 j
1 sg
   0    0 6918 5189 PR
6 w
0 4228 5361 0 0 -4228 899 4617 4 MP
PP
-5361 0 0 4228 5361 0 0 -4228 899 4617 5 MP stroke
4 w
DO
SO
6 w
0 sg
 899 4617 mt 6260 4617 L
 899  389 mt 6260  389 L
 899 4617 mt  899  389 L
6260 4617 mt 6260  389 L
 899 4617 mt 6260 4617 L
 899 4617 mt  899  389 L
 899 4617 mt  899 4563 L
 899  389 mt  899  442 L
%%IncludeResource: font Helvetica
/Helvetica /ISOLatin1Encoding 120 FMSR

 866 4762 mt 
(0) s
1569 4617 mt 1569 4563 L
1569  389 mt 1569  442 L
1469 4762 mt 
(500) s
2239 4617 mt 2239 4563 L
2239  389 mt 2239  442 L
2106 4762 mt 
(1000) s
2909 4617 mt 2909 4563 L
2909  389 mt 2909  442 L
2776 4762 mt 
(1500) s
3579 4617 mt 3579 4563 L
3579  389 mt 3579  442 L
3446 4762 mt 
(2000) s
4249 4617 mt 4249 4563 L
4249  389 mt 4249  442 L
4116 4762 mt 
(2500) s
4919 4617 mt 4919 4563 L
4919  389 mt 4919  442 L
4786 4762 mt 
(3000) s
5589 4617 mt 5589 4563 L
5589  389 mt 5589  442 L
5456 4762 mt 
(3500) s
6260 4617 mt 6260 4563 L
6260  389 mt 6260  442 L
6127 4762 mt 
(4000) s
 899 4617 mt  952 4617 L
6260 4617 mt 6206 4617 L
 798 4661 mt 
(0) s
 899 3912 mt  952 3912 L
6260 3912 mt 6206 3912 L
 731 3956 mt 
(50) s
 899 3207 mt  952 3207 L
6260 3207 mt 6206 3207 L
 664 3251 mt 
(100) s
 899 2503 mt  952 2503 L
6260 2503 mt 6206 2503 L
 664 2547 mt 
(150) s
 899 1798 mt  952 1798 L
6260 1798 mt 6206 1798 L
 664 1842 mt 
(200) s
 899 1093 mt  952 1093 L
6260 1093 mt 6206 1093 L
 664 1137 mt 
(250) s
 899  389 mt  952  389 L
6260  389 mt 6206  389 L
 664  433 mt 
(300) s
 899 4617 mt 6260 4617 L
 899  389 mt 6260  389 L
 899 4617 mt  899  389 L
6260 4617 mt 6260  389 L
gs 899 389 5362 4229 MR c np
/c8 { 0.000000 0.000000 1.000000 sr} bdef
c8
1 43 2 268 1 718 1 494 2 -719 1 -592 1 -183 2 0 
1 211 1 677 2 577 1 -563 1 -663 2 -225 1 0 1 183 
2 606 1 620 1 -465 2 -662 1 -268 1 -28 2 183 1 535 
2 663 1 -367 1 -690 2 -282 1 -56 1 169 2 521 1 719 
1 -352 2 -733 1 -296 1 -71 2 141 1 634 1 1283 2 -691 
1 -1339 1 -239 2 -14 1 14 1 14 2 14 1 99 1 690 
2 2692 1 -1564 1 -1663 2 -240 1 -28 1 14 2 28 1 127 
1 930 2 2199 1 -1818 1 -1226 2 -198 1 -42 1 28 2 99 
1 564 1 1973 2 -522 1 -1691 1 -366 2 -43 1 -14 1 99 
2 507 1 1818 2 -282 1 -1648 1 -423 2 -57 1 0 1 127 
2 592 1 1762 1 -606 2 -1452 1 -366 1 -57 2 29 1 155 
1 817 2 1621 1 -1184 1 -1128 2 -253 1 -43 1 57 2 253 
1 1142 1 1085 2 -1550 3446 3489 100 MP stroke
1 -803 1 -155 2 -14 1 84 1 451 2 1466 1 56 1 -1466 
2 -493 1 -84 1 14 2 169 1 789 1 1438 2 -1029 1 -1057 
1 -268 2 -56 1 56 1 352 2 1241 1 549 2 -1423 1 -634 
1 -127 2 14 1 141 1 662 2 1395 1 -704 1 -1142 2 -324 
1 -42 1 56 2 310 1 1156 1 620 2 -1339 1 -648 1 -141 
2 14 1 141 1 676 2 1311 1 -705 1 -1085 2 -310 1 -42 
1 56 2 381 1 1155 1 423 2 -1311 1 -577 1 -127 2 28 
1 183 1 789 2 1114 1 -888 1 -944 2 -254 1 -28 1 113 
2 451 1 1240 1 -57 2 -1183 1 -451 2 -99 1 42 1 254 
2 972 1 747 1 -1099 2 -733 1 -169 1 -14 2 183 1 634 
1 1142 2 -592 1 -987 1 -324 2 -56 1 99 1 422 2 1100 
1 126 1 -1127 2 -493 1 -113 1 42 2 268 1 902 1 705 
2 -1015 1 -691 1 -183 3314 4363 100 MP stroke
2 0 1 183 1 649 2 1028 1 -620 1 -916 2 -282 1 -56 
1 113 2 479 1 1043 1 -99 2 -1014 1 -423 1 -99 2 71 
1 338 1 958 2 381 1 -1015 2 -564 1 -141 1 14 2 254 
1 789 1 719 2 -817 1 -733 1 -212 2 -14 1 183 1 635 
2 888 1 -536 1 -831 2 -296 1 -43 1 127 2 507 1 917 
1 -170 2 -902 1 -394 1 -85 2 85 1 394 1 902 2 127 
1 -902 1 -479 2 -113 1 57 1 310 2 817 1 381 1 -832 
2 -564 1 -155 1 29 2 253 1 733 1 550 2 -719 1 -634 
1 -197 2 14 1 211 2 634 1 649 1 -564 2 -677 1 -239 
1 -28 2 183 1 563 1 705 2 -409 1 -704 1 -296 2 -28 
1 141 1 507 2 733 1 -282 1 -733 2 -310 1 -56 1 126 
2 451 1 719 1 -141 2 -704 1 -353 1 -84 2 112 1 409 
1 705 2 -57 1 -690 3181 3799 100 MP stroke
1 -381 2 -84 1 98 1 381 2 662 1 29 1 -677 2 -380 
1 -113 1 98 2 353 1 634 1 70 2 -620 1 -394 1 -127 
2 84 1 353 2 606 1 84 1 -592 2 -394 1 -127 1 85 
2 310 1 592 1 98 2 -564 1 -394 1 -127 2 70 1 311 
1 591 2 99 1 -535 1 -409 2 -127 1 56 1 367 2 578 
1 112 1 -634 2 -423 1 -126 1 84 2 522 1 1324 1 -775 
2 -1240 1 -169 1 0 2 0 1 28 1 14 2 71 1 549 
1 2438 2 -831 1 -1875 1 -324 2 -56 1 0 1 70 2 184 
1 1169 2 1776 1 -2029 1 -959 2 -155 1 -14 1 28 2 141 
1 846 1 1917 2 -1438 1 -1226 1 -240 2 -28 1 28 1 155 
2 888 1 1734 1 -1367 2 -1170 1 -225 1 -29 2 43 1 197 
1 1057 2 1395 1 -1550 1 -930 2 -183 1 -15 1 43 2 324 
1 1339 1 747 2 -1649 3048 3672 100 MP stroke
1 -663 1 -126 2 0 1 98 1 522 2 1564 1 -254 1 -1437 
2 -437 1 -71 1 71 2 155 1 874 2 1367 1 -1156 1 -1029 
2 -225 1 -28 1 70 2 338 1 1311 1 465 2 -1452 1 -606 
1 -112 2 14 1 155 1 676 2 1424 1 -775 1 -1142 2 -310 
1 -28 1 42 2 324 1 1170 1 620 2 -1367 1 -648 1 -141 
2 0 1 155 1 662 2 1339 1 -690 1 -1100 2 -310 1 -56 
1 70 2 339 1 1155 1 493 2 -1310 1 -606 1 -127 2 14 
1 169 1 747 2 1198 1 -846 1 -986 2 -268 1 -28 2 84 
1 451 1 1198 2 85 1 -1212 1 -493 2 -113 1 28 1 254 
2 902 1 902 1 -1071 2 -790 1 -197 1 -14 2 141 1 592 
1 1184 2 -451 1 -1057 1 -353 2 -70 1 84 1 381 2 1071 
1 296 1 -1127 2 -564 1 -127 1 42 2 240 1 803 1 888 
2 -944 1 -789 1 -198 2916 4349 100 MP stroke
2 -14 1 127 1 592 2 1099 1 -451 1 -1000 2 -325 1 -70 
1 99 2 422 1 1015 2 141 1 -1057 1 -493 2 -113 1 56 
1 268 2 888 1 606 1 -944 2 -663 1 -183 1 0 2 212 
1 704 1 888 2 -704 1 -818 1 -254 2 -14 1 127 1 550 
2 958 1 -310 1 -916 2 -352 1 -71 1 113 2 409 1 944 
1 56 2 -944 1 -465 1 -99 2 57 1 324 1 860 2 366 
1 -860 1 -578 2 -140 1 14 1 253 2 747 1 592 1 -733 
2 -662 1 -211 1 0 2 211 1 634 2 733 1 -578 1 -719 
2 -253 1 -28 1 155 2 563 1 790 1 -381 2 -775 1 -296 
1 -56 2 140 1 451 1 804 2 -183 1 -776 1 -366 2 -70 
1 112 1 437 2 761 1 -14 1 -775 2 -409 1 -98 1 84 
2 381 1 733 1 112 2 -733 1 -451 1 -112 2 84 1 310 
1 705 2 197 1 -676 2783 3658 100 MP stroke
1 -465 2 -141 1 42 1 310 2 663 1 267 1 -634 2 -493 
1 -155 2 42 1 296 1 620 2 310 1 -592 1 -479 2 -155 
1 14 1 268 2 592 1 324 1 -521 2 -508 1 -183 1 42 
2 254 1 550 1 338 2 -493 1 -480 1 -183 2 14 1 254 
1 536 2 310 1 -437 1 -479 2 -184 1 14 1 240 2 521 
1 310 1 -422 2 -479 1 -184 1 43 2 239 1 479 1 282 
2 -394 1 -437 1 -198 2 43 1 225 1 465 2 254 1 -367 
2 -408 1 -183 1 14 2 239 1 451 1 226 2 -367 1 -408 
1 -141 2 28 1 239 1 423 2 198 1 -353 1 -380 2 -155 
1 42 1 254 2 408 1 141 1 -338 2 -352 1 -141 1 42 
2 254 1 380 1 127 2 -352 1 -324 1 -127 2 70 1 240 
1 366 2 85 1 -338 1 -296 2 -99 1 56 1 254 2 338 
1 43 1 -311 2 -281 2650 3996 100 MP stroke
1 -85 1 71 2 267 1 296 1 14 2 -310 1 -253 2 -85 
1 99 1 253 2 282 1 -28 1 -310 2 -211 1 -71 1 99 
2 253 1 254 1 -56 2 -282 1 -211 1 -29 2 99 1 268 
1 183 2 -56 1 -282 1 -169 2 -29 1 127 1 226 2 183 
1 -99 1 -239 2 -183 1 -15 1 127 2 240 1 155 1 -113 
2 -239 1 -141 1 -14 2 140 1 226 1 113 2 -127 1 -240 
1 -141 2 14 1 155 1 226 2 99 1 -170 2 -225 1 -155 
1 -28 2 113 1 295 1 99 2 -747 1 -211 1 -14 2 28 
1 0 1 28 2 28 1 183 1 1438 2 1860 1 -2565 1 -831 
2 -127 1 0 1 28 2 57 1 338 1 1874 2 451 1 -2100 
1 -549 2 -71 1 0 1 57 2 225 1 1297 1 1367 2 -1959 
1 -818 1 -141 2 0 1 43 1 211 2 1226 1 1297 1 -1776 
2 -832 1 -155 1 -14 2518 4490 100 MP stroke
2 43 1 324 1 1339 2 873 1 -1747 2 -691 1 -127 1 0 
2 71 1 465 1 1536 2 99 1 -1593 1 -479 2 -84 1 14 
1 126 2 691 1 1578 1 -803 2 -1240 1 -324 1 -28 2 28 
1 253 1 1057 2 1100 1 -1438 1 -817 2 -183 1 -14 1 98 
2 451 1 1438 1 -14 2 -1410 1 -465 1 -98 2 28 1 197 
1 860 2 1282 1 -1127 1 -959 2 -239 1 -28 1 70 2 409 
1 1310 1 226 2 -1381 1 -522 2 -126 1 42 1 183 2 817 
1 1227 1 -1015 2 -959 1 -239 1 -28 2 84 1 437 1 1254 
2 113 1 -1310 1 -480 2 -112 1 28 1 239 2 888 1 1029 
1 -1071 2 -874 1 -197 1 -28 2 127 1 535 1 1254 2 -267 
1 -1170 1 -381 2 -84 1 56 1 310 2 1029 1 620 1 -1184 
2 -662 1 -155 1 14 2 183 1 691 1 1113 2 -747 1 -944 
1 -282 2 -14 1 85 2385 4306 100 MP stroke
2 465 1 1141 1 0 2 -1155 1 -451 1 -99 2 56 1 282 
1 958 2 635 1 -1057 1 -691 2 -169 1 14 1 197 2 691 
1 1001 1 -705 2 -888 1 -268 1 -42 2 113 1 507 1 1085 
2 -197 1 -987 1 -436 2 -71 1 71 1 352 2 972 1 339 
1 -1029 2 -550 1 -155 1 42 2 240 1 803 1 719 2 -860 
1 -704 1 -212 2 -14 1 183 1 649 2 888 1 -550 1 -846 
2 -282 1 -56 2 141 1 507 1 959 2 -226 1 -902 1 -380 
2 -85 1 85 1 394 2 902 1 127 1 -916 2 -465 1 -113 
1 43 2 324 1 817 1 381 2 -832 1 -564 1 -155 2 29 
1 253 1 733 2 564 1 -719 1 -648 2 -198 1 0 1 212 
2 648 1 663 1 -564 2 -691 1 -253 1 0 2 183 1 549 
1 733 2 -408 1 -719 1 -310 2 -28 1 140 1 508 2 733 
1 -240 2 -733 1 -352 2252 4250 100 MP stroke
1 -56 2 126 1 437 1 747 2 -127 1 -718 1 -367 2 -84 
1 98 1 409 2 705 1 -14 1 -691 2 -409 1 -84 1 84 
2 381 1 662 1 71 2 -663 1 -423 1 -112 2 84 1 339 
1 662 2 127 1 -649 1 -436 2 -113 1 70 1 339 2 620 
1 141 1 -592 2 -437 1 -127 1 70 2 310 1 606 1 155 
2 -577 1 -423 1 -141 2 56 1 324 1 621 2 140 1 -606 
2 -451 1 -126 1 56 2 381 1 1057 1 225 2 -1494 1 -465 
1 -42 2 0 1 28 1 14 2 42 1 465 1 2523 2 -465 
1 -2184 1 -367 2 -42 1 14 1 28 2 57 1 479 1 2170 
2 -324 1 -1959 1 -395 2 -42 1 0 1 42 2 268 1 1438 
1 1183 2 -2057 1 -733 1 -113 2 0 1 28 1 254 2 1240 
1 1297 1 -1846 2 -804 1 -155 1 -14 2 71 1 267 2 1353 
1 917 1 -1762 2 -691 2119 4349 100 MP stroke
1 -141 1 0 2 71 1 409 1 1578 2 169 1 -1607 1 -521 
2 -85 1 15 1 126 2 635 1 1620 1 -718 2 -1297 1 -324 
1 -71 2 57 1 211 1 1029 2 1212 1 -1381 1 -888 2 -197 
1 -14 1 70 2 437 1 1409 1 141 2 -1437 1 -522 1 -98 
2 28 1 169 1 789 2 1367 1 -1001 1 -1042 2 -254 1 -42 
1 56 2 395 1 1254 2 395 1 -1396 1 -563 2 -127 1 0 
1 169 2 747 1 1339 1 -888 2 -1043 1 -282 1 -56 2 70 
1 409 1 1296 2 254 1 -1381 1 -536 2 -112 1 14 1 141 
2 775 1 1592 1 -1085 2 -1198 1 -268 1 -42 2 28 1 99 
1 761 2 2565 1 -1776 1 -1508 2 -197 1 -14 1 0 2 28 
1 28 1 240 2 1606 1 1382 1 -2424 2 -719 1 -99 1 -14 
2 28 1 113 1 676 2 2171 1 -1170 2 -1494 1 -268 1 -42 
2 14 1 85 1 549 1987 3870 100 MP stroke
2 1931 1 -507 1 -1635 2 -366 1 -71 1 28 2 113 1 592 
1 1818 2 -648 1 -1480 1 -338 2 -57 1 29 1 140 2 776 
1 1677 1 -1100 2 -1198 1 -281 1 -29 2 43 1 211 1 1085 
2 1255 1 -1522 1 -874 2 -169 1 -29 1 71 2 409 1 1423 
1 296 2 -1536 1 -550 1 -98 2 14 1 155 1 690 2 1508 
1 -817 2 -1198 1 -296 1 -56 2 56 1 282 1 1170 2 803 
1 -1410 1 -718 2 -155 1 0 1 127 2 577 1 1424 1 -437 
2 -1254 1 -367 1 -70 2 42 1 282 1 1029 2 873 1 -1268 
1 -761 2 -169 1 -14 1 127 2 577 1 1325 1 -423 2 -1183 
1 -353 1 -70 2 56 1 296 1 1071 2 691 1 -1269 1 -676 
2 -155 1 -14 1 183 2 662 1 1241 1 -691 2 -1043 1 -310 
1 -42 2 84 1 381 2 1156 1 253 1 -1212 2 -535 1 -127 
1 28 2 225 1 846 1854 3320 100 MP stroke
1 958 2 -1000 1 -818 1 -211 2 -14 1 127 1 563 2 1156 
1 -338 1 -1085 2 -367 1 -70 1 70 2 367 1 1057 1 366 
2 -1127 1 -564 1 -155 2 28 1 226 1 817 2 888 1 -902 
1 -789 2 -226 1 -28 1 141 2 578 1 1085 1 -409 2 -1000 
1 -339 1 -56 2 99 1 408 1 1029 2 113 1 -1043 2 -479 
1 -113 1 56 2 282 1 902 1 550 2 -958 1 -621 1 -197 
2 14 1 212 1 704 2 860 1 -719 1 -775 2 -254 1 -28 
1 155 2 550 1 958 1 -380 2 -888 1 -338 1 -57 2 113 
1 451 1 930 2 -28 1 -916 1 -451 2 -71 1 43 1 366 
2 874 1 254 1 -874 2 -536 1 -112 1 28 2 282 1 775 
1 479 2 -775 1 -606 1 -183 2 14 1 225 2 705 1 620 
1 -634 2 -677 1 -225 1 0 2 169 1 620 1 691 2 -480 
1 -718 1 -268 2 -28 1721 4292 100 MP stroke
1 169 1 507 2 747 1 -338 1 -719 2 -310 1 -56 1 141 
2 451 1 761 1 -198 2 -718 1 -367 1 -84 2 126 1 437 
1 719 2 -70 1 -719 1 -381 2 -84 1 98 1 395 2 691 
1 0 1 -677 2 -409 1 -98 1 98 2 353 1 662 1 85 
2 -635 1 -436 1 -99 2 70 1 339 2 634 1 113 1 -606 
2 -409 1 -127 1 70 2 325 1 592 1 155 2 -592 1 -409 
1 -127 2 56 1 325 1 563 2 141 1 -535 1 -409 2 -127 
1 57 1 310 2 549 1 141 1 -521 2 -395 1 -127 1 71 
2 310 1 507 1 127 2 -479 1 -395 1 -113 2 43 1 296 
1 507 2 99 1 -465 1 -353 2 -141 1 71 1 310 2 479 
1 85 1 -465 2 -339 1 -141 2 85 1 310 1 479 2 42 
1 -479 1 -338 2 -141 1 99 1 451 2 902 1 -183 1 -1297 
2 -282 1 -28 1 14 1589 4546 100 MP stroke
2 14 1 28 1 57 2 507 1 2579 1 -775 2 -2044 1 -324 
1 -14 2 0 1 28 1 85 2 648 1 2311 1 -1127 2 -1607 
1 -281 1 -43 2 0 1 85 1 366 2 1762 1 338 1 -1931 
2 -521 1 -85 1 -14 2 71 1 366 1 1593 2 493 1 -1846 
1 -564 2 -99 1 0 2 99 1 423 1 1649 2 56 1 -1649 
1 -493 2 -71 1 15 1 126 2 606 1 1706 1 -663 2 -1381 
1 -338 1 -56 2 14 1 211 1 916 2 1409 1 -1324 1 -973 
2 -225 1 -28 1 56 2 338 1 1339 1 550 2 -1537 1 -606 
1 -126 2 14 1 127 1 634 2 1494 1 -635 1 -1240 2 -338 
1 -42 1 56 2 268 1 1071 1 930 2 -1367 1 -761 1 -183 
2 14 1 113 2 549 1 1396 1 -353 2 -1254 1 -381 1 -84 
2 56 1 254 1 1015 2 902 1 -1255 1 -761 2 -183 1 -14 
1 127 2 578 1 1338 1456 2362 100 MP stroke
1 -422 2 -1184 1 -367 1 -56 2 56 1 310 1 1072 2 634 
1 -1241 1 -676 2 -155 1 14 1 169 2 677 1 1198 1 -719 
2 -1001 1 -296 1 -56 2 113 1 408 1 1170 2 155 1 -1198 
1 -521 2 -99 1 28 1 254 2 874 1 859 2 -1014 1 -775 
1 -212 2 -28 1 155 1 620 2 1142 1 -479 1 -1043 2 -325 
1 -56 1 85 2 394 1 1071 1 226 2 -1142 1 -507 1 -127 
2 28 1 282 1 846 2 747 1 -959 1 -733 2 -183 1 -14 
1 183 2 635 1 1000 1 -564 2 -916 1 -296 1 -42 2 113 
1 479 1 1029 2 -85 1 -1014 1 -423 2 -85 1 57 1 352 
2 930 1 367 1 -973 2 -578 1 -155 1 43 2 239 1 789 
2 691 1 -817 1 -705 2 -212 1 0 1 184 2 662 1 832 
1 -550 2 -803 1 -282 1 -43 2 141 1 522 1 916 2 -282 
1 -860 1 -366 2 -56 1323 4306 100 MP stroke
1 112 1 423 2 888 1 0 1 -874 2 -437 1 -98 1 70 
2 352 1 832 1 240 2 -860 1 -479 1 -141 2 42 1 282 
1 761 2 423 1 -761 1 -564 2 -169 1 14 1 254 2 662 
1 550 1 -635 2 -620 1 -211 2 0 1 211 1 620 2 606 
1 -521 1 -662 2 -240 1 0 1 169 2 564 1 634 1 -409 
2 -662 1 -282 1 -28 2 155 1 521 1 649 2 -310 1 -663 
1 -296 2 -42 1 141 1 479 2 634 1 -225 1 -648 2 -339 
1 -42 1 141 2 437 1 620 1 -169 2 -620 1 -339 1 -56 
2 113 1 423 1 606 2 -127 1 -606 1 -338 2 -57 1 99 
1 409 2 577 1 -84 1 -578 2 -338 1 -85 2 127 1 381 
1 535 2 -70 1 -564 1 -310 2 -71 1 113 1 367 2 507 
1 -56 1 -536 2 -324 1 -71 1 141 2 367 1 465 1 -71 
2 -507 1 -296 1 -70 1191 4151 100 MP stroke
2 126 1 367 1 437 2 -99 1 -465 1 -296 2 -42 1 113 
1 352 2 409 1 -99 1 -437 2 -268 1 -56 1 113 2 366 
1 381 1 -113 2 -423 1 -268 1 -56 2 155 1 324 1 352 
2 -126 1 -395 2 -226 1 -56 1 155 2 324 1 310 1 -155 
2 -366 1 -212 1 -42 2 169 1 324 1 254 2 -155 1 -352 
1 -212 2 0 1 155 1 324 2 212 1 -169 1 -324 2 -184 
1 -14 1 184 2 310 1 169 1 -198 2 -281 1 -170 1 0 
2 198 1 296 1 127 2 -198 1 -282 1 -141 2 15 1 183 
1 296 2 98 1 -211 1 -254 2 -127 1 43 1 183 2 268 
1 70 2 -211 1 -254 1 -99 2 71 1 183 1 240 2 28 
1 -212 1 -225 2 -70 1 70 1 183 2 226 1 0 1 -226 
2 -183 1 -56 1 56 2 211 1 184 1 -29 2 -197 1 -183 
1 -42 2 84 1 197 1058 3715 100 MP stroke
1 141 2 -28 1 -197 1 -155 2 -28 1 98 1 184 2 140 
1 -70 1 -183 2 -127 1 -28 1 113 2 155 1 126 1 -84 
2 -183 1 -113 1 14 2 85 1 169 1 98 2 -84 1 -183 
2 -99 1 0 1 141 2 141 1 70 1 -98 2 -170 1 -84 
1 14 2 127 1 141 1 42 2 -127 1 -141 1 -70 2 28 
1 155 1 155 2 -28 1 -155 1 -212 2 -155 1 -155 1 -98 
2 -43 1 43 1 98 2 -169 1 -70 1 14 2 14 1 28 
1 0 2 28 1 212 1 1508 2 1747 1 -2593 1 -803 2 -99 
1 0 1 28 2 57 1 380 1 1959 2 183 1 -2043 2 -479 
1 -71 1 0 2 43 1 267 1 1424 2 1127 1 -1987 1 -733 
2 -141 1 14 1 43 2 253 1 1353 1 1057 2 -1832 1 -733 
1 -141 2 0 1 57 1 352 2 1480 1 549 1 -1719 2 -606 
1 -113 1 43 2 84 925 4363 100 MP stroke
1 493 1 1635 2 -253 1 -1494 1 -423 2 -71 1 29 1 155 
2 803 1 1522 1 -1099 2 -1100 1 -253 1 -42 2 42 1 310 
1 1212 2 789 1 -1494 900 3602 20 MP stroke
/c9 { 1.000000 0.000000 0.000000 sr} bdef
c9
2 85 1 535 2 1396 1 -282 1 -1565 2 -338 1 -28 1 -14 
2 28 1 28 1 99 2 831 1 2565 1 -1832 2 -1480 1 -183 
1 -14 2 28 1 14 1 99 2 719 1 2367 1 -1409 2 -1508 
1 -254 1 -42 2 14 1 71 1 366 2 1776 1 380 1 -1973 
2 -535 1 -85 1 14 2 71 1 324 1 1536 2 677 1 -1889 
1 -606 2 -113 1 14 1 57 2 380 1 1579 1 366 2 -1733 
1 -550 2 -99 1 15 1 84 2 536 1 1677 1 -339 2 -1493 
1 -409 1 -71 2 29 1 169 1 775 2 1564 1 -1071 1 -1141 
2 -282 1 -43 1 57 2 282 1 1155 1 959 2 -1522 1 -747 
1 -155 2 0 1 84 1 508 2 1479 1 -183 1 -1381 2 -437 
1 -70 1 28 2 197 1 888 1 1268 2 -1183 1 -945 1 -211 
2 -28 1 70 1 437 2 1297 1 211 1 -1395 2 -508 1 -126 
2 42 1 197 1 804 6127 3404 100 MP stroke
2 1240 1 -1015 1 -987 2 -239 1 -28 1 84 2 423 1 1268 
1 170 2 -1325 1 -508 1 -98 2 28 1 197 1 860 2 1099 
1 -1043 1 -888 2 -225 1 -42 1 127 2 507 1 1254 1 -141 
2 -1198 1 -437 1 -84 2 42 1 282 1 987 2 732 1 -1127 
1 -733 2 -169 1 0 1 141 2 662 1 1170 1 -578 2 -1029 
1 -324 1 -28 2 56 1 409 1 1128 2 183 1 -1170 2 -507 
1 -113 1 42 2 240 1 874 1 817 2 -986 1 -762 1 -197 
2 -14 1 155 1 592 2 1113 1 -507 1 -986 2 -325 1 -56 
1 99 2 408 1 1071 1 99 2 -1071 1 -479 1 -113 2 42 
1 296 1 888 2 606 1 -972 1 -663 2 -197 1 14 1 212 
2 690 1 916 1 -690 2 -832 1 -268 1 -28 2 127 1 521 
1 1001 2 -268 1 -944 1 -366 2 -85 1 99 2 408 1 945 
1 127 2 -959 1 -493 5994 4250 100 MP stroke
1 -99 2 57 1 310 1 831 2 465 1 -874 1 -606 2 -169 
1 29 1 225 2 719 1 690 1 -718 2 -705 1 -211 1 -15 
2 184 1 620 1 775 2 -465 1 -775 1 -296 2 -43 1 141 
1 522 2 831 1 -267 1 -818 2 -352 1 -42 1 126 2 409 
1 846 1 -71 2 -803 1 -409 1 -98 2 84 1 381 1 789 
2 113 1 -776 2 -451 1 -112 1 56 2 324 1 733 1 254 
2 -705 1 -507 1 -155 2 42 1 296 1 691 2 352 1 -663 
1 -535 2 -155 1 28 1 254 2 634 1 423 1 -592 2 -550 
1 -183 1 14 2 226 1 606 1 451 2 -508 1 -578 1 -211 
2 14 1 197 1 578 2 465 1 -451 1 -563 2 -226 1 14 
1 183 2 536 1 465 1 -395 2 -549 1 -240 1 -14 2 197 
1 522 1 437 2 -353 1 -535 2 -226 1 -14 1 184 2 479 
1 437 1 -325 2 -535 5861 3954 100 MP stroke
1 -226 1 -14 2 184 1 493 1 366 2 -268 1 -507 1 -240 
2 0 1 184 1 437 2 380 1 -282 1 -479 2 -225 1 -15 
1 170 2 451 1 352 1 -296 2 -437 1 -211 1 -14 2 197 
1 423 1 296 2 -282 1 -423 1 -183 2 -14 1 211 1 409 
2 253 1 -267 1 -395 2 -183 1 0 1 197 2 395 1 239 
2 -296 1 -366 1 -169 2 14 1 211 1 381 2 197 1 -296 
1 -366 2 -155 1 28 1 225 2 381 1 155 1 -338 2 -353 
1 -155 1 57 2 338 1 662 1 -42 2 -1085 1 -310 1 0 
2 0 1 14 1 28 2 28 1 212 1 1649 2 1536 1 -2622 
1 -718 2 -113 1 14 1 28 2 57 1 394 1 2001 2 99 
1 -2029 1 -465 2 -71 1 14 1 57 2 239 1 1424 1 1155 
2 -2001 1 -747 2 -127 1 14 1 29 2 253 1 1311 1 1156 
2 -1833 1 -761 1 -141 5729 4476 100 MP stroke
2 -14 1 71 1 310 2 1423 1 705 1 -1734 2 -648 1 -113 
1 0 2 85 1 465 1 1593 2 -43 1 -1564 1 -451 2 -85 
1 29 1 141 2 718 1 1593 1 -930 2 -1212 1 -282 1 -42 
2 42 1 268 1 1099 2 1029 1 -1466 1 -789 2 -183 1 0 
1 84 2 493 1 1452 1 -99 2 -1395 1 -451 2 -84 1 42 
1 183 2 874 1 1268 1 -1141 2 -959 1 -225 1 -28 2 84 
1 409 1 1311 2 211 1 -1381 1 -522 2 -98 1 28 1 169 
2 832 1 1212 1 -1001 2 -958 1 -254 1 -28 2 98 1 437 
1 1255 2 126 1 -1296 1 -508 2 -112 1 28 1 225 2 874 
1 1057 1 -1071 2 -860 1 -225 1 -14 2 113 1 521 1 1268 
2 -239 1 -1170 1 -409 2 -84 1 56 2 282 1 1029 1 676 
2 -1169 1 -691 1 -169 2 14 1 169 1 662 2 1156 1 -676 
1 -1001 2 -282 1 -42 5596 4405 100 MP stroke
1 99 2 436 1 1114 1 84 2 -1141 1 -465 1 -127 2 42 
1 268 1 902 2 761 1 -1043 1 -719 2 -183 1 -14 1 169 
2 662 1 1057 1 -606 2 -944 1 -296 1 -42 2 113 1 451 
1 1071 2 -28 1 -1057 1 -451 2 -99 1 56 1 325 2 930 
1 479 1 -1001 2 -606 1 -155 2 14 1 226 1 747 2 817 
1 -775 1 -789 2 -240 1 0 1 155 2 578 1 958 1 -408 
2 -902 1 -324 1 -57 2 99 1 451 1 958 2 -42 1 -930 
1 -437 2 -99 1 71 1 338 2 902 1 296 1 -916 2 -536 
1 -141 1 43 2 281 1 747 1 578 2 -803 1 -634 1 -184 
2 0 1 212 1 676 2 691 1 -592 1 -733 2 -239 1 -15 
1 184 2 563 1 790 2 -423 1 -789 1 -282 2 -43 1 141 
1 494 2 817 1 -240 1 -789 2 -366 1 -57 1 99 2 465 
1 846 1 -127 2 -846 5463 3884 100 MP stroke
1 -394 1 -99 2 71 1 465 1 1353 2 42 1 -1691 1 -395 
2 -42 1 14 1 14 2 28 1 57 1 422 2 2410 1 -267 
1 -2213 2 -395 1 -42 1 0 2 28 1 99 1 578 2 2283 
1 -916 1 -1677 2 -339 1 -28 1 14 2 57 1 352 1 1691 
2 522 1 -1959 2 -578 1 -85 1 14 2 57 1 324 1 1536 
2 648 1 -1846 1 -620 2 -99 1 0 1 71 2 394 1 1593 
1 268 2 -1691 1 -536 1 -85 2 0 1 99 1 564 2 1691 
1 -451 1 -1466 2 -380 1 -71 1 43 2 169 1 845 1 1508 
2 -1198 1 -1057 1 -267 2 -29 1 57 1 310 2 1226 1 789 
1 -1522 2 -690 1 -141 1 -14 2 140 1 536 1 1494 2 -367 
1 -1338 2 -395 1 -70 1 42 2 225 1 973 1 1141 2 -1282 
1 -860 1 -197 2 -28 1 98 1 479 2 1367 1 -42 1 -1353 
2 -451 1 -98 1 42 5331 4405 100 MP stroke
2 211 1 902 1 1114 2 -1142 1 -874 1 -211 2 -14 1 98 
1 480 2 1310 1 -98 1 -1255 2 -451 1 -84 1 14 2 268 
1 930 1 944 2 -1141 1 -804 1 -197 2 -14 1 141 1 549 
2 1269 1 -381 1 -1155 2 -353 1 -70 2 56 1 324 1 1071 
2 550 1 -1198 1 -634 2 -155 1 14 1 183 2 719 1 1127 
1 -803 2 -944 1 -240 1 -70 2 113 1 479 1 1155 2 -56 
1 -1142 1 -436 2 -99 1 56 1 296 2 944 1 635 1 -1071 
2 -677 1 -169 1 14 2 183 1 705 1 1015 2 -705 1 -888 
1 -282 2 -42 1 113 1 493 2 1071 1 -141 1 -1043 2 -408 
1 -71 1 56 2 339 1 972 1 381 2 -1029 1 -578 2 -141 
1 14 1 240 2 803 1 761 1 -831 2 -747 1 -226 1 0 
2 155 1 606 1 1001 2 -522 1 -916 1 -296 2 -42 1 127 
1 479 2 1071 1 -225 5198 2925 100 MP stroke
1 -1015 2 -381 1 -98 1 56 2 395 1 1395 1 352 2 -1747 
1 -536 1 -56 2 0 1 14 1 28 2 113 1 789 1 2593 
2 -1818 1 -1494 1 -197 2 -14 1 0 1 28 2 71 1 549 
1 2297 2 -690 1 -1832 2 -353 1 -56 1 28 2 28 1 254 
1 1438 2 1226 1 -2072 1 -747 2 -141 1 14 1 43 2 211 
1 1198 1 1423 2 -1832 1 -860 1 -169 2 0 1 43 1 253 
2 1255 1 1141 1 -1762 2 -761 1 -155 1 -14 2 71 1 352 
1 1452 2 535 1 -1691 1 -592 2 -113 1 15 1 98 2 536 
1 1606 1 -352 2 -1437 1 -395 1 -71 2 29 1 183 1 845 
2 1438 1 -1170 1 -1043 2 -239 1 -28 2 56 1 338 1 1269 
2 606 1 -1508 1 -621 2 -126 1 0 1 126 2 621 1 1479 
1 -592 2 -1240 1 -352 1 -42 2 42 1 282 1 1085 2 874 
1 -1353 1 -747 2 -169 5065 4433 100 MP stroke
1 14 1 113 2 549 1 1381 1 -380 2 -1240 1 -367 1 -84 
2 42 1 296 1 1043 2 817 1 -1268 1 -733 2 -169 1 0 
1 127 2 606 1 1310 1 -507 2 -1142 1 -338 1 -70 2 56 
1 338 2 1100 1 549 1 -1254 2 -620 1 -155 1 14 2 183 
1 733 1 1156 2 -790 1 -972 1 -282 2 -28 1 99 1 436 
2 1184 1 43 1 -1198 2 -465 1 -99 1 28 2 268 1 930 
1 789 2 -1071 1 -747 1 -169 2 -14 1 155 1 634 2 1128 
1 -564 1 -987 2 -324 1 -42 1 85 2 408 1 1100 1 126 
2 -1113 1 -493 1 -127 2 70 1 268 1 888 2 676 1 -986 
2 -691 1 -183 1 0 2 183 1 691 1 958 2 -634 1 -888 
1 -296 2 -28 1 127 1 493 2 1029 1 -155 1 -1001 2 -408 
1 -71 1 71 2 366 1 944 1 296 2 -1000 1 -550 1 -127 
2 42 1 254 1 803 4933 3264 100 MP stroke
2 649 1 -860 1 -662 2 -212 1 14 1 184 2 690 1 803 
1 -606 2 -789 1 -253 1 -43 2 155 1 536 1 902 2 -324 
1 -860 1 -352 2 -57 1 99 1 465 2 888 1 -28 2 -888 
1 -437 1 -85 2 71 1 366 1 846 2 211 1 -859 1 -508 
2 -127 1 29 1 310 2 845 1 381 1 -874 2 -550 1 -169 
1 0 2 254 1 1057 1 1029 2 -1607 1 -831 1 -99 2 0 
1 14 1 14 2 56 1 339 1 2241 2 366 1 -2509 1 -465 
2 -42 1 0 1 28 2 42 1 296 1 1720 2 972 1 -2311 
1 -620 2 -99 1 0 1 28 2 155 1 931 2 1958 1 -1663 
1 -1155 2 -226 1 -14 1 28 2 127 1 804 1 1874 2 -1254 
1 -1283 1 -239 2 -43 1 29 1 155 2 873 1 1677 1 -1324 
2 -1128 1 -225 1 -43 2 29 1 225 1 1085 2 1297 1 -1564 
1 -888 2 -155 1 -14 4800 4461 100 MP stroke
1 56 2 338 1 1395 1 536 2 -1607 1 -606 1 -112 2 0 
1 112 1 592 2 1565 1 -508 1 -1353 2 -352 1 -71 1 43 
2 225 1 973 1 1212 2 -1311 1 -888 2 -197 1 -42 1 98 
2 423 1 1381 1 127 2 -1409 1 -508 1 -98 2 28 1 169 
1 817 2 1311 1 -1029 1 -1000 2 -254 1 -28 1 70 2 381 
1 1282 1 282 2 -1367 1 -536 1 -112 2 28 1 183 1 789 
2 1212 1 -944 1 -986 2 -254 1 -42 1 112 2 423 1 1240 
1 127 2 -1268 1 -508 1 -98 2 14 1 239 1 874 2 1015 
1 -1057 1 -846 2 -225 1 -14 2 127 1 535 1 1240 2 -281 
1 -1156 1 -381 2 -84 1 56 1 310 2 1029 1 592 1 -1170 
2 -634 1 -155 1 0 2 183 1 719 1 1085 2 -747 1 -944 
1 -254 2 -42 1 99 1 465 2 1141 1 -70 1 -1099 2 -437 
1 -99 1 42 2 310 4667 4039 100 MP stroke
1 959 1 592 2 -1072 1 -662 1 -155 2 14 1 183 1 719 
2 973 1 -747 1 -860 2 -254 1 -28 1 113 2 521 1 1057 
2 -211 1 -1015 1 -394 2 -85 1 85 1 366 2 972 1 282 
1 -1029 2 -521 1 -141 1 42 2 254 1 832 1 662 2 -860 
1 -704 1 -198 2 0 1 183 1 663 2 874 1 -620 1 -790 
2 -282 1 -28 1 127 2 536 1 930 1 -268 2 -888 1 -380 
1 -71 2 99 1 423 1 916 2 42 1 -902 1 -451 2 -113 
1 57 1 352 2 846 1 324 1 -888 2 -550 1 -141 1 28 
2 282 1 804 2 549 1 -874 1 -634 2 -197 1 0 1 225 
2 945 1 1296 1 -1494 2 -1014 1 -141 1 0 2 14 1 14 
1 42 2 169 1 1452 1 1860 2 -2551 1 -859 1 -113 2 14 
1 0 1 56 2 226 1 1592 1 1227 2 -2269 1 -719 1 -113 
2 14 1 28 1 155 4535 4335 100 MP stroke
2 931 1 1930 1 -1649 2 -1141 1 -226 1 -14 2 28 1 155 
1 832 2 1832 1 -1353 1 -1212 2 -239 1 -29 2 14 1 198 
1 944 2 1578 1 -1451 1 -1043 2 -211 1 -29 1 43 2 267 
1 1198 1 1086 2 -1635 1 -775 1 -155 2 0 1 70 1 423 
2 1480 1 211 1 -1564 2 -522 1 -98 1 14 2 141 1 690 
1 1550 2 -831 1 -1198 1 -310 2 -56 1 56 1 268 2 1099 
1 958 1 -1437 2 -747 1 -183 1 0 2 98 1 522 1 1437 
2 -225 1 -1325 1 -437 2 -70 1 28 1 225 2 945 1 1127 
2 -1240 1 -846 1 -225 2 -14 1 98 1 494 2 1352 1 -112 
1 -1297 2 -437 1 -84 1 28 2 239 1 945 1 1014 2 -1183 
1 -832 1 -197 2 -14 1 127 1 535 2 1367 1 -352 1 -1254 
2 -367 1 -99 1 57 2 211 1 1071 1 1184 2 -1480 1 -873 
1 -184 2 -14 1 28 4402 4476 100 MP stroke
1 240 2 1564 1 1522 1 -2649 2 -677 1 -84 1 14 2 0 
1 28 1 71 2 465 1 2269 2 -339 1 -2029 1 -395 2 -42 
1 14 1 28 2 198 1 1113 1 1790 2 -1973 1 -987 1 -155 
2 0 1 14 1 155 2 860 1 1875 1 -1466 2 -1184 1 -225 
1 -43 2 43 1 169 1 888 2 1705 1 -1438 1 -1099 2 -225 
1 -29 1 57 2 197 1 1113 1 1325 2 -1592 1 -888 1 -183 
2 0 1 56 1 324 2 1381 1 606 1 -1635 2 -606 1 -112 
1 0 2 98 1 564 2 1578 1 -408 1 -1395 2 -367 1 -70 
1 28 2 183 1 930 1 1297 2 -1226 1 -973 1 -211 2 -28 
1 84 1 395 2 1325 1 324 1 -1452 2 -564 1 -112 1 14 
2 169 1 733 1 1381 2 -874 1 -1099 1 -268 2 -42 1 56 
1 338 2 1212 1 508 1 -1353 2 -620 1 -127 1 -14 2 183 
1 705 1 1310 2 -803 4269 3038 100 MP stroke
1 -1057 1 -282 2 -42 1 56 1 381 2 1184 1 366 1 -1297 
2 -563 1 -127 2 14 1 197 1 789 2 1142 1 -916 1 -944 
2 -254 1 -28 1 113 2 451 1 1212 1 0 2 -1198 1 -465 
1 -99 2 28 1 268 1 930 2 817 1 -1085 1 -761 2 -183 
1 0 1 155 2 620 1 1156 1 -508 2 -1042 1 -325 1 -56 
2 85 1 394 1 1085 2 240 1 -1142 1 -535 2 -127 1 42 
1 240 2 860 1 831 1 -958 2 -775 1 -198 1 -14 2 141 
1 620 2 1071 1 -493 1 -972 2 -325 1 -56 1 99 2 423 
1 1042 1 99 2 -1071 1 -479 1 -113 2 56 1 282 1 916 
2 564 1 -972 1 -635 2 -183 1 0 1 212 2 704 1 874 
1 -705 2 -803 1 -254 1 -42 2 141 1 564 1 972 2 -310 
1 -930 1 -352 2 -71 1 85 1 437 2 930 1 70 1 -958 
2 -451 1 -99 1 43 4137 4292 100 MP stroke
2 324 1 859 1 395 2 -902 1 -550 1 -169 2 29 1 253 
2 747 1 606 1 -747 2 -662 1 -197 1 -15 2 198 1 648 
1 747 2 -564 1 -747 1 -253 2 -14 1 155 1 549 2 789 
1 -338 1 -789 2 -310 1 -56 1 140 2 451 1 818 1 -169 
2 -789 1 -367 1 -84 2 98 1 423 1 775 2 0 1 -747 
1 -437 2 -98 1 70 1 381 2 732 1 156 1 -747 2 -451 
1 -127 1 70 2 310 1 705 1 254 2 -691 1 -493 2 -141 
1 42 1 296 2 677 1 296 1 -607 2 -507 1 -183 1 28 
2 282 1 606 1 366 2 -549 1 -536 1 -183 2 28 1 254 
1 592 2 366 1 -507 1 -507 2 -198 1 0 1 254 2 564 
1 366 1 -465 2 -507 1 -198 1 14 2 226 1 550 1 352 
2 -437 1 -507 1 -198 2 14 1 226 1 507 2 338 1 -394 
1 -479 2 -198 1 14 4004 4166 100 MP stroke
1 212 2 493 1 324 2 -366 1 -465 1 -198 2 15 1 211 
1 479 2 282 1 -352 1 -437 2 -169 1 0 1 225 2 437 
1 268 1 -338 2 -423 1 -169 1 0 2 225 1 437 1 240 
2 -339 1 -394 1 -155 2 14 1 225 1 409 2 197 1 -324 
1 -366 2 -155 1 42 1 211 2 395 1 169 1 -324 2 -352 
1 -127 1 42 2 226 1 366 1 127 2 -310 1 -310 1 -127 
2 42 1 240 1 352 2 85 1 -310 2 -296 1 -113 1 56 
2 254 1 310 1 56 2 -310 1 -253 1 -99 2 71 1 253 
1 282 2 14 1 -282 1 -253 2 -85 1 99 1 239 2 282 
1 -42 1 -268 2 -225 1 -71 1 99 2 239 1 240 1 -56 
2 -282 1 -212 1 -42 2 113 1 268 1 211 2 -85 1 -296 
1 -211 2 -99 1 43 1 169 2 366 1 -465 1 -451 2 -56 
1 14 1 0 2 28 3871 4532 100 MP stroke
1 28 2 43 1 493 1 2452 2 -578 1 -2043 1 -367 2 -28 
1 0 1 28 2 127 1 860 1 2184 2 -1649 1 -1296 1 -226 
2 -28 1 42 1 85 2 564 1 1973 1 -592 2 -1635 1 -366 
1 -29 2 0 1 85 1 550 2 1832 1 -465 1 -1565 2 -394 
1 -57 1 14 2 141 1 663 1 1747 2 -831 1 -1353 1 -324 
2 -29 1 15 1 183 2 916 1 1494 1 -1339 2 -1029 1 -225 
1 -15 2 57 1 296 2 1254 1 817 1 -1578 2 -691 1 -140 
1 0 2 98 1 536 1 1508 2 -268 1 -1395 1 -395 2 -84 
1 28 1 211 2 888 1 1282 1 -1212 2 -930 1 -239 1 -28 
2 84 1 381 1 1353 2 253 1 -1409 1 -550 2 -98 1 14 
1 169 2 803 1 1283 1 -931 2 -1042 1 -268 1 -28 2 84 
1 381 1 1240 2 324 1 -1353 1 -550 2 -112 1 14 1 197 
2 775 1 1212 2 -958 3738 3193 100 MP stroke
1 -958 1 -240 2 -42 1 98 1 437 2 1240 1 85 1 -1254 
2 -494 1 -112 1 42 2 240 1 873 1 973 2 -1057 1 -818 
1 -211 2 -28 1 127 1 563 2 1212 1 -338 1 -1127 2 -367 
1 -70 1 70 2 339 1 1042 1 508 2 -1184 1 -606 1 -155 
2 14 1 197 1 761 2 1029 1 -831 1 -874 2 -254 1 -28 
1 113 2 493 1 1142 1 -184 2 -1085 1 -394 2 -99 1 56 
1 339 2 1000 1 451 1 -1071 2 -606 1 -141 1 14 2 212 
1 775 1 902 2 -832 1 -817 1 -240 2 -14 1 141 1 578 
2 1015 1 -353 1 -958 2 -367 1 -56 1 85 2 422 1 1001 
1 99 2 -1001 1 -493 1 -99 2 42 1 296 1 874 2 522 
1 -931 1 -620 2 -169 1 28 1 212 2 719 1 775 1 -747 
2 -733 1 -240 1 -14 2 155 1 606 1 888 2 -451 1 -831 
2 -324 1 -43 1 127 3606 4222 100 MP stroke
2 465 1 902 1 -113 2 -887 1 -409 1 -71 2 85 1 380 
1 874 2 127 1 -860 1 -479 2 -127 1 57 1 324 2 789 
1 338 1 -789 2 -550 3580 4166 20 MP stroke
gr

c9

end %%Color Dict

eplot
%%EndObject

epage
end

showpage

%%Trailer
%%EOF
