%!PS-Adobe-2.0 EPSF-1.2
%%Creator: MATLAB, The MathWorks, Inc. Version 8.3.0.532 (R2014a). Operating System: Darwin 13.4.0 Darwin Kernel Version 13.4.0: Sun Aug 17 19:50:11 PDT 2014; root:xnu-2422.115.4~1/RELEASE_X86_64 x86_64.
%%Title: ../mg.eps
%%CreationDate: 10/28/2014  14:49:34
%%DocumentNeededFonts: Helvetica
%%DocumentProcessColors: Cyan Magenta Yellow Black
%%Extensions: CMYK
%%Pages: 1
%%BoundingBox:    67   215   554   589
%%EndComments

%%BeginProlog
% MathWorks dictionary
/MathWorks 160 dict begin
% definition operators
/bdef {bind def} bind def
/ldef {load def} bind def
/xdef {exch def} bdef
/xstore {exch store} bdef
% operator abbreviations
/c  /clip ldef
/cc /concat ldef
/cp /closepath ldef
/gr /grestore ldef
/gs /gsave ldef
/mt /moveto ldef
/np /newpath ldef
/cm /currentmatrix ldef
/sm /setmatrix ldef
/rm /rmoveto ldef
/rl /rlineto ldef
/s {show newpath} bdef
/sc {setcmykcolor} bdef
/sr /setrgbcolor ldef
/sg /setgray ldef
/w /setlinewidth ldef
/j /setlinejoin ldef
/cap /setlinecap ldef
/rc {rectclip} bdef
/rf {rectfill} bdef
% page state control
/pgsv () def
/bpage {/pgsv save def} bdef
/epage {pgsv restore} bdef
/bplot /gsave ldef
/eplot {stroke grestore} bdef
% orientation switch
/portraitMode 0 def /landscapeMode 1 def /rotateMode 2 def
% coordinate system mappings
/dpi2point 0 def
% font control
/FontSize 0 def
/FMS {/FontSize xstore findfont [FontSize 0 0 FontSize neg 0 0]
  makefont setfont} bdef
/reencode {exch dup where {pop load} {pop StandardEncoding} ifelse
  exch dup 3 1 roll findfont dup length dict begin
  { 1 index /FID ne {def}{pop pop} ifelse } forall
  /Encoding exch def currentdict end definefont pop} bdef
/isroman {findfont /CharStrings get /Agrave known} bdef
/FMSR {3 1 roll 1 index dup isroman {reencode} {pop pop} ifelse
  exch FMS} bdef
/csm {1 dpi2point div -1 dpi2point div scale neg translate
 dup landscapeMode eq {pop -90 rotate}
  {rotateMode eq {90 rotate} if} ifelse} bdef
% line types: solid, dotted, dashed, dotdash
/SO { [] 0 setdash } bdef
/DO { [.5 dpi2point mul 4 dpi2point mul] 0 setdash } bdef
/DA { [6 dpi2point mul] 0 setdash } bdef
/DD { [.5 dpi2point mul 4 dpi2point mul 6 dpi2point mul 4
  dpi2point mul] 0 setdash } bdef
% macros for lines and objects
/L {lineto stroke} bdef
/MP {3 1 roll moveto 1 sub {rlineto} repeat} bdef
/AP {{rlineto} repeat} bdef
/PDlw -1 def
/W {/PDlw currentlinewidth def setlinewidth} def
/PP {closepath eofill} bdef
/DP {closepath stroke} bdef
/MR {4 -2 roll moveto dup  0 exch rlineto exch 0 rlineto
  neg 0 exch rlineto closepath} bdef
/FR {MR stroke} bdef
/PR {MR fill} bdef
/L1i {{currentfile picstr readhexstring pop} image} bdef
/tMatrix matrix def
/MakeOval {newpath tMatrix currentmatrix pop translate scale
0 0 1 0 360 arc tMatrix setmatrix} bdef
/FO {MakeOval stroke} bdef
/PO {MakeOval fill} bdef
/PD {currentlinewidth 2 div 0 360 arc fill
   PDlw -1 eq not {PDlw w /PDlw -1 def} if} def
/FA {newpath tMatrix currentmatrix pop translate scale
  0 0 1 5 -2 roll arc tMatrix setmatrix stroke} bdef
/PA {newpath tMatrix currentmatrix pop	translate 0 0 moveto scale
  0 0 1 5 -2 roll arc closepath tMatrix setmatrix fill} bdef
/FAn {newpath tMatrix currentmatrix pop translate scale
  0 0 1 5 -2 roll arcn tMatrix setmatrix stroke} bdef
/PAn {newpath tMatrix currentmatrix pop translate 0 0 moveto scale
  0 0 1 5 -2 roll arcn closepath tMatrix setmatrix fill} bdef
/vradius 0 def /hradius 0 def /lry 0 def
/lrx 0 def /uly 0 def /ulx 0 def /rad 0 def
/MRR {/vradius xdef /hradius xdef /lry xdef /lrx xdef /uly xdef
  /ulx xdef newpath tMatrix currentmatrix pop ulx hradius add uly
  vradius add translate hradius vradius scale 0 0 1 180 270 arc 
  tMatrix setmatrix lrx hradius sub uly vradius add translate
  hradius vradius scale 0 0 1 270 360 arc tMatrix setmatrix
  lrx hradius sub lry vradius sub translate hradius vradius scale
  0 0 1 0 90 arc tMatrix setmatrix ulx hradius add lry vradius sub
  translate hradius vradius scale 0 0 1 90 180 arc tMatrix setmatrix
  closepath} bdef
/FRR {MRR stroke } bdef
/PRR {MRR fill } bdef
/MlrRR {/lry xdef /lrx xdef /uly xdef /ulx xdef /rad lry uly sub 2 div def
  newpath tMatrix currentmatrix pop ulx rad add uly rad add translate
  rad rad scale 0 0 1 90 270 arc tMatrix setmatrix lrx rad sub lry rad
  sub translate rad rad scale 0 0 1 270 90 arc tMatrix setmatrix
  closepath} bdef
/FlrRR {MlrRR stroke } bdef
/PlrRR {MlrRR fill } bdef
/MtbRR {/lry xdef /lrx xdef /uly xdef /ulx xdef /rad lrx ulx sub 2 div def
  newpath tMatrix currentmatrix pop ulx rad add uly rad add translate
  rad rad scale 0 0 1 180 360 arc tMatrix setmatrix lrx rad sub lry rad
  sub translate rad rad scale 0 0 1 0 180 arc tMatrix setmatrix
  closepath} bdef
/FtbRR {MtbRR stroke } bdef
/PtbRR {MtbRR fill } bdef
/stri 6 array def /dtri 6 array def
/smat 6 array def /dmat 6 array def
/tmat1 6 array def /tmat2 6 array def /dif 3 array def
/asub {/ind2 exch def /ind1 exch def dup dup
  ind1 get exch ind2 get sub exch } bdef
/tri_to_matrix {
  2 0 asub 3 1 asub 4 0 asub 5 1 asub
  dup 0 get exch 1 get 7 -1 roll astore } bdef
/compute_transform {
  dmat dtri tri_to_matrix tmat1 invertmatrix 
  smat stri tri_to_matrix tmat2 concatmatrix } bdef
/ds {stri astore pop} bdef
/dt {dtri astore pop} bdef
/db {2 copy /cols xdef /rows xdef mul dup 3 mul string
  currentfile exch readhexstring pop
  dup 0 3 index getinterval /rbmap xdef
  dup 2 index dup getinterval /gbmap xdef
  1 index dup 2 mul exch getinterval /bbmap xdef pop pop}bdef
/it {gs np dtri aload pop moveto lineto lineto cp c
  cols rows 8 compute_transform 
  rbmap gbmap bbmap true 3 colorimage gr}bdef
/il {newpath moveto lineto stroke}bdef
currentdict end def
%%EndProlog

%%BeginSetup
MathWorks begin

0 cap

end
%%EndSetup

%%Page: 1 1
%%BeginPageSetup
%%PageBoundingBox:    67   215   554   589
MathWorks begin
bpage
%%EndPageSetup

%%BeginObject: obj1
bplot

/dpi2point 12 def
portraitMode 0216 7344 csm

  598   274  5844  4489 MR c np
85 dict begin %Colortable dictionary
/c0 { 0.000000 0.000000 0.000000 sr} bdef
/c1 { 1.000000 1.000000 1.000000 sr} bdef
/c2 { 0.900000 0.000000 0.000000 sr} bdef
/c3 { 0.000000 0.820000 0.000000 sr} bdef
/c4 { 0.000000 0.000000 0.800000 sr} bdef
/c5 { 0.910000 0.820000 0.320000 sr} bdef
/c6 { 1.000000 0.260000 0.820000 sr} bdef
/c7 { 0.000000 0.820000 0.820000 sr} bdef
c0
1 j
1 sg
   0    0 6918 5189 PR
6 w
0 4228 5361 0 0 -4228 899 4617 4 MP
PP
-5361 0 0 4228 5361 0 0 -4228 899 4617 5 MP stroke
4 w
DO
SO
6 w
0 sg
 899 4617 mt 6260 4617 L
 899  389 mt 6260  389 L
 899 4617 mt  899  389 L
6260 4617 mt 6260  389 L
 899 4617 mt 6260 4617 L
 899 4617 mt  899  389 L
 899 4617 mt  899 4563 L
 899  389 mt  899  442 L
%%IncludeResource: font Helvetica
/Helvetica /ISOLatin1Encoding 120 FMSR

 866 4762 mt 
(0) s
1435 4617 mt 1435 4563 L
1435  389 mt 1435  442 L
1335 4762 mt 
(100) s
1971 4617 mt 1971 4563 L
1971  389 mt 1971  442 L
1871 4762 mt 
(200) s
2507 4617 mt 2507 4563 L
2507  389 mt 2507  442 L
2407 4762 mt 
(300) s
3043 4617 mt 3043 4563 L
3043  389 mt 3043  442 L
2943 4762 mt 
(400) s
3579 4617 mt 3579 4563 L
3579  389 mt 3579  442 L
3479 4762 mt 
(500) s
4115 4617 mt 4115 4563 L
4115  389 mt 4115  442 L
4015 4762 mt 
(600) s
4651 4617 mt 4651 4563 L
4651  389 mt 4651  442 L
4551 4762 mt 
(700) s
5187 4617 mt 5187 4563 L
5187  389 mt 5187  442 L
5087 4762 mt 
(800) s
5723 4617 mt 5723 4563 L
5723  389 mt 5723  442 L
5623 4762 mt 
(900) s
6260 4617 mt 6260 4563 L
6260  389 mt 6260  442 L
6127 4762 mt 
(1000) s
 899 4617 mt  952 4617 L
6260 4617 mt 6206 4617 L
 664 4661 mt 
(200) s
 899 3912 mt  952 3912 L
6260 3912 mt 6206 3912 L
 664 3956 mt 
(400) s
 899 3207 mt  952 3207 L
6260 3207 mt 6206 3207 L
 664 3251 mt 
(600) s
 899 2503 mt  952 2503 L
6260 2503 mt 6206 2503 L
 664 2547 mt 
(800) s
 899 1798 mt  952 1798 L
6260 1798 mt 6206 1798 L
 598 1842 mt 
(1000) s
 899 1093 mt  952 1093 L
6260 1093 mt 6206 1093 L
 598 1137 mt 
(1200) s
 899  389 mt  952  389 L
6260  389 mt 6206  389 L
 598  433 mt 
(1400) s
 899 4617 mt 6260 4617 L
 899  389 mt 6260  389 L
 899 4617 mt  899  389 L
6260 4617 mt 6260  389 L
gs 899 389 5362 4229 MR c np
/c8 { 0.000000 0.000000 1.000000 sr} bdef
c8
5 -131 5 -155 6 -151 5 -124 6 -77 5 -32 5 11 6 39 
5 49 5 56 6 46 5 35 5 14 6 -7 5 -38 5 -74 
6 -117 5 -158 6 -208 5 -250 5 -282 6 -286 5 -257 5 -194 
6 -116 5 -46 5 15 6 56 5 81 6 102 5 120 5 130 
6 145 5 158 5 166 6 176 5 187 5 194 6 200 5 215 
6 219 5 225 5 222 6 212 5 183 5 137 6 88 5 39 
5 4 6 -18 5 -39 5 -53 6 -63 5 -67 6 -63 5 -64 
5 -60 6 -60 5 -70 5 -85 6 -105 5 -131 5 -144 6 -152 
5 -141 6 -116 5 -102 5 -92 6 -95 5 -95 5 -102 6 -99 
5 -88 5 -63 6 -28 5 7 5 52 6 92 5 120 6 148 
5 151 5 145 6 120 5 81 5 49 6 25 5 14 5 17 
6 32 5 49 6 74 5 88 5 106 6 106 5 95 5 74 
6 28 5 -28 5 -81 4657 1308 100 MP stroke
6 -120 5 -123 6 -102 5 -64 5 -28 6 4 5 28 5 35 
6 35 5 21 5 7 6 -17 5 -50 5 -77 6 -116 5 -155 
6 -187 5 -219 5 -243 6 -253 5 -243 5 -215 6 -162 5 -96 
5 -31 6 24 5 67 6 95 5 113 5 127 6 134 5 137 
5 145 6 141 5 144 5 145 6 148 5 155 6 165 5 176 
5 187 6 190 5 187 5 155 6 109 5 50 5 0 6 -36 
5 -52 5 -64 6 -63 5 -64 6 -52 5 -46 5 -32 6 -21 
5 -21 5 -25 6 -46 5 -74 5 -112 6 -148 5 -166 6 -148 
5 -113 5 -67 6 -17 5 21 5 46 6 56 5 56 5 50 
6 35 5 14 6 -11 5 -42 5 -77 6 -124 5 -165 5 -219 
6 -260 5 -293 5 -289 6 -246 5 -180 5 -99 6 -28 5 25 
6 63 5 92 5 105 6 127 5 134 5 152 6 158 5 173 
5 187 6 193 5 208 4126 2390 100 MP stroke
6 215 5 222 5 229 6 233 5 225 5 215 6 187 5 141 
5 84 6 32 5 -7 6 -32 5 -42 5 -49 6 -57 5 -63 
5 -67 6 -74 5 -78 5 -77 6 -85 5 -95 5 -105 6 -127 
5 -145 6 -165 5 -166 5 -151 6 -117 5 -77 5 -53 6 -39 
5 -42 5 -46 6 -53 5 -56 6 -46 5 -32 5 -3 6 28 
5 67 5 99 6 130 5 151 5 163 6 148 5 123 6 77 
5 39 5 11 6 -4 5 0 5 7 6 32 5 49 5 67 
6 81 5 88 5 81 6 57 5 21 6 -28 5 -85 5 -120 
6 -134 5 -109 5 -77 6 -32 5 4 5 28 6 38 5 43 
6 28 5 14 5 -11 6 -35 5 -70 5 -99 6 -137 5 -169 
5 -208 6 -240 5 -264 6 -268 5 -236 5 -180 6 -109 5 -35 
5 17 6 64 5 91 5 110 6 123 5 123 5 127 6 127 
5 127 6 134 5 148 3595 2541 100 MP stroke
5 165 6 177 5 193 5 205 6 208 5 207 5 191 6 162 
5 116 6 60 5 -7 5 -53 6 -78 5 -70 5 -49 6 -28 
5 -11 5 -4 6 -7 5 -21 5 -39 6 -56 5 -81 6 -102 
5 -120 5 -144 6 -166 5 -183 5 -205 6 -214 5 -219 5 -201 
6 -162 5 -95 6 -35 5 21 5 56 6 78 5 84 5 85 
6 85 5 77 5 71 6 70 5 74 6 85 5 105 5 124 
6 148 5 165 5 180 6 172 5 148 5 103 6 45 5 4 
5 -32 6 -42 5 -46 6 -39 5 -24 5 -11 6 7 5 25 
5 28 6 25 5 7 5 -21 6 -67 5 -113 6 -145 5 -147 
5 -120 6 -81 5 -32 5 3 6 36 5 49 5 49 6 43 
5 28 6 10 5 -14 5 -45 6 -82 5 -119 5 -162 6 -205 
5 -246 5 -275 6 -279 5 -257 5 -197 6 -120 5 -46 6 14 
5 57 5 81 6 106 3064 3626 100 MP stroke
5 119 5 131 6 141 5 151 5 155 6 159 5 169 6 180 
5 190 5 204 6 219 5 222 5 222 6 204 5 176 5 134 
6 81 5 35 6 -10 5 -43 5 -60 6 -66 5 -60 5 -50 
6 -38 5 -32 5 -32 6 -42 5 -64 5 -84 6 -113 5 -134 
6 -144 5 -145 5 -141 6 -144 5 -145 5 -148 6 -151 5 -144 
5 -131 6 -102 5 -60 6 -10 5 35 5 77 6 113 5 134 
5 144 6 141 5 120 5 92 6 60 5 42 6 35 5 42 
5 57 6 77 5 99 5 116 6 124 5 126 5 117 6 88 
5 38 5 -17 6 -78 5 -112 6 -113 5 -95 5 -60 6 -25 
5 4 5 24 6 32 5 28 5 14 6 -3 5 -32 6 -60 
5 -91 5 -127 6 -159 5 -194 5 -218 6 -240 5 -246 5 -236 
6 -205 5 -148 6 -84 5 -21 5 35 6 70 5 99 5 116 
6 124 5 130 5 134 2534 2904 100 MP stroke
6 134 5 130 5 134 6 134 5 141 6 148 5 162 5 176 
6 187 5 190 5 173 6 144 5 85 5 31 6 -17 5 -39 
6 -56 5 -64 5 -60 6 -53 5 -45 5 -32 6 -18 5 -10 
5 -14 6 -25 5 -49 6 -88 5 -127 5 -155 6 -159 5 -134 
5 -91 6 -39 5 3 5 32 6 49 5 57 5 53 6 42 
5 21 6 0 5 -25 5 -63 6 -102 5 -145 5 -193 6 -240 
5 -278 5 -289 6 -272 5 -214 6 -138 5 -63 5 0 6 46 
5 77 5 99 6 116 5 127 5 144 6 152 5 169 5 176 
6 187 5 197 6 208 5 215 5 222 6 225 5 229 5 219 
6 197 5 159 5 105 6 53 5 11 6 -14 5 -36 5 -45 
6 -53 5 -64 5 -67 6 -70 5 -70 5 -71 6 -74 5 -84 
6 -99 5 -116 5 -141 6 -155 5 -159 5 -141 6 -109 5 -85 
5 -70 6 -64 5 -70 2003 2499 100 MP stroke
5 -74 6 -77 5 -71 6 -56 5 -32 5 3 6 43 5 81 
5 116 6 141 5 155 5 155 6 130 5 99 6 56 5 25 
5 11 6 3 5 14 5 32 6 49 5 74 5 88 6 96 
5 95 6 77 5 42 5 -7 6 -63 5 -109 5 -127 6 -116 
5 -85 5 -46 6 -10 5 17 5 36 6 38 5 32 6 18 
5 0 5 -32 6 -60 5 -95 5 -130 6 -173 5 -204 5 -233 
6 -254 5 -253 6 -233 5 -190 5 -130 6 -64 5 -3 5 45 
6 81 5 106 5 120 6 130 5 141 6 145 5 144 5 148 
6 152 5 148 5 155 6 165 5 169 5 184 6 193 5 191 
5 176 6 141 5 84 6 25 5 -18 5 -42 6 -60 5 -63 
5 -64 6 -63 5 -53 5 -42 6 -32 5 -25 6 -24 5 -36 
5 -56 6 -92 5 -130 5 -158 6 -163 5 -140 5 -99 6 -46 
5 0 6 32 5 49 1472 2182 100 MP stroke
5 60 6 56 5 46 5 28 6 7 5 -21 5 -53 6 -91 
5 -138 5 -183 6 -236 5 -271 6 -296 5 -282 5 -229 6 -151 
5 -71 5 -7 6 42 5 71 5 98 6 117 5 126 6 141 
5 152 5 166 6 176 5 186 5 201 6 212 5 222 5 232 
6 233 5 232 6 226 5 208 5 176 6 127 5 67 5 10 
6 -25 5 -42 5 -49 6 -46 5 -53 5 -60 6 -63 5 -71 
6 -77 5 -88 5 -92 6 -105 5 -117 5 -130 6 -152 5 -169 
5 -183 6 -180 5 -151 6 -109 5 -60 5 -21 6 -4 5 0 
5 -3 6 -7 5 -18 5 -18 6 -7 5 11 6 35 5 63 
5 99 6 127 5 151 5 166 6 162 5 138 5 95 6 49 
5 14 5 -10 6 -18 5 -11 6 4 5 25 5 42 6 60 
5 67 5 70 6 56 5 29 5 -11 6 -67 5 -113 6 -133 
5 -131 5 -98 6 -53 941 1875 100 MP stroke
5 -14 5 17 6 39 5 42 5 39 6 25 5 10 904 1717 8 MP stroke
/c9 { 1.000000 0.000000 0.000000 sr} bdef
c9
6 -70 5 -71 6 -70 5 -71 5 -81 6 -88 5 -109 5 -127 
6 -148 5 -158 5 -148 6 -124 5 -95 6 -74 5 -67 5 -67 
6 -70 5 -81 5 -78 6 -67 5 -49 5 -14 6 21 5 60 
6 99 5 127 5 148 6 155 5 144 5 116 6 78 5 39 
5 10 6 4 5 7 5 21 6 39 5 63 6 81 5 95 
5 99 6 88 5 60 5 21 6 -32 5 -84 5 -124 6 -126 
5 -106 6 -67 5 -25 5 11 6 28 5 42 5 35 6 29 
5 7 5 -18 6 -46 5 -77 6 -109 5 -145 5 -180 6 -215 
5 -246 5 -261 6 -264 5 -229 5 -169 6 -92 5 -25 5 32 
6 71 5 95 6 116 5 123 5 131 6 127 5 126 5 124 
6 130 5 145 5 155 6 176 5 190 6 204 5 212 5 208 
6 190 5 155 5 102 6 42 5 -17 5 -60 6 -78 5 -77 
6 -53 5 -35 5 -14 5729 1195 100 MP stroke
6 0 5 0 5 -11 6 -28 5 -49 5 -85 6 -109 5 -134 
5 -152 6 -169 5 -183 6 -190 5 -201 5 -201 6 -190 5 -162 
5 -116 6 -64 5 -7 5 42 6 85 5 113 6 130 5 137 
5 127 6 109 5 89 5 74 6 63 5 74 5 85 6 105 
5 124 6 140 5 152 5 155 6 144 5 124 5 77 6 21 
5 -38 5 -88 6 -110 5 -95 5 -67 6 -35 5 -7 6 18 
5 24 5 18 6 7 5 -11 5 -35 6 -63 5 -92 5 -127 
6 -155 5 -183 6 -208 5 -229 5 -239 6 -233 5 -208 5 -158 
6 -96 5 -28 5 28 6 67 5 92 6 109 5 117 5 119 
6 124 5 119 5 117 6 116 5 120 5 127 6 141 5 151 
5 173 6 183 5 183 6 173 5 134 5 81 6 28 5 -18 
5 -42 6 -56 5 -57 5 -56 6 -42 5 -32 6 -18 5 -7 
5 0 6 -3 5 -18 5198 1361 100 MP stroke
5 -49 5193 1410 2 MP stroke
gr

c9

end %%Color Dict

eplot
%%EndObject

epage
end

showpage

%%Trailer
%%EOF
