%!PS-Adobe-2.0 EPSF-1.2
%%Creator: MATLAB, The MathWorks, Inc. Version 8.1.0.604 (R2013a). Operating System: Linux 3.13.0-37-generic #64-Ubuntu SMP Mon Sep 22 21:28:38 UTC 2014 x86_64.
%%Title: ./sunspots.eps
%%CreationDate: 10/28/2014  16:46:10
%%DocumentNeededFonts: Helvetica
%%DocumentProcessColors: Cyan Magenta Yellow Black
%%Extensions: CMYK
%%Pages: 1
%%BoundingBox:    73   215   554   589
%%EndComments

%%BeginProlog
% MathWorks dictionary
/MathWorks 160 dict begin
% definition operators
/bdef {bind def} bind def
/ldef {load def} bind def
/xdef {exch def} bdef
/xstore {exch store} bdef
% operator abbreviations
/c  /clip ldef
/cc /concat ldef
/cp /closepath ldef
/gr /grestore ldef
/gs /gsave ldef
/mt /moveto ldef
/np /newpath ldef
/cm /currentmatrix ldef
/sm /setmatrix ldef
/rm /rmoveto ldef
/rl /rlineto ldef
/s {show newpath} bdef
/sc {setcmykcolor} bdef
/sr /setrgbcolor ldef
/sg /setgray ldef
/w /setlinewidth ldef
/j /setlinejoin ldef
/cap /setlinecap ldef
/rc {rectclip} bdef
/rf {rectfill} bdef
% page state control
/pgsv () def
/bpage {/pgsv save def} bdef
/epage {pgsv restore} bdef
/bplot /gsave ldef
/eplot {stroke grestore} bdef
% orientation switch
/portraitMode 0 def /landscapeMode 1 def /rotateMode 2 def
% coordinate system mappings
/dpi2point 0 def
% font control
/FontSize 0 def
/FMS {/FontSize xstore findfont [FontSize 0 0 FontSize neg 0 0]
  makefont setfont} bdef
/reencode {exch dup where {pop load} {pop StandardEncoding} ifelse
  exch dup 3 1 roll findfont dup length dict begin
  { 1 index /FID ne {def}{pop pop} ifelse } forall
  /Encoding exch def currentdict end definefont pop} bdef
/isroman {findfont /CharStrings get /Agrave known} bdef
/FMSR {3 1 roll 1 index dup isroman {reencode} {pop pop} ifelse
  exch FMS} bdef
/csm {1 dpi2point div -1 dpi2point div scale neg translate
 dup landscapeMode eq {pop -90 rotate}
  {rotateMode eq {90 rotate} if} ifelse} bdef
% line types: solid, dotted, dashed, dotdash
/SO { [] 0 setdash } bdef
/DO { [.5 dpi2point mul 4 dpi2point mul] 0 setdash } bdef
/DA { [6 dpi2point mul] 0 setdash } bdef
/DD { [.5 dpi2point mul 4 dpi2point mul 6 dpi2point mul 4
  dpi2point mul] 0 setdash } bdef
% macros for lines and objects
/L {lineto stroke} bdef
/MP {3 1 roll moveto 1 sub {rlineto} repeat} bdef
/AP {{rlineto} repeat} bdef
/PDlw -1 def
/W {/PDlw currentlinewidth def setlinewidth} def
/PP {closepath eofill} bdef
/DP {closepath stroke} bdef
/MR {4 -2 roll moveto dup  0 exch rlineto exch 0 rlineto
  neg 0 exch rlineto closepath} bdef
/FR {MR stroke} bdef
/PR {MR fill} bdef
/L1i {{currentfile picstr readhexstring pop} image} bdef
/tMatrix matrix def
/MakeOval {newpath tMatrix currentmatrix pop translate scale
0 0 1 0 360 arc tMatrix setmatrix} bdef
/FO {MakeOval stroke} bdef
/PO {MakeOval fill} bdef
/PD {currentlinewidth 2 div 0 360 arc fill
   PDlw -1 eq not {PDlw w /PDlw -1 def} if} def
/FA {newpath tMatrix currentmatrix pop translate scale
  0 0 1 5 -2 roll arc tMatrix setmatrix stroke} bdef
/PA {newpath tMatrix currentmatrix pop	translate 0 0 moveto scale
  0 0 1 5 -2 roll arc closepath tMatrix setmatrix fill} bdef
/FAn {newpath tMatrix currentmatrix pop translate scale
  0 0 1 5 -2 roll arcn tMatrix setmatrix stroke} bdef
/PAn {newpath tMatrix currentmatrix pop translate 0 0 moveto scale
  0 0 1 5 -2 roll arcn closepath tMatrix setmatrix fill} bdef
/vradius 0 def /hradius 0 def /lry 0 def
/lrx 0 def /uly 0 def /ulx 0 def /rad 0 def
/MRR {/vradius xdef /hradius xdef /lry xdef /lrx xdef /uly xdef
  /ulx xdef newpath tMatrix currentmatrix pop ulx hradius add uly
  vradius add translate hradius vradius scale 0 0 1 180 270 arc 
  tMatrix setmatrix lrx hradius sub uly vradius add translate
  hradius vradius scale 0 0 1 270 360 arc tMatrix setmatrix
  lrx hradius sub lry vradius sub translate hradius vradius scale
  0 0 1 0 90 arc tMatrix setmatrix ulx hradius add lry vradius sub
  translate hradius vradius scale 0 0 1 90 180 arc tMatrix setmatrix
  closepath} bdef
/FRR {MRR stroke } bdef
/PRR {MRR fill } bdef
/MlrRR {/lry xdef /lrx xdef /uly xdef /ulx xdef /rad lry uly sub 2 div def
  newpath tMatrix currentmatrix pop ulx rad add uly rad add translate
  rad rad scale 0 0 1 90 270 arc tMatrix setmatrix lrx rad sub lry rad
  sub translate rad rad scale 0 0 1 270 90 arc tMatrix setmatrix
  closepath} bdef
/FlrRR {MlrRR stroke } bdef
/PlrRR {MlrRR fill } bdef
/MtbRR {/lry xdef /lrx xdef /uly xdef /ulx xdef /rad lrx ulx sub 2 div def
  newpath tMatrix currentmatrix pop ulx rad add uly rad add translate
  rad rad scale 0 0 1 180 360 arc tMatrix setmatrix lrx rad sub lry rad
  sub translate rad rad scale 0 0 1 0 180 arc tMatrix setmatrix
  closepath} bdef
/FtbRR {MtbRR stroke } bdef
/PtbRR {MtbRR fill } bdef
/stri 6 array def /dtri 6 array def
/smat 6 array def /dmat 6 array def
/tmat1 6 array def /tmat2 6 array def /dif 3 array def
/asub {/ind2 exch def /ind1 exch def dup dup
  ind1 get exch ind2 get sub exch } bdef
/tri_to_matrix {
  2 0 asub 3 1 asub 4 0 asub 5 1 asub
  dup 0 get exch 1 get 7 -1 roll astore } bdef
/compute_transform {
  dmat dtri tri_to_matrix tmat1 invertmatrix 
  smat stri tri_to_matrix tmat2 concatmatrix } bdef
/ds {stri astore pop} bdef
/dt {dtri astore pop} bdef
/db {2 copy /cols xdef /rows xdef mul dup 3 mul string
  currentfile exch readhexstring pop
  dup 0 3 index getinterval /rbmap xdef
  dup 2 index dup getinterval /gbmap xdef
  1 index dup 2 mul exch getinterval /bbmap xdef pop pop}bdef
/it {gs np dtri aload pop moveto lineto lineto cp c
  cols rows 8 compute_transform 
  rbmap gbmap bbmap true 3 colorimage gr}bdef
/il {newpath moveto lineto stroke}bdef
currentdict end def
%%EndProlog

%%BeginSetup
MathWorks begin

0 cap

end
%%EndSetup

%%Page: 1 1
%%BeginPageSetup
%%PageBoundingBox:    73   215   554   589
MathWorks begin
bpage
%%EndPageSetup

%%BeginObject: obj1
bplot

/dpi2point 12 def
portraitMode 0216 7344 csm

  664   274  5773  4487 MR c np
85 dict begin %Colortable dictionary
/c0 { 0.000000 0.000000 0.000000 sr} bdef
/c1 { 1.000000 1.000000 1.000000 sr} bdef
/c2 { 0.900000 0.000000 0.000000 sr} bdef
/c3 { 0.000000 0.820000 0.000000 sr} bdef
/c4 { 0.000000 0.000000 0.800000 sr} bdef
/c5 { 0.910000 0.820000 0.320000 sr} bdef
/c6 { 1.000000 0.260000 0.820000 sr} bdef
/c7 { 0.000000 0.820000 0.820000 sr} bdef
c0
1 j
1 sg
   0    0 6913 5186 PR
6 w
0 4226 5356 0 0 -4226 899 4615 4 MP
PP
-5356 0 0 4226 5356 0 0 -4226 899 4615 5 MP stroke
4 w
DO
0 sg
 899 4615 mt  899  389 L
 899  389 mt  899  389 L
1970 4615 mt 1970  389 L
1970  389 mt 1970  389 L
3041 4615 mt 3041  389 L
3041  389 mt 3041  389 L
4112 4615 mt 4112  389 L
4112  389 mt 4112  389 L
5183 4615 mt 5183  389 L
5183  389 mt 5183  389 L
6255 4615 mt 6255  389 L
6255  389 mt 6255  389 L
 899 4615 mt 6255 4615 L
6255 4615 mt 6255 4615 L
 899 3910 mt 6255 3910 L
6255 3910 mt 6255 3910 L
 899 3206 mt 6255 3206 L
6255 3206 mt 6255 3206 L
 899 2502 mt 6255 2502 L
6255 2502 mt 6255 2502 L
 899 1797 mt 6255 1797 L
6255 1797 mt 6255 1797 L
 899 1093 mt 6255 1093 L
6255 1093 mt 6255 1093 L
 899  389 mt 6255  389 L
6255  389 mt 6255  389 L
SO
6 w
 899 4615 mt 6255 4615 L
 899  389 mt 6255  389 L
 899 4615 mt  899  389 L
6255 4615 mt 6255  389 L
 899 4615 mt 6255 4615 L
 899 4615 mt  899  389 L
 899 4615 mt  899 4561 L
 899  389 mt  899  442 L
%%IncludeResource: font Helvetica
/Helvetica /ISOLatin1Encoding 120 FMSR

 766 4760 mt 
(1750) s
1970 4615 mt 1970 4561 L
1970  389 mt 1970  442 L
1837 4760 mt 
(1800) s
3041 4615 mt 3041 4561 L
3041  389 mt 3041  442 L
2908 4760 mt 
(1850) s
4112 4615 mt 4112 4561 L
4112  389 mt 4112  442 L
3979 4760 mt 
(1900) s
5183 4615 mt 5183 4561 L
5183  389 mt 5183  442 L
5050 4760 mt 
(1950) s
6255 4615 mt 6255 4561 L
6255  389 mt 6255  442 L
6122 4760 mt 
(2000) s
 899 4615 mt  952 4615 L
6255 4615 mt 6201 4615 L
 798 4659 mt 
(0) s
 899 3910 mt  952 3910 L
6255 3910 mt 6201 3910 L
 731 3954 mt 
(50) s
 899 3206 mt  952 3206 L
6255 3206 mt 6201 3206 L
 664 3250 mt 
(100) s
 899 2502 mt  952 2502 L
6255 2502 mt 6201 2502 L
 664 2546 mt 
(150) s
 899 1797 mt  952 1797 L
6255 1797 mt 6201 1797 L
 664 1841 mt 
(200) s
 899 1093 mt  952 1093 L
6255 1093 mt 6201 1093 L
 664 1137 mt 
(250) s
 899  389 mt  952  389 L
6255  389 mt 6201  389 L
 664  433 mt 
(300) s
 899 4615 mt 6255 4615 L
 899  389 mt 6255  389 L
 899 4615 mt  899  389 L
6255 4615 mt 6255  389 L
gs 899 389 5357 4227 MR c np
/c8 { 0.000000 0.000000 1.000000 sr} bdef
c8
1 -589 2 378 2 110 2 7 2 -138 1 659 2 -166 2 105 
2 -191 1 244 2 -110 2 -592 2 976 2 -812 1 -112 2 11 
2 475 2 -53 2 252 1 -762 2 0 2 -71 2 -119 1 31 
2 -169 2 -588 2 393 2 -166 1 -510 2 268 2 -450 2 181 
2 291 1 -376 2 68 2 -81 2 -219 1 219 2 93 2 -350 
2 -174 2 113 1 -51 2 119 2 284 2 -445 2 51 1 150 
2 -239 2 177 2 68 1 -48 2 114 2 -291 2 208 2 -15 
1 34 2 -208 2 102 2 276 2 -92 1 47 2 -159 2 14 
2 -19 1 9 2 31 2 58 2 -152 2 52 1 138 2 167 
2 123 2 427 2 -95 1 195 2 27 2 -401 2 -332 1 -1 
2 317 2 -78 2 303 2 146 1 126 2 114 2 -261 2 -200 
1 -218 2 469 2 602 2 -408 2 -47 1 339 2 -158 2 -21 
2 61 2 -398 1 561 5896 2896 100 MP stroke
2 448 2 138 2 -738 1 548 2 -178 2 351 2 69 2 -121 
1 -210 2 -745 2 516 2 407 2 -295 1 82 2 -385 2 851 
2 -373 1 237 2 -137 2 -276 2 13 2 295 1 319 2 -223 
2 -534 2 406 2 65 1 235 2 99 2 40 2 31 1 -650 
2 242 2 -140 2 -212 2 -464 1 514 2 -7 2 410 2 -618 
2 -349 1 383 2 184 2 -1128 2 173 1 348 2 -175 2 240 
2 -327 2 241 1 -587 2 -123 2 -199 2 207 2 3 1 -195 
2 -123 2 241 2 -280 1 -81 2 -59 2 203 2 -94 2 -16 
1 -142 2 217 2 -100 2 41 2 -205 1 145 2 3 2 90 
2 44 1 -248 2 54 2 -5 2 164 2 -145 1 67 2 364 
2 -162 2 -237 2 -34 1 -55 2 90 2 0 2 105 1 22 
2 64 2 311 2 -97 2 -93 1 313 2 -279 2 49 2 11 
2 -267 1 66 2 22 5719 4226 100 MP stroke
2 -60 2 8 1 96 2 403 2 -475 2 -35 2 231 1 41 
2 215 2 -165 2 -43 2 7 1 27 2 -52 2 277 2 38 
1 180 2 -4 2 162 2 -106 2 -243 1 238 2 117 2 -379 
2 291 2 -267 1 -162 2 -21 2 157 2 277 1 -440 2 108 
2 202 2 -156 2 257 1 174 2 -110 2 165 2 -122 2 182 
1 -91 2 274 2 -80 2 292 1 -254 2 -93 2 351 2 -230 
2 -191 1 -62 2 31 2 -62 2 94 2 -17 1 130 2 197 
2 -186 2 408 1 -215 2 -227 2 76 2 -335 2 306 1 133 
2 -111 2 -186 2 200 2 238 1 -648 2 155 2 278 2 139 
1 65 2 -452 2 -86 2 -161 2 429 1 -222 2 -340 2 270 
2 -239 1 595 2 -256 2 244 2 -571 2 -186 1 0 2 -98 
2 14 2 77 2 -127 1 -33 2 48 2 -330 2 -13 1 54 
2 -158 2 -17 2 61 5542 4331 100 MP stroke
2 -47 1 -111 2 42 2 56 2 116 2 -244 1 69 2 36 
2 46 2 -34 1 -108 2 -19 2 -19 2 65 2 -88 1 85 
2 5 2 -12 2 111 2 17 1 -34 2 -6 2 120 2 168 
1 49 2 -79 2 -191 2 229 2 100 1 -193 2 -172 2 103 
2 -65 2 48 1 52 2 178 2 166 2 -415 1 0 2 284 
2 24 2 38 2 -11 1 66 2 -163 2 17 2 -103 2 72 
1 364 2 -109 2 202 2 102 1 -372 2 146 2 -118 2 -97 
2 166 1 390 2 57 2 -96 2 625 2 98 1 -175 2 -162 
2 132 2 34 1 -279 2 54 2 567 2 -300 2 -14 1 -177 
2 476 2 766 2 -704 2 269 1 46 2 -122 2 315 2 -600 
1 1047 2 -420 2 -497 2 411 2 278 1 -14 2 -124 2 -281 
2 54 2 291 1 -74 2 -364 2 530 2 520 1 -402 2 605 
2 -254 2 -1096 2 412 5365 1977 100 MP stroke
1 190 2 -509 2 149 2 -250 2 -383 1 490 2 382 2 129 
2 -648 1 252 2 -50 2 -571 2 -176 2 282 1 -365 2 108 
2 79 2 -710 2 47 1 173 2 -432 2 -223 2 -28 1 -197 
2 70 2 -39 2 -248 2 -90 1 224 2 32 2 -218 2 22 
2 -31 1 -77 2 97 2 -51 2 -65 1 9 2 14 2 128 
2 -146 2 -5 1 33 2 -13 2 93 2 156 2 60 1 -210 
2 186 2 -131 2 215 1 -251 2 -86 2 319 2 110 2 -172 
1 24 2 62 2 376 2 -220 2 -41 1 -183 2 80 2 -100 
2 10 1 254 2 72 2 93 2 -12 2 444 1 -311 2 7 
2 551 2 111 1 -220 2 -521 2 56 2 0 2 -81 1 9 
2 93 2 -142 2 478 2 81 1 -104 2 319 2 101 2 -52 
1 -210 2 96 2 225 2 365 2 -168 1 193 2 -303 2 29 
2 -58 2 -218 1 574 5189 2544 100 MP stroke
2 148 2 349 2 -890 1 266 2 -594 2 571 2 98 2 206 
1 -221 2 360 2 88 2 221 2 -1337 1 -123 2 316 2 113 
2 162 1 501 2 82 2 273 2 -435 2 84 1 527 2 -725 
2 -282 2 51 2 -250 1 85 2 29 2 -302 2 -112 1 181 
2 126 2 -601 2 160 2 -129 1 13 2 135 2 -544 2 -285 
2 262 1 322 2 -478 2 -127 2 236 1 -91 2 -78 2 19 
2 -148 2 -124 1 82 2 140 2 -248 2 86 2 -37 1 34 
2 -165 2 0 2 -35 1 -31 2 150 2 -147 2 45 2 212 
1 -121 2 -34 2 31 2 133 2 -88 1 -78 2 91 2 169 
2 18 1 22 2 -233 2 142 2 116 2 -162 1 -28 2 42 
2 -35 2 -89 2 192 1 503 2 -92 2 -20 2 -242 1 -27 
2 66 2 112 2 276 2 -83 1 97 2 -100 2 -427 2 47 
2 191 1 -27 2 16 5012 3972 100 MP stroke
2 320 2 -140 1 -48 2 162 2 550 2 -536 2 231 1 -415 
2 89 2 318 2 -337 2 -125 1 -118 2 366 2 282 2 345 
1 -96 2 -116 2 48 2 244 2 -130 1 -627 2 181 2 41 
2 174 2 416 1 -326 2 -133 2 367 2 699 1 -955 2 421 
2 -372 2 -204 2 461 1 -293 2 -136 2 -202 2 711 2 -341 
1 521 2 104 2 -208 2 -192 1 -104 2 -358 2 629 2 56 
2 -128 1 -113 2 -372 2 -183 2 155 1 -489 2 250 2 -217 
2 286 2 31 1 -40 2 -162 2 -18 2 38 2 -155 1 -156 
2 -169 2 53 2 166 1 -259 2 -213 2 154 2 -37 2 -26 
1 -46 2 -94 2 -42 2 -24 2 60 1 15 2 -37 2 183 
2 -118 1 -99 2 49 2 -62 2 -43 2 4 1 34 2 29 
2 -69 2 37 2 34 1 -28 2 -5 2 102 2 170 1 -139 
2 -19 2 -39 2 10 4835 4489 100 MP stroke
2 -69 1 39 2 40 2 177 2 -60 2 -95 1 0 2 -8 
2 21 2 80 1 13 2 -123 2 127 2 -84 2 62 1 -30 
2 131 2 93 2 -17 2 185 1 -402 2 158 2 138 2 -17 
1 -32 2 -102 2 -42 2 97 2 113 1 20 2 -45 2 209 
2 217 2 602 1 -379 2 -382 2 -276 2 442 1 62 2 24 
2 -193 2 -76 2 -36 1 177 2 86 2 -139 2 -123 2 156 
1 399 2 -83 2 200 2 -93 1 -203 2 51 2 68 2 -168 
2 141 1 -540 2 310 2 -58 2 75 2 -206 1 16 2 59 
2 282 2 203 1 -337 2 330 2 -161 2 -31 2 -266 1 155 
2 -151 2 11 2 -131 2 299 1 -130 2 -363 2 338 2 104 
1 27 2 377 2 -563 2 149 2 -126 1 -315 2 9 2 127 
2 -67 2 -156 1 -193 2 73 2 -249 2 155 1 84 2 44 
2 -7 2 -82 2 124 4658 4219 100 MP stroke
1 -57 2 -45 2 -134 2 -134 2 46 1 -64 2 32 2 101 
2 23 1 22 2 -178 2 42 2 79 2 -83 1 40 2 -39 
2 -25 2 42 2 183 1 -142 2 -17 2 -21 2 25 1 62 
2 -72 2 31 2 42 2 616 1 -399 2 -205 2 119 2 -35 
2 6 1 -6 2 71 2 269 2 -116 1 -162 2 144 2 -80 
2 22 2 45 1 -22 2 -38 2 315 2 -187 1 -241 2 117 
2 158 2 -76 2 -261 1 780 2 -229 2 -40 2 -228 2 100 
1 152 2 27 2 201 2 -60 1 655 2 -325 2 -512 2 207 
2 183 1 -442 2 156 2 341 2 23 2 -72 1 307 2 83 
2 -679 2 244 1 53 2 -116 2 -98 2 433 2 469 1 -464 
2 -340 2 805 2 354 2 -489 1 -69 2 -11 2 -555 2 283 
1 -323 2 40 2 -306 2 178 2 -210 1 -79 2 -140 2 258 
2 200 2 96 1 -38 4482 3603 100 MP stroke
2 -68 2 -163 2 -142 1 -153 2 113 2 155 2 -56 2 283 
1 28 2 -39 2 -505 2 117 2 -35 1 49 2 -272 2 -9 
2 -83 1 -116 2 63 2 -70 2 -32 2 84 1 -87 2 170 
2 -200 2 -7 2 3 1 14 2 -44 2 34 2 -27 1 -14 
2 21 2 -24 2 0 2 13 1 -5 2 33 2 -8 2 58 
2 -75 1 49 2 69 2 -129 2 38 1 15 2 4 2 2 
2 6 2 -70 1 5 2 26 2 29 2 -23 2 20 1 0 
2 -7 2 -19 2 96 1 106 2 -123 2 17 2 -79 2 34 
1 -12 2 470 2 -170 2 -208 2 37 1 -25 2 139 2 -194 
2 183 1 142 2 -72 2 392 2 23 2 36 1 -276 2 -221 
2 179 2 -186 2 189 1 -53 2 479 2 -277 2 142 1 -242 
2 84 2 -186 2 770 2 50 1 -718 2 121 2 -103 2 237 
2 -407 1 73 2 75 4305 4062 100 MP stroke
2 114 2 200 1 55 2 276 2 -433 2 -64 2 -131 1 35 
2 136 2 115 2 669 2 -448 1 -165 2 -364 2 -297 2 540 
1 -119 2 788 2 -569 2 -78 2 -34 1 130 2 -468 2 200 
2 141 2 729 1 -402 2 -334 2 54 2 200 1 -338 2 -14 
2 -123 2 242 2 413 1 -437 2 -2 2 -234 2 228 1 -339 
2 395 2 -107 2 -122 2 -34 1 49 2 -81 2 -179 2 100 
2 197 1 -16 2 -79 2 -391 2 249 1 -12 2 -164 2 -24 
2 162 2 -177 1 49 2 -123 2 -101 2 130 2 84 1 -122 
2 -75 2 -20 2 7 1 20 2 -40 2 175 2 -175 2 78 
1 -78 2 54 2 -1 2 -44 2 6 1 -5 2 72 2 62 
2 -144 1 64 2 -30 2 -31 2 2 2 59 1 118 2 -65 
2 -56 2 56 2 54 1 44 2 11 2 -104 2 70 1 -59 
2 15 2 -38 2 74 4128 4431 100 MP stroke
2 -65 1 -78 2 150 2 98 2 -180 2 92 1 54 2 -125 
2 145 2 -97 1 258 2 49 2 6 2 -48 2 -316 1 188 
2 49 2 -159 2 335 2 -27 1 -87 2 44 2 -351 2 83 
1 476 2 -370 2 81 2 -229 2 122 1 155 2 -27 2 5 
2 157 2 29 1 -65 2 -131 2 459 2 -480 1 250 2 57 
2 -300 2 226 2 116 1 76 2 -400 2 587 2 -331 2 292 
1 -144 2 158 2 -297 2 334 1 -57 2 133 2 -224 2 87 
2 -55 1 -46 2 -48 2 266 2 -135 2 62 1 503 2 -100 
2 32 2 -276 1 -413 2 455 2 -19 2 149 2 -264 1 69 
2 -29 2 722 2 -571 2 18 1 -73 2 48 2 -316 2 103 
1 28 2 51 2 -186 2 72 2 -109 1 544 2 -351 2 -3 
2 47 2 -141 1 -278 2 362 2 -91 2 -516 1 133 2 135 
2 32 2 -293 2 364 3951 3786 100 MP stroke
1 -148 2 -102 2 -290 2 -142 2 166 1 -122 2 -81 2 26 
2 22 1 85 2 -123 2 44 2 -145 2 49 1 -45 2 49 
2 -63 2 66 2 20 1 -92 2 27 2 62 2 199 1 -158 
2 -42 2 -57 2 27 2 34 1 25 2 -108 2 83 2 56 
1 -121 2 94 2 -84 2 4 2 57 1 -2 2 -27 2 38 
2 -9 2 78 1 113 2 -194 2 -5 2 12 1 197 2 27 
2 -107 2 60 2 -184 1 -38 2 126 2 -40 2 38 2 -179 
1 117 2 180 2 -63 2 188 1 -45 2 51 2 183 2 192 
2 -443 1 57 2 -116 2 130 2 110 2 12 1 147 2 232 
2 243 2 -151 1 -254 2 -73 2 310 2 -409 2 62 1 -149 
2 158 2 198 2 -85 2 -38 1 -27 2 215 2 135 2 161 
1 -8 2 64 2 -219 2 121 2 -10 1 -440 2 -93 2 488 
2 -61 2 -631 1 713 3775 3458 100 MP stroke
2 -554 2 58 2 193 1 -265 2 600 2 -355 2 -21 2 -243 
1 70 2 -3 2 266 2 447 2 -409 1 39 2 -346 2 33 
2 105 1 136 2 -158 2 73 2 261 2 -231 1 -240 2 114 
2 -1 2 24 2 -237 1 -96 2 16 2 173 2 324 1 -252 
2 -369 2 172 2 -149 2 -57 1 -3 2 112 2 -45 2 -236 
2 82 1 -11 2 -88 2 65 2 -45 1 -38 2 -34 2 54 
2 -88 2 9 1 6 2 -7 2 50 2 -42 2 59 1 -75 
2 2 2 89 2 -7 1 -82 2 108 2 -17 2 -46 2 -16 
1 170 2 -106 2 144 2 -150 2 -4 1 116 2 104 2 -82 
2 -55 1 -45 2 221 2 -228 2 24 2 62 1 -62 2 -16 
2 91 2 -192 2 49 1 -39 2 399 2 -220 2 -10 1 -62 
2 110 2 -71 2 -145 2 172 1 -29 2 160 2 -175 2 248 
2 67 1 -174 2 -97 3598 4409 100 MP stroke
2 207 2 -5 1 76 2 -89 2 469 2 92 2 -417 1 90 
2 -178 2 203 2 251 1 -48 2 -163 2 87 2 -117 2 0 
1 297 2 -18 2 -311 2 43 2 399 1 311 2 123 2 -286 
2 -40 1 396 2 -132 2 169 2 -306 2 178 1 62 2 -33 
2 -77 2 -193 2 446 1 -572 2 154 2 211 2 -231 1 -122 
2 419 2 -100 2 -159 2 758 1 238 2 -270 2 -252 2 -522 
2 588 1 246 2 -15 2 -147 2 251 1 -301 2 45 2 569 
2 -226 2 -33 1 -602 2 -530 2 381 2 -369 2 -265 1 300 
2 -14 2 -288 2 693 1 -63 2 -886 2 165 2 101 2 14 
1 95 2 -120 2 35 2 -203 2 -180 1 -76 2 30 2 -62 
2 139 1 -142 2 -152 2 -2 2 135 2 -219 1 55 2 -52 
2 -71 2 3 2 -49 1 19 2 31 2 58 2 -120 1 -10 
2 22 2 105 2 72 3421 4416 100 MP stroke
2 -96 1 76 2 -47 2 101 2 -51 2 66 1 99 2 194 
2 -95 2 -265 1 166 2 -106 2 64 2 228 2 -155 1 96 
2 12 2 -71 2 142 2 -3 1 133 2 -284 2 409 2 -334 
1 -76 2 370 2 -1 2 44 2 -243 1 -67 2 429 2 -270 
2 149 2 -232 1 -49 2 31 2 -253 2 368 1 -217 2 114 
2 183 2 -186 2 364 1 -137 2 -118 2 -104 2 136 2 -122 
1 348 2 -58 2 153 2 150 1 -276 2 -151 2 -142 2 294 
2 -20 1 245 2 -377 2 190 2 179 2 37 1 -64 2 143 
2 -441 2 587 1 35 2 -328 2 -217 2 469 2 33 1 -110 
2 29 2 114 2 231 2 -114 1 -21 2 -503 2 388 2 -150 
1 -83 2 -19 2 228 2 245 2 -124 1 14 2 -163 2 -115 
2 55 2 -74 1 65 2 -39 2 -54 2 -237 1 -211 2 553 
2 -156 2 -350 2 20 3244 3816 100 MP stroke
1 -172 2 -43 2 -44 2 270 1 -318 2 58 2 -25 2 -82 
2 129 1 26 2 -359 2 74 2 -87 2 177 1 -246 2 -83 
2 31 2 88 1 -91 2 7 2 -45 2 -2 2 22 1 -19 
2 9 2 -74 2 92 2 -86 1 64 2 -62 2 36 2 16 
1 76 2 -136 2 44 2 -38 2 69 1 54 2 -67 2 184 
2 -85 2 13 1 131 2 93 2 -220 2 138 1 -93 2 41 
2 34 2 41 2 35 1 -82 2 -10 2 -65 2 113 2 76 
1 190 2 -124 2 238 2 -63 1 -83 2 -75 2 182 2 -139 
2 73 1 -26 2 61 2 125 2 184 2 -420 1 31 2 34 
2 67 2 113 1 148 2 -59 2 73 2 28 2 42 1 -287 
2 162 2 76 2 -148 2 -300 1 382 2 -9 2 -86 2 114 
1 575 2 -421 2 -204 2 -88 2 229 1 214 2 -347 2 -317 
2 436 2 -119 1 -246 3068 3993 100 MP stroke
2 542 2 96 2 -161 1 268 2 28 2 -387 2 312 2 -366 
1 145 2 44 2 -7 2 308 2 -88 1 500 2 356 2 35 
2 -632 1 251 2 -453 2 455 2 93 2 -143 1 -378 2 69 
2 21 2 45 2 667 1 -698 2 413 2 585 2 -275 1 -286 
2 -1245 2 466 2 -139 2 -433 1 578 2 -575 2 249 2 41 
2 -72 1 -63 2 721 2 -737 2 -116 1 262 2 -74 2 133 
2 -76 2 -182 1 -173 2 295 2 -285 2 18 2 -157 1 38 
2 -23 2 7 2 235 1 129 2 -193 2 5 2 -252 2 -58 
1 -154 2 152 2 -204 2 238 2 -38 1 -246 2 111 2 130 
2 -102 1 16 2 -75 2 46 2 91 2 -195 1 -15 2 107 
2 -33 2 14 2 150 1 -164 2 -17 2 -67 2 138 1 60 
2 323 2 -34 2 -277 2 115 1 -197 2 111 2 62 2 28 
1 -73 2 6 2 -24 2891 4327 100 MP stroke
2 259 2 -268 1 123 2 113 2 39 2 -120 2 351 1 166 
2 -384 2 -148 2 3 1 -82 2 417 2 8 2 10 2 268 
1 -228 2 41 2 -172 2 291 2 -46 1 27 2 280 2 -92 
2 -246 1 72 2 311 2 589 2 -21 2 -654 1 -425 2 -12 
2 113 2 224 2 349 1 44 2 -363 2 -34 2 189 1 -243 
2 74 2 414 2 -193 2 607 1 -155 2 200 2 -789 2 847 
2 -213 1 -321 2 235 2 -386 2 531 1 406 2 -68 2 -652 
2 373 2 -50 1 577 2 175 2 256 2 -1201 2 232 1 -596 
2 179 2 125 2 113 1 -187 2 443 2 -629 2 132 2 -267 
1 -157 2 317 2 -67 2 78 2 -588 1 11 2 -375 2 147 
2 252 1 -589 2 68 2 -240 2 380 2 -56 1 -80 2 -188 
2 -105 2 66 2 -13 1 14 2 -104 2 35 2 200 1 -185 
2 70 2 -56 2 22 2714 4509 100 MP stroke
2 58 1 -83 2 18 2 -84 2 167 2 -142 1 127 2 43 
2 -50 2 228 1 -186 2 96 2 -182 2 10 2 72 1 179 
2 205 2 -203 2 398 2 7 1 -348 2 -28 2 205 2 40 
1 -119 2 241 2 -138 2 -166 2 66 1 231 2 548 2 -610 
2 -36 2 487 1 -13 2 45 2 -314 2 -160 1 -96 2 299 
2 16 2 564 2 -306 1 -176 2 -280 2 60 2 157 2 -147 
1 -62 2 350 2 186 2 -238 1 -92 2 389 2 -320 2 -323 
2 -90 1 55 2 142 2 -32 2 -61 2 367 1 -313 2 617 
2 -125 2 -395 1 55 2 -8 2 -164 2 -94 2 29 1 112 
2 -92 2 58 2 -161 2 203 1 -5 2 -146 2 167 2 -147 
1 -180 2 472 2 -403 2 156 2 -446 1 291 2 182 2 -217 
2 -66 1 -118 2 178 2 -260 2 -7 2 60 1 -145 2 55 
2 2 2 141 2 73 2537 4179 100 MP stroke
1 -219 2 2 2 -165 2 262 1 -97 2 -148 2 -59 2 -12 
2 355 1 -66 2 -269 2 -20 2 0 2 40 1 234 2 -274 
2 153 2 153 1 -18 2 -288 2 0 2 0 2 0 1 8 
2 -8 2 0 2 0 2 9 1 -9 2 0 2 0 2 0 
1 6 2 -6 2 30 2 82 2 -33 1 -57 2 169 2 36 
2 -214 2 -13 1 3 2 59 2 203 2 -203 1 6 2 -32 
2 -10 2 -2 2 106 1 -49 2 -21 2 243 2 -174 2 -17 
1 14 2 -52 2 291 2 -74 1 -138 2 260 2 -139 2 -210 
2 311 1 -104 2 161 2 -78 2 34 2 -178 1 158 2 75 
2 51 2 -217 1 8 2 -232 2 239 2 171 2 -99 1 -210 
2 292 2 -78 2 76 2 -49 1 118 2 236 2 -263 2 -128 
1 -42 2 176 2 -91 2 7 2 -47 1 156 2 117 2 71 
2 -141 2 -265 1 73 2361 4243 100 MP stroke
2 984 2 -540 2 -303 1 -91 2 115 2 258 2 -121 2 -347 
1 220 2 68 2 10 2 204 2 210 1 -69 2 -599 2 545 
2 -391 1 -53 2 -28 2 221 2 -164 2 287 1 -649 2 307 
2 -76 2 84 2 -183 1 13 2 -79 2 67 2 -157 1 -82 
2 228 2 -51 2 -128 2 254 1 -255 2 89 2 143 2 -111 
2 34 1 156 2 -176 2 -97 2 139 1 -100 2 -80 2 156 
2 -207 2 119 1 -146 2 143 2 -31 2 -57 2 19 1 146 
2 -212 2 11 2 -4 1 -15 2 10 2 17 2 133 2 -144 
1 -4 2 74 2 -52 2 -34 1 93 2 -93 2 0 2 0 
2 0 1 0 2 0 2 0 2 0 2 0 1 0 2 0 
2 0 2 0 1 0 2 0 2 0 2 0 2 0 1 0 
2 0 2 0 2 6 2 -3 1 2 2 104 2 -80 2 7 
1 -23 2 117 2 -28 2184 4513 100 MP stroke
2 72 2 -26 1 -81 2 98 2 -52 2 -18 2 96 1 0 
2 -17 2 -174 2 64 1 -64 2 0 2 37 2 76 2 -32 
1 89 2 9 2 -9 2 -29 2 195 1 -200 2 36 2 -2 
2 169 1 14 2 28 2 -42 2 32 2 52 1 -62 2 11 
2 19 2 70 2 -44 1 133 2 -10 2 38 2 -163 1 211 
2 -24 2 -72 2 41 2 -21 1 -21 2 196 2 -103 2 238 
2 -14 1 14 2 18 2 -131 2 -139 1 -188 2 71 2 -20 
2 242 2 -36 1 4 2 -42 2 38 2 42 2 46 1 -126 
2 -158 2 200 2 -173 1 117 2 -272 2 63 2 300 2 -11 
1 0 2 -219 2 57 2 187 2 -25 1 -28 2 -29 2 -28 
2 -28 1 -17 2 88 2 11 2 5 2 -118 1 -101 2 12 
2 74 2 -52 2 -54 1 11 2 -14 2 -14 2 -14 1 -28 
2 184 2 -417 2 26 2007 4441 100 MP stroke
2 -12 1 113 2 21 2 38 2 -263 2 -71 1 196 2 -64 
2 -34 2 24 1 -83 2 26 2 -65 2 0 2 30 1 120 
2 -34 2 3 2 187 2 -128 1 -155 2 117 2 37 2 -155 
1 12 2 9 2 -43 2 0 2 0 1 16 2 159 2 -118 
2 -28 2 14 1 39 2 16 2 -17 2 4 1 -24 2 96 
2 -54 2 -46 2 0 1 3 2 143 2 -131 2 47 2 36 
1 105 2 -238 2 357 2 -284 1 201 2 151 2 -225 2 114 
2 -26 1 -56 2 99 2 -78 2 -84 1 172 2 -181 2 59 
2 196 2 -174 1 -85 2 385 2 -261 2 423 2 225 1 -548 
2 -245 2 407 2 14 1 7 2 200 2 -384 2 135 2 84 
1 14 2 10 2 -24 2 43 2 -324 1 74 2 292 2 14 
2 18 1 10 2 35 2 -7 2 14 2 0 1 14 2 29 
2 0 2 14 2 -200 1830 3969 100 MP stroke
1 214 2 14 2 193 2 -179 1 14 2 -84 2 112 2 14 
2 -74 1 67 2 -331 2 395 2 -96 2 134 1 49 2 -45 
2 -169 2 151 1 18 2 113 2 32 2 -99 2 137 1 -249 
2 305 2 29 2 14 2 32 1 440 2 -346 2 458 2 -21 
1 -624 2 314 2 -127 2 198 2 42 1 49 2 -3 2 -46 
2 75 2 -160 1 219 2 -490 2 666 2 -14 1 -71 2 78 
2 179 2 -581 2 -63 1 490 2 -199 2 124 2 508 2 -458 
1 218 2 4 2 -283 2 -129 1 -406 2 501 2 -107 2 -560 
2 262 1 404 2 -310 2 47 2 -53 2 -11 1 -307 2 -94 
2 -338 2 469 1 -97 2 -532 2 -1 2 -146 2 -140 1 182 
2 98 2 -214 2 -169 2 230 1 -141 2 -79 2 -70 2 -95 
1 -14 2 -21 2 106 2 42 2 -127 1 28 2 0 2 -56 
2 42 2 -42 1 56 1654 4474 100 MP stroke
2 14 2 -42 2 71 1 -36 2 64 2 -99 2 141 2 28 
1 172 2 -99 2 -31 2 75 2 -22 1 169 2 -151 2 28 
2 21 1 -117 2 152 2 141 2 -98 2 14 1 229 2 -187 
2 -56 2 7 2 232 1 -265 2 448 2 -559 2 334 1 211 
2 106 2 341 2 98 2 -512 1 -216 2 306 2 338 2 -564 
2 19 1 239 2 235 2 -108 2 0 1 28 2 271 2 -172 
2 42 2 0 1 -394 2 563 2 56 2 141 1 -183 2 14 
2 437 2 -413 2 371 1 70 2 -380 2 672 2 -719 2 -136 
1 638 2 84 2 217 2 -446 1 183 2 262 2 948 2 -1323 
2 -155 1 -348 2 958 2 -282 2 -159 2 -556 1 136 2 -59 
2 -239 2 -202 1 -5 2 214 2 -796 2 -35 2 119 1 -70 
2 -70 2 -71 2 -197 2 115 1 -326 2 253 2 -110 2 150 
1 -219 2 75 2 142 1477 4309 100 MP stroke
2 -194 2 101 1 -134 2 -33 2 66 2 -97 2 159 1 -119 
2 103 2 6 2 -164 1 62 2 110 2 78 2 -52 2 -86 
1 -19 2 154 2 155 2 321 2 -106 1 168 2 137 2 -262 
2 -51 1 -32 2 -206 2 42 2 -234 2 212 1 10 2 178 
2 -115 2 258 2 -313 1 361 2 132 2 -38 2 244 1 -396 
2 80 2 297 2 -286 2 -267 1 763 2 -860 2 841 2 142 
2 -73 1 56 2 -137 2 161 2 -604 1 129 2 730 2 468 
2 -1237 2 -257 1 -7 2 -143 2 934 2 421 2 -403 1 11 
2 309 2 -233 2 -373 1 -186 2 -269 2 410 2 879 2 -542 
1 112 2 509 2 142 2 -132 2 -402 1 -24 2 -341 2 -293 
2 326 1 -457 2 -1 2 137 2 533 2 -298 1 -181 2 -42 
2 -113 2 -200 2 350 1 4 2 -493 2 51 2 279 1 -178 
2 -3 2 20 2 -149 1300 3993 100 MP stroke
2 -20 1 -27 2 -266 2 161 2 -50 2 44 1 142 2 -183 
2 -37 2 -115 1 -190 2 -10 2 -10 2 -4 2 -10 1 -4 
2 335 2 -293 2 431 2 -361 1 15 2 14 2 14 2 0 
1 28 2 193 2 -38 2 -99 2 3 1 25 2 43 2 14 
2 -28 2 24 1 4 2 28 2 3 2 25 1 0 2 0 
2 202 2 -140 2 82 1 274 2 0 2 24 2 -7 1 -205 
2 307 2 -586 2 390 2 -259 1 -44 2 3 2 18 2 -32 
2 346 1 292 2 8 2 -119 2 -12 1 -11 2 -477 2 610 
2 -524 2 286 1 -205 2 382 2 -409 2 31 2 616 1 -14 
2 169 2 -135 2 42 1 73 2 112 2 -500 2 126 2 145 
1 -295 2 -127 2 -19 2 -128 2 151 1 201 2 -135 2 -249 
2 334 1 -193 2 231 2 -214 2 110 2 -146 1 -150 2 188 
2 247 2 -83 2 -286 1123 3896 100 MP stroke
1 -14 2 -14 2 -28 2 -3 1 -40 2 61 2 -75 2 0 
2 -74 1 349 2 -335 2 74 2 14 2 20 1 365 2 -328 
2 42 2 -203 1 -58 2 440 2 -454 2 102 2 163 1 -370 
2 -172 2 356 2 -114 2 -53 1 -71 2 -100 2 -66 2 107 
1 -38 2 -35 2 -76 2 -40 2 131 1 -5 2 -44 2 -56 
2 24 2 76 1 105 2 -186 2 238 2 -83 1 -205 2 76 
2 -122 2 0 2 92 1 4 2 62 2 -14 2 -84 2 126 
1 154 2 -224 2 58 2 91 1 112 2 -85 2 -99 2 -169 
2 19 1 -43 2 95 2 187 2 71 2 42 1 155 2 -240 
2 137 2 61 1 28 2 108 2 -193 2 169 2 -56 1 -34 
2 127 2 -275 2 31 2 692 1 -547 2 283 2 -5 2 165 
1 -296 2 -211 2 126 2 -218 2 -75 1 5 2 511 2 91 
2 -219 2 141 1 -61 947 3820 100 MP stroke
2 -156 2 -26 2 374 1 76 2 -171 2 34 2 359 2 166 
1 -247 2 205 2 -141 2 -24 2 13 1 -187 2 -37 2 168 
2 1034 1 -1171 2 6 2 -136 2 402 2 -159 1 21 2 -413 
2 202 2 -105 1 -64 899 3797 28 MP stroke
gr

c8

end %%Color Dict

eplot
%%EndObject

epage
end

showpage

%%Trailer
%%EOF
