\relax 
\@writefile{toc}{\contentsline {section}{\numberline {1}Objective}{1}}
\@writefile{toc}{\contentsline {section}{\numberline {2}Setup}{1}}
\@writefile{toc}{\contentsline {section}{\numberline {3}Questions}{1}}
\@writefile{toc}{\contentsline {paragraph}{Pre-requisite:}{1}}
\@writefile{toc}{\contentsline {paragraph}{Method 1: cheat}{2}}
\@writefile{toc}{\contentsline {paragraph}{Method 2: manual}{2}}
