%!PS-Adobe-2.0 EPSF-1.2
%%Creator: MATLAB, The MathWorks, Inc. Version 8.1.0.604 (R2013a). Operating System: Linux 3.13.0-37-generic #64-Ubuntu SMP Mon Sep 22 21:28:38 UTC 2014 x86_64.
%%Title: ./finDat.eps
%%CreationDate: 10/27/2014  19:44:23
%%DocumentNeededFonts: Helvetica
%%DocumentProcessColors: Cyan Magenta Yellow Black
%%Extensions: CMYK
%%Pages: 1
%%BoundingBox:    78   215   552   589
%%EndComments

%%BeginProlog
% MathWorks dictionary
/MathWorks 160 dict begin
% definition operators
/bdef {bind def} bind def
/ldef {load def} bind def
/xdef {exch def} bdef
/xstore {exch store} bdef
% operator abbreviations
/c  /clip ldef
/cc /concat ldef
/cp /closepath ldef
/gr /grestore ldef
/gs /gsave ldef
/mt /moveto ldef
/np /newpath ldef
/cm /currentmatrix ldef
/sm /setmatrix ldef
/rm /rmoveto ldef
/rl /rlineto ldef
/s {show newpath} bdef
/sc {setcmykcolor} bdef
/sr /setrgbcolor ldef
/sg /setgray ldef
/w /setlinewidth ldef
/j /setlinejoin ldef
/cap /setlinecap ldef
/rc {rectclip} bdef
/rf {rectfill} bdef
% page state control
/pgsv () def
/bpage {/pgsv save def} bdef
/epage {pgsv restore} bdef
/bplot /gsave ldef
/eplot {stroke grestore} bdef
% orientation switch
/portraitMode 0 def /landscapeMode 1 def /rotateMode 2 def
% coordinate system mappings
/dpi2point 0 def
% font control
/FontSize 0 def
/FMS {/FontSize xstore findfont [FontSize 0 0 FontSize neg 0 0]
  makefont setfont} bdef
/reencode {exch dup where {pop load} {pop StandardEncoding} ifelse
  exch dup 3 1 roll findfont dup length dict begin
  { 1 index /FID ne {def}{pop pop} ifelse } forall
  /Encoding exch def currentdict end definefont pop} bdef
/isroman {findfont /CharStrings get /Agrave known} bdef
/FMSR {3 1 roll 1 index dup isroman {reencode} {pop pop} ifelse
  exch FMS} bdef
/csm {1 dpi2point div -1 dpi2point div scale neg translate
 dup landscapeMode eq {pop -90 rotate}
  {rotateMode eq {90 rotate} if} ifelse} bdef
% line types: solid, dotted, dashed, dotdash
/SO { [] 0 setdash } bdef
/DO { [.5 dpi2point mul 4 dpi2point mul] 0 setdash } bdef
/DA { [6 dpi2point mul] 0 setdash } bdef
/DD { [.5 dpi2point mul 4 dpi2point mul 6 dpi2point mul 4
  dpi2point mul] 0 setdash } bdef
% macros for lines and objects
/L {lineto stroke} bdef
/MP {3 1 roll moveto 1 sub {rlineto} repeat} bdef
/AP {{rlineto} repeat} bdef
/PDlw -1 def
/W {/PDlw currentlinewidth def setlinewidth} def
/PP {closepath eofill} bdef
/DP {closepath stroke} bdef
/MR {4 -2 roll moveto dup  0 exch rlineto exch 0 rlineto
  neg 0 exch rlineto closepath} bdef
/FR {MR stroke} bdef
/PR {MR fill} bdef
/L1i {{currentfile picstr readhexstring pop} image} bdef
/tMatrix matrix def
/MakeOval {newpath tMatrix currentmatrix pop translate scale
0 0 1 0 360 arc tMatrix setmatrix} bdef
/FO {MakeOval stroke} bdef
/PO {MakeOval fill} bdef
/PD {currentlinewidth 2 div 0 360 arc fill
   PDlw -1 eq not {PDlw w /PDlw -1 def} if} def
/FA {newpath tMatrix currentmatrix pop translate scale
  0 0 1 5 -2 roll arc tMatrix setmatrix stroke} bdef
/PA {newpath tMatrix currentmatrix pop	translate 0 0 moveto scale
  0 0 1 5 -2 roll arc closepath tMatrix setmatrix fill} bdef
/FAn {newpath tMatrix currentmatrix pop translate scale
  0 0 1 5 -2 roll arcn tMatrix setmatrix stroke} bdef
/PAn {newpath tMatrix currentmatrix pop translate 0 0 moveto scale
  0 0 1 5 -2 roll arcn closepath tMatrix setmatrix fill} bdef
/vradius 0 def /hradius 0 def /lry 0 def
/lrx 0 def /uly 0 def /ulx 0 def /rad 0 def
/MRR {/vradius xdef /hradius xdef /lry xdef /lrx xdef /uly xdef
  /ulx xdef newpath tMatrix currentmatrix pop ulx hradius add uly
  vradius add translate hradius vradius scale 0 0 1 180 270 arc 
  tMatrix setmatrix lrx hradius sub uly vradius add translate
  hradius vradius scale 0 0 1 270 360 arc tMatrix setmatrix
  lrx hradius sub lry vradius sub translate hradius vradius scale
  0 0 1 0 90 arc tMatrix setmatrix ulx hradius add lry vradius sub
  translate hradius vradius scale 0 0 1 90 180 arc tMatrix setmatrix
  closepath} bdef
/FRR {MRR stroke } bdef
/PRR {MRR fill } bdef
/MlrRR {/lry xdef /lrx xdef /uly xdef /ulx xdef /rad lry uly sub 2 div def
  newpath tMatrix currentmatrix pop ulx rad add uly rad add translate
  rad rad scale 0 0 1 90 270 arc tMatrix setmatrix lrx rad sub lry rad
  sub translate rad rad scale 0 0 1 270 90 arc tMatrix setmatrix
  closepath} bdef
/FlrRR {MlrRR stroke } bdef
/PlrRR {MlrRR fill } bdef
/MtbRR {/lry xdef /lrx xdef /uly xdef /ulx xdef /rad lrx ulx sub 2 div def
  newpath tMatrix currentmatrix pop ulx rad add uly rad add translate
  rad rad scale 0 0 1 180 360 arc tMatrix setmatrix lrx rad sub lry rad
  sub translate rad rad scale 0 0 1 0 180 arc tMatrix setmatrix
  closepath} bdef
/FtbRR {MtbRR stroke } bdef
/PtbRR {MtbRR fill } bdef
/stri 6 array def /dtri 6 array def
/smat 6 array def /dmat 6 array def
/tmat1 6 array def /tmat2 6 array def /dif 3 array def
/asub {/ind2 exch def /ind1 exch def dup dup
  ind1 get exch ind2 get sub exch } bdef
/tri_to_matrix {
  2 0 asub 3 1 asub 4 0 asub 5 1 asub
  dup 0 get exch 1 get 7 -1 roll astore } bdef
/compute_transform {
  dmat dtri tri_to_matrix tmat1 invertmatrix 
  smat stri tri_to_matrix tmat2 concatmatrix } bdef
/ds {stri astore pop} bdef
/dt {dtri astore pop} bdef
/db {2 copy /cols xdef /rows xdef mul dup 3 mul string
  currentfile exch readhexstring pop
  dup 0 3 index getinterval /rbmap xdef
  dup 2 index dup getinterval /gbmap xdef
  1 index dup 2 mul exch getinterval /bbmap xdef pop pop}bdef
/it {gs np dtri aload pop moveto lineto lineto cp c
  cols rows 8 compute_transform 
  rbmap gbmap bbmap true 3 colorimage gr}bdef
/il {newpath moveto lineto stroke}bdef
currentdict end def
%%EndProlog

%%BeginSetup
MathWorks begin

0 cap

end
%%EndSetup

%%Page: 1 1
%%BeginPageSetup
%%PageBoundingBox:    78   215   552   589
MathWorks begin
bpage
%%EndPageSetup

%%BeginObject: obj1
bplot

/dpi2point 12 def
portraitMode 0216 7344 csm

  728   274  5683  4487 MR c np
85 dict begin %Colortable dictionary
/c0 { 0.000000 0.000000 0.000000 sr} bdef
/c1 { 1.000000 1.000000 1.000000 sr} bdef
/c2 { 0.900000 0.000000 0.000000 sr} bdef
/c3 { 0.000000 0.820000 0.000000 sr} bdef
/c4 { 0.000000 0.000000 0.800000 sr} bdef
/c5 { 0.910000 0.820000 0.320000 sr} bdef
/c6 { 1.000000 0.260000 0.820000 sr} bdef
/c7 { 0.000000 0.820000 0.820000 sr} bdef
c0
1 j
1 sg
   0    0 6913 5186 PR
6 w
0 4226 5356 0 0 -4226 899 4615 4 MP
PP
-5356 0 0 4226 5356 0 0 -4226 899 4615 5 MP stroke
4 w
DO
0 sg
 899 4615 mt  899  389 L
 899  389 mt  899  389 L
1432 4615 mt 1432  389 L
1432  389 mt 1432  389 L
1965 4615 mt 1965  389 L
1965  389 mt 1965  389 L
2498 4615 mt 2498  389 L
2498  389 mt 2498  389 L
3031 4615 mt 3031  389 L
3031  389 mt 3031  389 L
3564 4615 mt 3564  389 L
3564  389 mt 3564  389 L
4097 4615 mt 4097  389 L
4097  389 mt 4097  389 L
4630 4615 mt 4630  389 L
4630  389 mt 4630  389 L
5163 4615 mt 5163  389 L
5163  389 mt 5163  389 L
5696 4615 mt 5696  389 L
5696  389 mt 5696  389 L
6229 4615 mt 6229  389 L
6229  389 mt 6229  389 L
 899 4615 mt 6255 4615 L
6255 4615 mt 6255 4615 L
 899 4086 mt 6255 4086 L
6255 4086 mt 6255 4086 L
 899 3558 mt 6255 3558 L
6255 3558 mt 6255 3558 L
 899 3030 mt 6255 3030 L
6255 3030 mt 6255 3030 L
 899 2502 mt 6255 2502 L
6255 2502 mt 6255 2502 L
 899 1973 mt 6255 1973 L
6255 1973 mt 6255 1973 L
 899 1445 mt 6255 1445 L
6255 1445 mt 6255 1445 L
 899  917 mt 6255  917 L
6255  917 mt 6255  917 L
 899  389 mt 6255  389 L
6255  389 mt 6255  389 L
SO
6 w
 899 4615 mt 6255 4615 L
 899  389 mt 6255  389 L
 899 4615 mt  899  389 L
6255 4615 mt 6255  389 L
 899 4615 mt 6255 4615 L
 899 4615 mt  899  389 L
 899 4615 mt  899 4561 L
 899  389 mt  899  442 L
%%IncludeResource: font Helvetica
/Helvetica /ISOLatin1Encoding 120 FMSR

 866 4760 mt 
(0) s
1432 4615 mt 1432 4561 L
1432  389 mt 1432  442 L
1332 4760 mt 
(500) s
1965 4615 mt 1965 4561 L
1965  389 mt 1965  442 L
1832 4760 mt 
(1000) s
2498 4615 mt 2498 4561 L
2498  389 mt 2498  442 L
2365 4760 mt 
(1500) s
3031 4615 mt 3031 4561 L
3031  389 mt 3031  442 L
2898 4760 mt 
(2000) s
3564 4615 mt 3564 4561 L
3564  389 mt 3564  442 L
3431 4760 mt 
(2500) s
4097 4615 mt 4097 4561 L
4097  389 mt 4097  442 L
3964 4760 mt 
(3000) s
4630 4615 mt 4630 4561 L
4630  389 mt 4630  442 L
4497 4760 mt 
(3500) s
5163 4615 mt 5163 4561 L
5163  389 mt 5163  442 L
5030 4760 mt 
(4000) s
5696 4615 mt 5696 4561 L
5696  389 mt 5696  442 L
5563 4760 mt 
(4500) s
6229 4615 mt 6229 4561 L
6229  389 mt 6229  442 L
6096 4760 mt 
(5000) s
 899 4615 mt  952 4615 L
6255 4615 mt 6201 4615 L
 728 4659 mt 
(-4) s
 899 4086 mt  952 4086 L
6255 4086 mt 6201 4086 L
 728 4130 mt 
(-3) s
 899 3558 mt  952 3558 L
6255 3558 mt 6201 3558 L
 728 3602 mt 
(-2) s
 899 3030 mt  952 3030 L
6255 3030 mt 6201 3030 L
 728 3074 mt 
(-1) s
 899 2502 mt  952 2502 L
6255 2502 mt 6201 2502 L
 798 2546 mt 
(0) s
 899 1973 mt  952 1973 L
6255 1973 mt 6201 1973 L
 798 2017 mt 
(1) s
 899 1445 mt  952 1445 L
6255 1445 mt 6201 1445 L
 798 1489 mt 
(2) s
 899  917 mt  952  917 L
6255  917 mt 6201  917 L
 798  961 mt 
(3) s
 899  389 mt  952  389 L
6255  389 mt 6201  389 L
 798  433 mt 
(4) s
 899 4615 mt 6255 4615 L
 899  389 mt 6255  389 L
 899 4615 mt  899  389 L
6255 4615 mt 6255  389 L
gs 899 389 5357 4227 MR c np
/c8 { 0.000000 0.000000 1.000000 sr} bdef
c8
2 -13 1 5 1 -4 1 12 1 -11 1 14 1 -6 1 56 
1 11 1 -7 1 7 1 37 1 -10 1 -27 1 -9 2 24 
1 3 1 -20 1 -16 1 3 1 -9 1 14 1 -2 1 26 
1 9 1 -4 1 -28 1 8 1 1 1 2 2 -1 1 24 
1 18 1 -12 1 19 1 35 1 54 1 -13 1 3 1 5 
1 -10 1 -6 1 18 1 27 1 -16 2 -30 1 -2 1 4 
1 -5 1 16 1 41 1 -34 1 19 1 -4 1 2 1 -6 
1 -12 1 5 1 32 1 -5 2 5 1 34 1 50 1 -46 
1 -24 1 -4 1 10 1 12 1 6 1 23 1 -30 1 -20 
1 59 1 -25 1 -4 2 45 1 6 1 -7 1 -10 1 21 
1 11 1 -16 1 44 1 3 1 -44 1 -15 1 24 1 -1 
1 -7 1 12 2 32 1 -80 1 -24 1 8 1 0 1 0 
1 -12 1 -16 1 -48 6149 2514 100 MP stroke
1 -38 1 -34 1 -14 1 -6 1 5 1 7 2 -9 1 2 
1 -47 1 -102 1 20 1 10 1 0 1 5 1 -12 1 5 
1 -10 1 -6 1 -16 1 -4 1 38 1 -5 2 -4 1 11 
1 1 1 4 1 -2 1 47 1 19 1 21 1 18 1 -16 
1 10 1 20 1 -53 1 -4 1 40 2 -9 1 -8 1 9 
1 -8 1 -5 1 -11 1 9 1 2 1 7 1 7 1 -51 
1 43 1 -4 1 -1 1 -14 2 -18 1 -2 1 -1 1 -12 
1 -1 1 -48 1 -25 1 -18 1 28 1 0 1 28 1 11 
1 1 1 -25 1 0 2 21 1 -6 1 -24 1 -1 1 12 
1 18 1 -1 1 -2 1 6 1 3 1 -53 1 -8 1 3 
1 1 1 -21 2 -13 1 18 1 -14 1 16 1 12 1 -33 
1 16 1 4 1 5 1 9 1 -6 1 -1 1 3 1 8 
1 41 2 50 1 12 6043 2654 100 MP stroke
1 5 1 -28 1 16 1 -16 1 6 1 33 1 0 1 -10 
1 4 1 29 1 24 1 23 1 -1 2 -11 1 -15 1 -34 
1 9 1 46 1 -15 1 -10 1 2 1 28 1 2 1 -3 
1 4 1 15 1 6 1 15 2 18 1 -8 1 48 1 -16 
1 -4 1 -8 1 7 1 35 1 -2 1 -4 1 0 1 -8 
1 16 1 0 1 -37 1 2 2 -21 1 0 1 11 1 -10 
1 -17 1 -16 1 3 1 -12 1 -25 1 39 1 -6 1 38 
1 -40 1 -30 1 2 2 14 1 0 1 -18 1 -9 1 -9 
1 25 1 4 1 46 1 -47 1 10 1 -28 1 5 1 10 
1 4 1 13 2 7 1 -33 1 -20 1 4 1 -5 1 32 
1 -18 1 -25 1 16 1 47 1 -2 1 -12 1 -8 1 18 
1 5 2 -3 1 -7 1 20 1 -69 1 11 1 -23 1 17 
1 -3 1 -3 1 8 5938 2601 100 MP stroke
1 1 1 -8 1 -5 1 -15 1 8 2 -119 1 -43 1 -8 
1 37 1 0 1 5 1 13 1 19 1 -5 1 16 1 -21 
1 -9 1 -13 1 -18 1 9 2 18 1 5 1 36 1 -34 
1 -28 1 4 1 -31 1 -36 1 4 1 -1 1 -6 1 11 
1 -28 1 -12 1 31 2 2 1 13 1 -9 1 8 1 -1 
1 -23 1 -24 1 -41 1 -4 1 25 1 -10 1 15 1 -16 
1 14 1 -21 1 -17 2 -50 1 -1 1 2 1 17 1 13 
1 -6 1 -4 1 13 1 -29 1 -8 1 19 1 27 1 10 
1 -12 1 10 2 23 1 8 1 -15 1 11 1 -2 1 10 
1 -38 1 18 1 -12 1 19 1 5 1 -4 1 9 1 55 
1 34 2 24 1 6 1 -9 1 -12 1 -4 1 13 1 38 
1 -94 1 87 1 -57 1 15 1 3 1 -8 1 11 1 -15 
2 7 1 -121 1 -21 5832 2928 100 MP stroke
1 46 1 21 1 -27 1 18 1 3 1 -56 1 4 1 6 
1 -43 1 -33 1 7 1 17 2 19 1 51 1 -2 1 -3 
1 0 1 11 1 -4 1 -7 1 15 1 7 1 -27 1 0 
1 -2 1 -10 1 8 2 12 1 -15 1 51 1 23 1 21 
1 -34 1 -4 1 -4 1 -9 1 5 1 9 1 18 1 -35 
1 -2 1 -14 2 7 1 0 1 12 1 5 1 6 1 21 
1 76 1 3 1 13 1 20 1 -6 1 16 1 14 1 -6 
1 -38 2 -12 1 -19 1 3 1 -14 1 -29 1 -72 1 10 
1 -8 1 11 1 -11 1 -64 1 -2 1 -2 1 9 1 -30 
1 -16 2 7 1 -18 1 -23 1 23 1 -46 1 -8 1 18 
1 10 1 -1 1 13 1 1 1 5 1 -1 1 -2 1 49 
2 -57 1 -16 1 -13 1 16 1 7 1 -11 1 5 1 9 
1 -31 1 -3 1 19 5727 3038 100 MP stroke
1 -4 1 7 1 0 1 -14 2 4 1 1 1 -18 1 -6 
1 1 1 9 1 4 1 13 1 -23 1 7 1 -4 1 7 
1 -10 1 16 1 22 2 -7 1 -1 1 8 1 15 1 0 
1 16 1 107 1 16 1 -27 1 -18 1 54 1 -7 1 10 
1 14 1 -16 2 16 1 -22 1 -34 1 24 1 13 1 4 
1 1 1 -21 1 4 1 14 1 -65 1 22 1 9 1 -19 
1 30 2 -10 1 9 1 -11 1 18 1 6 1 9 1 24 
1 19 1 29 1 7 1 9 1 3 1 -10 1 -1 1 3 
2 7 1 -12 1 8 1 -41 1 -2 1 1 1 -30 1 -8 
1 -1 1 -17 1 7 1 -24 1 -25 1 -15 1 9 1 -1 
2 15 1 5 1 17 1 -24 1 51 1 -8 1 40 1 13 
1 5 1 -5 1 -3 1 -20 1 25 1 -19 1 41 2 43 
1 -28 1 -1 1 12 5621 2767 100 MP stroke
1 7 1 -11 1 -42 1 -20 1 -34 1 10 1 48 1 11 
1 -6 1 10 1 -9 2 2 1 -9 1 83 1 3 1 22 
1 -14 1 2 1 -15 1 78 1 -10 1 -42 1 -72 1 18 
1 -53 1 -42 2 10 1 -1 1 -9 1 7 1 -16 1 1 
1 56 1 -20 1 -47 1 -7 1 16 1 24 1 15 1 -14 
1 -9 2 -16 1 -31 1 -14 1 2 1 -2 1 -2 1 -24 
1 11 1 13 1 -6 1 26 1 58 1 20 1 -24 1 14 
2 23 1 -36 1 -5 1 -21 1 -56 1 31 1 -19 1 43 
1 21 1 -13 1 20 1 7 1 -2 1 8 1 42 2 75 
1 -14 1 -6 1 17 1 -1 1 -8 1 -1 1 3 1 -26 
1 26 1 18 1 -14 1 3 1 2 1 1 2 -2 1 -10 
1 61 1 45 1 -2 1 -9 1 7 1 -16 1 -7 1 -24 
1 8 1 -2 1 -8 5516 2662 100 MP stroke
1 7 1 14 1 -3 2 -20 1 -16 1 6 1 -9 1 10 
1 11 1 6 1 -9 1 -5 1 0 1 -10 1 -16 1 -20 
1 14 1 -17 2 -12 1 74 1 12 1 -15 1 -13 1 25 
1 8 1 -30 1 6 1 -2 1 10 1 -18 1 -9 1 9 
1 -78 2 31 1 -8 1 -8 1 7 1 16 1 33 1 -10 
1 8 1 70 1 -5 1 8 1 -22 1 -2 1 -4 1 53 
2 -9 1 -20 1 69 1 10 1 3 1 67 1 18 1 -10 
1 -4 1 7 1 -3 1 51 1 12 1 9 1 4 2 -27 
1 85 1 -25 1 1 1 -42 1 11 1 -10 1 -8 1 -10 
1 1 1 -7 1 -4 1 6 1 -2 1 15 2 27 1 0 
1 19 1 30 1 15 1 -10 1 0 1 3 1 -4 1 -44 
1 20 1 3 1 13 1 -10 1 -23 2 22 1 -4 1 7 
1 22 1 -6 1 -18 5410 2335 100 MP stroke
1 -10 1 -10 1 3 1 4 1 14 1 -14 1 8 1 -28 
1 -2 1 -7 2 16 1 -1 1 -8 1 24 1 -22 1 3 
1 -3 1 67 1 24 1 -2 1 7 1 -4 1 -7 1 4 
1 2 2 -13 1 2 1 24 1 13 1 8 1 13 1 -9 
1 2 1 1 1 -7 1 -44 1 -4 1 -14 1 11 1 -18 
2 2 1 -15 1 13 1 43 1 -4 1 -12 1 2 1 -3 
1 5 1 -4 1 -22 1 26 1 -1 1 -4 1 -10 2 -14 
1 6 1 -23 1 12 1 0 1 2 1 29 1 -11 1 17 
1 -13 1 -1 1 37 1 17 1 -2 1 1 2 2 1 28 
1 2 1 10 1 -3 1 64 1 -9 1 28 1 3 1 4 
1 11 1 -2 1 5 1 -4 1 80 2 12 1 -8 1 -24 
1 27 1 -6 1 -4 1 -1 1 -2 1 -18 1 -6 1 -34 
1 22 1 10 1 -11 5305 2063 100 MP stroke
1 14 2 -13 1 -15 1 -3 1 -3 1 18 1 -27 1 -13 
1 -6 1 19 1 6 1 -2 1 19 1 15 1 111 1 -2 
2 -15 1 5 1 -1 1 12 1 2 1 -14 1 6 1 20 
1 -7 1 16 1 -28 1 -15 1 8 1 12 1 -5 1 -13 
2 6 1 11 1 -4 1 0 1 23 1 -7 1 -90 1 -8 
1 0 1 18 1 3 1 -36 1 -6 1 -17 1 -1 2 19 
1 -10 1 17 1 -13 1 -9 1 27 1 4 1 -11 1 -2 
1 -11 1 8 1 21 1 -12 1 58 1 11 2 35 1 3 
1 4 1 -53 1 1 1 -15 1 -10 1 0 1 7 1 12 
1 0 1 15 1 13 1 -12 1 6 2 -9 1 10 1 4 
1 42 1 -61 1 -2 1 -11 1 66 1 4 1 8 1 6 
1 -15 1 -8 1 35 1 -16 2 1 1 27 1 -7 1 -2 
1 -8 1 6 1 -15 5199 1912 100 MP stroke
1 -4 1 -21 1 19 1 54 1 -13 1 -8 1 39 1 41 
2 -21 1 3 1 10 1 -5 1 -16 1 -13 1 -10 1 -2 
1 13 1 9 1 -8 1 44 1 -14 1 16 1 -11 2 10 
1 18 1 1 1 -20 1 3 1 -6 1 -33 1 -9 1 -14 
1 34 1 5 1 6 1 -15 1 4 1 -34 1 0 2 -29 
1 -17 1 30 1 6 1 -7 1 15 1 -8 1 -9 1 12 
1 -14 1 -49 1 23 1 -26 1 -81 1 -3 2 34 1 3 
1 -11 1 7 1 -40 1 -37 1 7 1 -55 1 5 1 13 
1 -23 1 19 1 0 1 9 1 -14 2 32 1 39 1 10 
1 1 1 22 1 16 1 -11 1 -5 1 -13 1 33 1 22 
1 -11 1 -14 1 -19 1 15 2 5 1 -11 1 -41 1 24 
1 88 1 17 1 -21 1 8 1 -7 1 -7 1 8 1 17 
1 -35 1 1 1 10 5094 1927 100 MP stroke
2 -48 1 1 1 -1 1 1 1 20 1 -21 1 -6 1 -97 
1 10 1 -11 1 0 1 -5 1 -4 1 32 1 9 2 2 
1 56 1 11 1 -27 1 40 1 -40 1 -11 1 -21 1 8 
1 -7 1 20 1 -33 1 22 1 31 1 -32 2 4 1 -20 
1 -4 1 14 1 -18 1 -11 1 15 1 -49 1 6 1 4 
1 0 1 27 1 10 1 0 1 -19 2 -10 1 63 1 -1 
1 17 1 -5 1 -1 1 -10 1 23 1 2 1 -24 1 133 
1 -57 1 16 1 -7 1 -12 1 3 2 10 1 -8 1 8 
1 -2 1 -5 1 -6 1 5 1 -46 1 0 1 12 1 -13 
1 25 1 4 1 31 1 -25 2 21 1 -12 1 -8 1 -13 
1 -7 1 -12 1 0 1 4 1 -3 1 6 1 6 1 -10 
1 24 1 -32 1 -25 2 -16 1 3 1 -5 1 60 1 -8 
1 -20 1 4 1 -18 4988 2010 100 MP stroke
1 69 1 3 1 -2 1 -4 1 4 1 1 1 8 2 -15 
1 -8 1 -2 1 -12 1 9 1 5 1 25 1 26 1 -13 
1 40 1 -25 1 -6 1 -18 1 19 1 -17 2 20 1 40 
1 13 1 11 1 27 1 0 1 2 1 -5 1 13 1 50 
1 78 1 -22 1 0 1 -19 1 -2 2 -1 1 6 1 -16 
1 13 1 -10 1 24 1 1 1 28 1 7 1 44 1 -1 
1 52 1 21 1 -15 1 7 2 -45 1 32 1 12 1 35 
1 23 1 4 1 4 1 -1 1 -15 1 0 1 -13 1 24 
1 29 1 16 1 -14 1 1 2 13 1 -2 1 -4 1 13 
1 -44 1 -27 1 -9 1 -37 1 -18 1 12 1 0 1 9 
1 -10 1 46 1 34 2 -24 1 1 1 2 1 -6 1 8 
1 6 1 -25 1 27 1 9 1 27 1 1 1 37 1 12 
1 11 1 6 2 -10 4882 1407 100 MP stroke
1 3 1 -36 1 -14 1 -3 1 16 1 -2 1 3 1 11 
1 -24 1 34 1 -40 1 24 1 -13 1 13 2 -6 1 5 
1 -43 1 -2 1 16 1 3 1 -64 1 2 1 18 1 -10 
1 -13 1 -2 1 7 1 -6 1 -1 2 -4 1 -43 1 -44 
1 -7 1 -38 1 11 1 2 1 -7 1 -8 1 1 1 -23 
1 3 1 17 1 12 1 6 2 7 1 2 1 12 1 -12 
1 11 1 -34 1 -106 1 12 1 -20 1 -2 1 8 1 -10 
1 9 1 -11 1 32 2 4 1 12 1 -10 1 -4 1 -1 
1 -10 1 13 1 -5 1 -5 1 -4 1 -16 1 7 1 56 
1 -10 1 -1 2 22 1 11 1 -2 1 -1 1 3 1 23 
1 -16 1 0 1 2 1 7 1 12 1 30 1 11 1 25 
1 -23 1 5 2 -1 1 13 1 4 1 -10 1 -5 1 -19 
1 -13 1 -45 1 -33 4777 1729 100 MP stroke
1 45 1 -13 1 19 1 -1 1 -23 1 21 2 6 1 -15 
1 46 1 26 1 -5 1 -11 1 -8 1 -20 1 -11 1 13 
1 -14 1 -1 1 -5 1 10 1 6 2 26 1 27 1 -12 
1 4 1 -8 1 -19 1 -23 1 -6 1 -24 1 -17 1 -22 
1 -84 1 -10 1 10 1 0 2 4 1 -21 1 1 1 19 
1 -21 1 0 1 13 1 29 1 -28 1 2 1 5 1 -36 
1 25 1 17 1 -7 2 -6 1 9 1 -4 1 10 1 -7 
1 -46 1 39 1 -8 1 -14 1 -3 1 -1 1 -16 1 7 
1 -13 1 -45 2 65 1 -23 1 7 1 3 1 -10 1 -3 
1 12 1 -15 1 -36 1 14 1 -19 1 12 1 -5 1 -21 
1 -1 2 10 1 -9 1 18 1 -12 1 4 1 -1 1 1 
1 -36 1 5 1 -52 1 -20 1 -4 1 5 1 -14 1 4 
2 -1 1 4 1 11 4671 2025 100 MP stroke
1 -4 1 2 1 1 1 12 1 -3 1 -100 1 2 1 11 
1 7 1 6 1 -9 1 5 1 -13 2 -10 1 -17 1 2 
1 13 1 8 1 -34 1 -6 1 12 1 -8 1 13 1 6 
1 -29 1 -2 1 14 1 -4 2 0 1 -3 1 -4 1 13 
1 -2 1 74 1 -2 1 17 1 4 1 -15 1 -2 1 -4 
1 41 1 5 1 33 2 55 1 3 1 6 1 1 1 3 
1 -5 1 4 1 7 1 -11 1 -4 1 -14 1 81 1 -6 
1 8 1 -2 2 0 1 8 1 1 1 -12 1 23 1 29 
1 3 1 -3 1 10 1 -1 1 -29 1 -5 1 -2 1 -34 
1 2 2 19 1 -4 1 26 1 -8 1 0 1 1 1 -14 
1 14 1 -11 1 -8 1 -28 1 21 1 5 1 -2 1 8 
2 13 1 -5 1 -1 1 13 1 -12 1 1 1 4 1 -21 
1 0 1 14 1 -4 4566 1858 100 MP stroke
1 11 1 -6 1 -18 1 25 2 29 1 11 1 -17 1 -6 
1 12 1 -2 1 28 1 -45 1 -44 1 -1 1 -40 1 11 
1 -3 1 -5 1 -4 1 -15 2 -7 1 80 1 25 1 11 
1 -41 1 2 1 -20 1 29 1 28 1 -22 1 5 1 20 
1 23 1 0 1 -47 2 10 1 -3 1 1 1 5 1 -7 
1 -59 1 -35 1 44 1 -36 1 -12 1 -14 1 22 1 6 
1 0 1 -22 2 -3 1 14 1 38 1 17 1 3 1 0 
1 -4 1 -17 1 19 1 40 1 39 1 0 1 -38 1 -19 
1 4 2 -16 1 0 1 11 1 13 1 -10 1 30 1 -39 
1 19 1 -14 1 -3 1 23 1 21 1 7 1 10 1 4 
2 14 1 22 1 -5 1 0 1 -14 1 9 1 -5 1 -13 
1 16 1 -8 1 14 1 2 1 -2 1 61 1 39 2 16 
1 -18 1 5 1 13 4460 1656 100 MP stroke
1 17 1 -10 1 20 1 4 1 -1 1 -2 1 14 1 11 
1 -1 1 -129 1 -62 2 27 1 -7 1 -3 1 -3 1 -1 
1 24 1 29 1 6 1 4 1 -30 1 -18 1 12 1 -11 
1 -17 1 -23 2 0 1 14 1 5 1 13 1 -28 1 -16 
1 11 1 -10 1 -21 1 0 1 4 1 148 1 23 1 14 
1 -46 1 10 2 -15 1 -2 1 -10 1 4 1 34 1 -22 
1 -1 1 1 1 76 1 2 1 -3 1 17 1 -16 1 24 
1 -19 2 -23 1 -9 1 25 1 17 1 -11 1 26 1 -9 
1 16 1 0 1 78 1 14 1 27 1 59 1 30 1 -21 
2 -2 1 4 1 3 1 -15 1 43 1 34 1 -18 1 -75 
1 13 1 94 1 14 1 21 1 -38 1 87 1 19 2 -2 
1 -9 1 -9 1 -6 1 5 1 20 1 2 1 -19 1 -36 
1 12 1 23 1 5 4355 1226 100 MP stroke
1 -10 1 -30 1 18 2 -10 1 -26 1 14 1 24 1 14 
1 6 1 -10 1 -32 1 -6 1 32 1 -6 1 10 1 18 
1 -13 1 12 2 -27 1 -8 1 2 1 19 1 -6 1 17 
1 -11 1 -90 1 -8 1 8 1 3 1 -2 1 -17 1 21 
1 -7 2 -6 1 -2 1 1 1 11 1 -36 1 -5 1 -2 
1 14 1 -4 1 -16 1 6 1 -39 1 -17 1 6 1 -14 
1 -5 2 -38 1 -8 1 3 1 -7 1 -3 1 7 1 6 
1 -19 1 -24 1 5 1 -3 1 16 1 -4 1 8 1 14 
2 15 1 -47 1 36 1 -3 1 11 1 -3 1 -9 1 4 
1 16 1 -16 1 -34 1 7 1 -38 1 -13 1 -15 2 15 
1 -32 1 -10 1 -2 1 -6 1 27 1 -36 1 0 1 -16 
1 4 1 -9 1 -28 1 77 1 106 1 -11 2 28 1 9 
1 0 1 -9 1 -6 4249 1470 100 MP stroke
1 10 1 3 1 -11 1 -14 1 -45 1 -22 1 -20 1 -35 
1 27 1 -2 2 11 1 -47 1 38 1 25 1 -12 1 -6 
1 -12 1 19 1 6 1 -12 1 -87 1 0 1 0 1 0 
1 0 2 0 1 0 1 0 1 0 1 12 1 0 1 -53 
1 -1 1 25 1 52 1 -33 1 61 1 22 1 10 1 28 
2 -76 1 30 1 -15 1 41 1 -38 1 12 1 28 1 32 
1 -31 1 -4 1 -49 1 42 1 1 1 25 1 25 2 45 
1 17 1 -2 1 17 1 3 1 6 1 14 1 -12 1 8 
1 -36 1 -14 1 -12 1 6 1 44 1 -16 1 7 2 13 
1 -11 1 3 1 10 1 -4 1 18 1 -9 1 -66 1 -34 
1 -59 1 -21 1 -17 1 19 1 2 1 -28 2 14 1 4 
1 -9 1 85 1 -22 1 32 1 6 1 2 1 -1 1 -25 
1 -18 1 -11 1 1 4144 1561 100 MP stroke
1 -17 1 -4 2 31 1 -7 1 -22 1 13 1 -28 1 15 
1 -40 1 60 1 -14 1 -43 1 7 1 -1 1 -24 1 27 
1 2 2 10 1 3 1 -35 1 13 1 -16 1 29 1 -29 
1 17 1 36 1 -2 1 -3 1 -37 1 -6 1 -37 1 81 
2 -8 1 -25 1 -8 1 -10 1 -9 1 4 1 -34 1 21 
1 -40 1 -9 1 -9 1 -3 1 15 1 -9 1 -11 2 -21 
1 -2 1 -1 1 -41 1 -12 1 4 1 1 1 -15 1 -3 
1 6 1 -16 1 -11 1 -74 1 -5 1 6 2 19 1 27 
1 6 1 -2 1 1 1 -16 1 6 1 -16 1 27 1 -14 
1 2 1 -12 1 -6 1 22 1 14 1 -28 2 -30 1 -27 
1 -12 1 -3 1 -10 1 13 1 10 1 12 1 33 1 42 
1 24 1 -13 1 -23 1 -5 1 10 2 -7 1 -9 1 -11 
1 14 1 7 1 -51 4038 1907 100 MP stroke
1 -21 1 -10 1 -4 1 0 1 15 1 8 1 -36 1 19 
1 16 2 -41 1 -11 1 -4 1 18 1 4 1 -23 1 19 
1 15 1 -12 1 19 1 11 1 -7 1 9 1 8 1 4 
2 -12 1 -75 1 30 1 -7 1 -2 1 -6 1 2 1 -12 
1 -5 1 16 1 -20 1 3 1 -27 1 20 1 -10 2 -2 
1 -12 1 17 1 4 1 -13 1 -6 1 96 1 -23 1 -60 
1 7 1 9 1 -12 1 10 1 1 1 25 2 -36 1 5 
1 29 1 2 1 -6 1 1 1 -10 1 8 1 9 1 25 
1 -28 1 34 1 19 1 11 1 -24 2 -6 1 18 1 -27 
1 -24 1 -40 1 -22 1 -14 1 34 1 2 1 -5 1 -11 
1 -2 1 -9 1 28 1 -5 2 -30 1 -59 1 34 1 -13 
1 -1 1 9 1 -6 1 -40 1 22 1 -55 1 -41 1 -5 
1 -21 1 -4 1 43 3933 2186 100 MP stroke
1 20 2 -63 1 13 1 12 1 -4 1 10 1 11 1 16 
1 -3 1 8 1 11 1 -2 1 -8 1 1 1 -2 1 41 
2 -5 1 7 1 24 1 2 1 -22 1 -38 1 -18 1 19 
1 1 1 -16 1 6 1 -7 1 8 1 -10 1 -13 2 19 
1 -42 1 7 1 8 1 1 1 4 1 -29 1 5 1 4 
1 15 1 65 1 14 1 -39 1 5 1 -13 2 -17 1 31 
1 10 1 -12 1 -2 1 41 1 2 1 -2 1 9 1 32 
1 -49 1 25 1 -10 1 6 1 -34 2 -87 1 0 1 0 
1 0 1 0 1 0 1 0 1 -47 1 -14 1 -22 1 22 
1 -14 1 10 1 -23 1 -7 2 16 1 -3 1 14 1 -14 
1 -24 1 28 1 3 1 -23 1 -18 1 3 1 -6 1 -7 
1 27 1 -6 1 -14 2 -5 1 -63 1 -15 1 3 1 12 
1 -4 1 3 1 0 3827 2408 100 MP stroke
1 -20 1 11 1 -26 1 -13 1 -17 1 19 1 13 1 16 
2 -12 1 31 1 -26 1 -19 1 2 1 6 1 -2 1 3 
1 -5 1 -3 1 -24 1 25 1 -83 1 -8 1 4 2 -5 
1 6 1 -6 1 -2 1 -4 1 2 1 -32 1 0 1 0 
1 0 1 -18 1 -6 1 3 1 2 1 -72 2 -18 1 14 
1 57 1 5 1 -13 1 0 1 5 1 10 1 -21 1 0 
1 -11 1 -4 1 25 1 40 1 14 2 -6 1 28 1 -8 
1 -7 1 6 1 6 1 16 1 0 1 3 1 1 1 8 
1 -4 1 8 1 15 1 -31 2 -96 1 27 1 -2 1 -25 
1 -22 1 8 1 -10 1 7 1 -10 1 6 1 2 1 -1 
1 5 1 -9 1 -13 2 7 1 -5 1 10 1 7 1 -10 
1 -14 1 32 1 13 1 3 1 -1 1 -2 1 14 1 -11 
1 -7 1 -37 2 -2 3721 2666 100 MP stroke
1 4 1 -7 1 6 1 10 1 -2 1 -14 1 -11 1 34 
1 76 1 5 1 -12 1 10 1 25 1 27 2 -9 1 -10 
1 8 1 -9 1 28 1 5 1 -4 1 5 1 4 1 3 
1 -5 1 -14 1 -14 1 -75 1 -12 1 5 2 -1 1 10 
1 -4 1 -2 1 -3 1 -6 1 0 1 4 1 -7 1 13 
1 -15 1 -3 1 14 1 -6 1 -16 2 31 1 -31 1 -3 
1 -14 1 5 1 -3 1 10 1 -11 1 17 1 -9 1 -40 
1 5 1 -16 1 34 1 3 2 -9 1 8 1 -24 1 -6 
1 52 1 -4 1 -30 1 1 1 11 1 -26 1 9 1 1 
1 59 1 -34 1 27 2 -3 1 -32 1 -11 1 -3 1 -10 
1 2 1 -6 1 -11 1 7 1 -4 1 48 1 30 1 -3 
1 4 1 -1 2 12 1 -10 1 -66 1 -2 1 -2 1 -60 
1 -31 1 0 1 4 3616 2766 100 MP stroke
1 -8 1 -3 1 5 1 -28 1 -15 1 21 2 10 1 10 
1 -15 1 8 1 24 1 -7 1 -4 1 18 1 20 1 -17 
1 0 1 -6 1 1 1 -5 1 4 2 -9 1 -25 1 -6 
1 0 1 9 1 -11 1 0 1 -1 1 0 1 6 1 -12 
1 17 1 79 1 11 1 -10 1 2 2 1 1 18 1 -2 
1 7 1 9 1 -7 1 -35 1 41 1 -6 1 4 1 -10 
1 -1 1 -6 1 13 1 -21 2 -10 1 25 1 -8 1 22 
1 -9 1 24 1 -11 1 -6 1 19 1 -1 1 -76 1 13 
1 -5 1 28 1 -21 2 13 1 -47 1 -1 1 -18 1 5 
1 7 1 -3 1 -10 1 12 1 -8 1 -2 1 11 1 -16 
1 -141 1 -4 2 40 1 -4 1 39 1 -4 1 -16 1 20 
1 -15 1 -1 1 -24 1 24 1 -2 1 -15 1 -22 1 5 
1 2 2 4 1 3 3510 2882 100 MP stroke
1 9 1 -6 1 -9 1 -3 1 -7 1 4 1 10 1 -9 
1 11 1 -10 1 42 1 78 1 2 2 -7 1 4 1 -18 
1 17 1 -2 1 -19 1 19 1 -7 1 2 1 28 1 -14 
1 7 1 8 1 0 1 -8 2 7 1 -32 1 17 1 -13 
1 3 1 20 1 5 1 -11 1 3 1 6 1 -6 1 -81 
1 11 1 -46 1 1 2 8 1 -20 1 -15 1 3 1 8 
1 -19 1 17 1 -12 1 -25 1 -29 1 7 1 8 1 -22 
1 36 1 6 1 18 2 52 1 -14 1 47 1 -12 1 -2 
1 -17 1 9 1 -1 1 -24 1 6 1 -12 1 2 1 -22 
1 20 1 -9 2 21 1 1 1 -5 1 3 1 -9 1 28 
1 -22 1 -18 1 -2 1 8 1 9 1 -1 1 20 1 10 
1 25 2 24 1 1 1 -20 1 8 1 -5 1 -2 1 56 
1 16 1 33 1 31 3405 2674 100 MP stroke
1 30 1 0 1 6 1 14 1 12 2 -16 1 8 1 -25 
1 15 1 61 1 6 1 8 1 -7 1 -1 1 2 1 -2 
1 -13 1 -5 1 18 1 -18 2 -11 1 -9 1 9 1 -8 
1 6 1 -19 1 -22 1 23 1 2 1 13 1 10 1 -11 
1 9 1 9 1 -16 2 -13 1 8 1 0 1 21 1 4 
1 12 1 -8 1 0 1 0 1 -14 1 -6 1 8 1 -12 
1 10 1 23 2 3 1 0 1 7 1 -7 1 -10 1 -42 
1 -126 1 -12 1 7 1 30 1 13 1 -3 1 15 1 -7 
1 -19 2 31 1 10 1 -16 1 -18 1 -6 1 1 1 -6 
1 -13 1 8 1 -11 1 28 1 -8 1 17 1 -10 1 -2 
1 -3 2 8 1 31 1 42 1 -30 1 5 1 -9 1 -6 
1 4 1 -3 1 1 1 0 1 -6 1 -9 1 7 1 4 
2 -1 1 21 1 -10 3299 2663 100 MP stroke
1 -2 1 8 1 -6 1 -12 1 -23 1 -196 1 1 1 20 
1 -12 1 -9 1 -8 1 16 2 -5 1 -6 1 -29 1 34 
1 -1 1 -5 1 1 1 -3 1 -2 1 -10 1 5 1 -30 
1 -19 1 9 1 19 2 3 1 21 1 4 1 8 1 -6 
1 -4 1 -4 1 -31 1 0 1 -4 1 11 1 9 1 -12 
1 9 1 0 2 4 1 30 1 15 1 -27 1 13 1 -2 
1 -4 1 -41 1 -4 1 11 1 79 1 -53 1 5 1 -12 
1 3 2 -12 1 0 1 5 1 -1 1 47 1 -52 1 1 
1 29 1 -4 1 -1 1 0 1 -3 1 -8 1 10 1 -26 
2 10 1 -24 1 43 1 14 1 -13 1 -3 1 1 1 -18 
1 17 1 94 1 29 1 -6 1 -37 1 4 1 11 1 -12 
2 18 1 -14 1 13 1 2 1 2 1 3 1 -22 1 -10 
1 -20 1 -19 1 8 3194 2851 100 MP stroke
1 21 1 57 1 12 1 41 2 6 1 16 1 6 1 6 
1 -1 1 19 1 -4 1 -5 1 0 1 2 1 -2 1 -2 
1 -5 1 22 1 -29 2 -19 1 26 1 44 1 44 1 -14 
1 -16 1 16 1 5 1 0 1 48 1 2 1 -6 1 34 
1 46 1 -2 2 -12 1 -4 1 11 1 -4 1 -5 1 -11 
1 -16 1 11 1 25 1 14 1 0 1 -2 1 5 1 -9 
1 -9 2 16 1 -118 1 28 1 -12 1 13 1 -20 1 2 
1 -1 1 -13 1 30 1 -12 1 1 1 -26 1 32 1 16 
2 5 1 -1 1 5 1 8 1 21 1 -33 1 -18 1 -28 
1 -2 1 5 1 -21 1 3 1 -10 1 -16 1 26 2 40 
1 10 1 -11 1 5 1 1 1 36 1 6 1 -7 1 6 
1 -11 1 27 1 -17 1 -10 1 -10 1 30 2 0 1 -9 
1 -14 1 -12 1 4 3088 2545 100 MP stroke
1 -1 1 19 1 1 1 8 1 -21 1 -4 1 1 1 0 
1 -26 1 -8 1 8 2 8 1 -20 1 15 1 -2 1 2 
1 7 1 -10 1 0 1 11 1 -30 1 -33 1 -27 1 -6 
1 -2 1 25 2 -18 1 22 1 -26 1 6 1 27 1 -22 
1 0 1 -5 1 -9 1 -2 1 -10 1 14 1 3 1 16 
1 19 2 -4 1 9 1 -9 1 2 1 -3 1 -15 1 -148 
1 -15 1 15 1 16 1 -24 1 4 1 5 1 9 1 -20 
2 23 1 2 1 -23 1 15 1 0 1 29 1 -10 1 8 
1 -28 1 17 1 -29 1 -31 1 -64 1 20 1 21 2 -24 
1 -3 1 23 1 24 1 25 1 5 1 -7 1 17 1 15 
1 -1 1 15 1 -4 1 -23 1 27 1 33 2 -57 1 -27 
1 14 1 0 1 16 1 4 1 -17 1 -18 1 4 1 1 
1 -17 1 27 1 -2 2983 2793 100 MP stroke
1 -3 1 23 2 4 1 -2 1 -3 1 -20 1 -50 1 -4 
1 -50 1 19 1 -2 1 23 1 -6 1 10 1 -22 1 9 
1 40 1 74 2 -54 1 -13 1 -16 1 -6 1 -17 1 2 
1 -7 1 -5 1 -1 1 25 1 19 1 0 1 -7 1 -4 
1 -6 2 -15 1 4 1 3 1 20 1 15 1 -18 1 18 
1 6 1 -1 1 -2 1 -29 1 -75 1 -24 1 -25 1 10 
2 29 1 5 1 32 1 -1 1 -19 1 0 1 15 1 -7 
1 -41 1 -11 1 3 1 4 1 -2 1 1 1 40 2 23 
1 38 1 49 1 -4 1 6 1 4 1 7 1 -17 1 -6 
1 -39 1 -65 1 -2 1 33 1 16 1 1 2 -27 1 6 
1 -12 1 29 1 -86 1 17 1 -53 1 8 1 3 1 1 
1 30 1 3 1 3 1 2 1 -1 2 -10 1 6 1 42 
1 28 1 31 1 7 2877 2837 100 MP stroke
1 -9 1 -8 1 -48 1 -1 1 9 1 -6 1 2 1 -11 
1 -18 2 13 1 43 1 35 1 43 1 80 1 12 1 -7 
1 4 1 30 1 4 1 -13 1 17 1 -3 1 55 1 17 
2 -8 1 -26 1 -15 1 27 1 -1 1 9 1 -16 1 17 
1 -9 1 14 1 -4 1 5 1 -6 1 -47 1 8 1 -24 
2 -32 1 -31 1 1 1 -5 1 11 1 0 1 6 1 9 
1 -8 1 9 1 6 1 -23 1 -24 1 13 1 -17 2 20 
1 3 1 15 1 0 1 81 1 -22 1 -18 1 24 1 -22 
1 -16 1 -12 1 12 1 -24 1 -9 1 21 2 6 1 1 
1 -27 1 -25 1 -32 1 43 1 -21 1 -1 1 9 1 6 
1 17 1 0 1 -6 1 -13 1 40 2 -14 1 -9 1 -3 
1 33 1 7 1 27 1 14 1 -22 1 -6 1 13 1 3 
1 -7 1 6 1 -73 2772 2739 100 MP stroke
1 -56 2 -4 1 3 1 -20 1 -43 1 23 1 -6 1 1 
1 -2 1 -3 1 14 1 3 1 -33 1 21 1 -4 1 4 
2 2 1 -13 1 13 1 -45 1 16 1 -47 1 -22 1 -14 
1 -6 1 11 1 9 1 -55 1 0 1 -15 1 -12 2 28 
1 -5 1 24 1 -4 1 28 1 2 1 24 1 5 1 -35 
1 8 1 -44 1 -4 1 -10 1 -20 1 -39 1 33 2 3 
1 -10 1 5 1 38 1 21 1 18 1 16 1 -10 1 12 
1 -14 1 -14 1 4 1 3 1 -37 1 -8 2 -4 1 -1 
1 -8 1 25 1 0 1 13 1 34 1 -23 1 7 1 8 
1 10 1 6 1 -10 1 -2 1 18 2 0 1 -23 1 -49 
1 0 1 -78 1 -2 1 -5 1 -4 1 12 1 -93 1 8 
1 0 1 0 1 0 1 0 2 0 1 0 1 19 1 9 
1 2 1 21 1 42 2666 3069 100 MP stroke
1 13 1 2 1 0 1 -16 1 17 1 -5 1 -45 1 17 
2 -17 1 9 1 -23 1 28 1 -10 1 0 1 -46 1 6 
1 -13 1 54 1 -5 1 -4 1 15 1 -37 1 17 2 1 
1 4 1 -16 1 -18 1 1 1 18 1 5 1 13 1 29 
1 6 1 1 1 67 1 134 1 -36 1 4 2 -3 1 21 
1 6 1 -4 1 13 1 -13 1 35 1 33 1 13 1 8 
1 -12 1 12 1 6 1 7 1 -1 2 -39 1 3 1 37 
1 -37 1 -18 1 18 1 -26 1 -14 1 -1 1 -22 1 23 
1 -37 1 -95 1 -28 1 5 1 -7 2 -18 1 17 1 -11 
1 22 1 -3 1 16 1 13 1 -6 1 -1 1 19 1 -12 
1 7 1 -9 1 11 1 -34 2 -1 1 2 1 19 1 -17 
1 6 1 19 1 -50 1 1 1 -49 1 -61 1 -6 1 4 
1 -1 1 -5 1 26 2561 3118 100 MP stroke
2 -9 1 4 1 9 1 52 1 32 1 -46 1 39 1 -14 
1 26 1 -15 1 10 1 2 1 -62 1 4 1 4 2 -40 
1 0 1 11 1 4 1 13 1 -7 1 -6 1 -3 1 -22 
1 -49 1 5 1 -9 1 6 1 55 1 -10 2 -19 1 13 
1 68 1 2 1 24 1 -18 1 7 1 19 1 -18 1 -53 
1 23 1 -4 1 -28 1 -26 1 0 2 33 1 -46 1 25 
1 9 1 22 1 34 1 -57 1 -14 1 6 1 -4 1 -4 
1 9 1 25 1 65 1 -6 2 -22 1 28 1 24 1 -6 
1 29 1 29 1 13 1 11 1 6 1 11 1 11 1 34 
1 -4 1 -50 1 8 1 -10 2 -29 1 5 1 28 1 -31 
1 -64 1 45 1 6 1 4 1 -23 1 20 1 -6 1 -14 
1 -58 1 23 1 -28 2 82 1 -19 1 -20 1 -4 1 19 
1 -1 1 -21 1 -21 2455 3042 100 MP stroke
1 -5 1 2 1 28 1 -18 1 4 1 3 1 10 2 -7 
1 -11 1 11 1 40 1 28 1 74 1 -5 1 2 1 8 
1 -1 1 2 1 -7 1 24 1 -13 1 -7 2 -7 1 -2 
1 9 1 25 1 0 1 7 1 2 1 -5 1 4 1 -11 
1 -21 1 13 1 -9 1 9 1 -4 2 26 1 -19 1 54 
1 37 1 30 1 -20 1 -7 1 -6 1 -6 1 28 1 -72 
1 -3 1 -34 1 -18 1 24 2 -13 1 48 1 -13 1 -12 
1 -20 1 4 1 5 1 -43 1 -56 1 -7 1 22 1 -13 
1 18 1 -15 1 -3 2 57 1 40 1 19 1 -14 1 -5 
1 7 1 37 1 0 1 -34 1 52 1 175 1 -8 1 41 
1 17 1 -12 2 9 1 7 1 -18 1 -13 1 35 1 -44 
1 -14 1 -53 1 12 1 -5 1 34 1 1 1 -13 1 7 
1 -84 1 -4 2 19 2349 2706 100 MP stroke
1 -16 1 8 1 -54 1 -10 1 20 1 18 1 -23 1 30 
1 -22 1 6 1 -15 1 2 1 -29 1 2 2 -18 1 18 
1 -34 1 -8 1 -28 1 -5 1 5 1 26 1 16 1 -15 
1 19 1 25 1 19 1 -65 1 -7 2 39 1 -14 1 2 
1 -4 1 28 1 14 1 -51 1 31 1 -28 1 12 1 -7 
1 11 1 -22 1 14 1 60 2 26 1 -19 1 96 1 19 
1 14 1 8 1 40 1 -25 1 -6 1 -25 1 -20 1 6 
1 36 1 20 1 2 2 -30 1 18 1 -9 1 44 1 6 
1 -20 1 -16 1 -73 1 -27 1 -13 1 23 1 31 1 -16 
1 -3 1 89 2 -13 1 -2 1 52 1 6 1 -6 1 -1 
1 1 1 -11 1 19 1 -153 1 20 1 -4 1 11 1 -8 
1 -17 2 -24 1 12 1 -21 1 -32 1 64 1 -1 1 1 
1 -4 1 30 1 -36 2244 2697 100 MP stroke
1 27 1 35 1 -33 1 65 1 20 1 -27 2 -46 1 -14 
1 -22 1 19 1 7 1 -30 1 -21 1 59 1 6 1 -22 
1 -33 1 -15 1 11 1 -12 1 -1 2 -23 1 36 1 -3 
1 27 1 23 1 16 1 27 1 32 1 0 1 -65 1 -23 
1 13 1 -32 1 -76 1 36 2 -16 1 22 1 8 1 38 
1 -15 1 -22 1 92 1 -21 1 -16 1 42 1 -8 1 6 
1 14 1 61 1 43 2 -41 1 -4 1 59 1 19 1 -7 
1 -2 1 -44 1 3 1 -56 1 11 1 -10 1 20 1 -22 
1 35 1 -21 2 -11 1 21 1 -7 1 28 1 -32 1 -174 
1 3 1 6 1 -15 1 9 1 -9 1 -5 1 -11 1 39 
1 -76 2 46 1 41 1 -33 1 -26 1 -7 1 28 1 -4 
1 -65 1 19 1 2 1 8 1 41 1 -26 1 11 1 -2 
2 43 1 -4 1 41 2138 2689 100 MP stroke
1 149 1 0 1 25 1 16 1 8 1 0 1 17 1 -13 
1 5 1 -7 1 41 1 -15 2 52 1 -8 1 9 1 12 
1 -41 1 5 1 -21 1 -4 1 -79 1 10 1 52 1 -15 
1 7 1 1 1 -9 1 7 2 -1 1 -23 1 18 1 12 
1 45 1 14 1 4 1 -15 1 -1 1 12 1 83 1 53 
1 44 1 13 1 -9 2 10 1 -2 1 -2 1 17 1 -10 
1 -112 1 20 1 -35 1 -28 1 -9 1 1 1 29 1 -14 
1 12 1 4 2 0 1 -9 1 -14 1 -52 1 4 1 -30 
1 66 1 -24 1 17 1 113 1 24 1 -13 1 36 1 58 
1 0 2 23 1 -45 1 -5 1 -1 1 -36 1 33 1 15 
1 -1 1 5 1 -9 1 -3 1 -43 1 125 1 61 1 1 
2 53 1 -8 1 -31 1 3 1 -3 1 -18 1 -5 1 11 
1 7 1 21 1 -41 2033 2070 100 MP stroke
1 -73 1 3 1 0 1 -7 2 9 1 -3 1 17 1 -35 
1 0 1 2 1 -26 1 8 1 -1 1 7 1 0 1 23 
1 119 1 -63 1 -3 2 10 1 -10 1 -17 1 15 1 -10 
1 8 1 6 1 -2 1 16 1 -14 1 15 1 13 1 -27 
1 27 1 -30 2 -21 1 -135 1 6 1 6 1 6 1 26 
1 -17 1 4 1 -26 1 34 1 21 1 24 1 20 1 15 
1 -31 1 -12 2 -43 1 -8 1 -7 1 8 1 -10 1 18 
1 40 1 -2 1 7 1 -27 1 -32 1 22 1 -14 1 12 
1 -10 2 -185 1 3 1 30 1 5 1 -7 1 13 1 -24 
1 26 1 40 1 -23 1 4 1 -39 1 -15 1 -8 1 19 
2 2 1 -15 1 11 1 -24 1 23 1 10 1 -6 1 -13 
1 -21 1 22 1 11 1 0 1 11 1 -6 1 28 2 -33 
1 -59 1 -20 1 -27 1927 2486 100 MP stroke
1 4 1 -19 1 -23 1 28 1 28 1 -4 1 -4 1 2 
1 11 1 7 1 5 2 -18 1 5 1 -50 1 -35 1 -9 
1 38 1 2 1 -1 1 -9 1 10 1 -16 1 -16 1 56 
1 81 1 -23 2 -35 1 13 1 26 1 -77 1 85 1 138 
1 -69 1 4 1 39 1 31 1 -32 1 19 1 0 1 16 
1 -7 2 4 1 -85 1 -78 1 -13 1 -14 1 5 1 4 
1 19 1 -9 1 53 1 38 1 28 1 -31 1 -2 1 19 
1 5 2 -16 1 17 1 19 1 17 1 86 1 15 1 57 
1 -26 1 -33 1 24 1 -12 1 -4 1 -12 1 11 1 -10 
2 24 1 -91 1 24 1 20 1 -19 1 -27 1 -6 1 13 
1 -43 1 2 1 45 1 -33 1 -1 1 -52 1 12 2 2 
1 0 1 4 1 -74 1 -13 1 -20 1 -104 1 -7 1 -5 
1 -20 1 -8 1 8 1822 2578 100 MP stroke
1 23 1 -2 1 -8 2 -2 1 19 1 -14 1 14 1 9 
1 -23 1 3 1 57 1 57 1 14 1 72 1 20 1 11 
1 7 1 -23 2 -3 1 44 1 16 1 19 1 -7 1 21 
1 -5 1 -2 1 -8 1 16 1 64 1 -65 1 16 1 -10 
1 58 2 9 1 10 1 25 1 11 1 -38 1 3 1 40 
1 -50 1 55 1 -21 1 4 1 -50 1 17 1 11 1 41 
2 20 1 14 1 67 1 1 1 -40 1 -5 1 3 1 -21 
1 16 1 10 1 -16 1 -88 1 -16 1 1 1 20 2 12 
1 8 1 -12 1 0 1 -25 1 -34 1 -137 1 15 1 7 
1 1 1 8 1 22 1 15 1 32 1 15 1 -5 2 -26 
1 63 1 4 1 -6 1 18 1 -3 1 44 1 -2 1 41 
1 -66 1 -20 1 -20 1 -28 1 -7 1 16 2 -28 1 7 
1 -4 1 -4 1 9 1716 2247 100 MP stroke
1 -5 1 -3 1 -4 1 -5 1 -75 1 11 1 7 1 15 
1 -26 1 30 2 -55 1 1 1 -43 1 56 1 -47 1 11 
1 -73 1 0 1 0 1 0 1 121 1 0 1 0 1 0 
1 -9 2 -49 1 88 1 1 1 -15 1 7 1 -18 1 -22 
1 -28 1 1 1 9 1 -34 1 -12 1 -13 1 -1 1 -3 
2 0 1 -14 1 4 1 -1 1 4 1 -4 1 15 1 -15 
1 -30 1 -2 1 -17 1 -12 1 0 1 -2 1 13 2 17 
1 -1 1 -4 1 15 1 -4 1 -5 1 -10 1 6 1 0 
1 0 1 9 1 -13 1 4 1 0 1 0 2 2 1 -7 
1 5 1 1 1 -13 1 -30 1 -3 1 3 1 -7 1 -4 
1 3 1 -14 1 5 1 8 1 -12 1 13 2 12 1 -14 
1 -3 1 1 1 -11 1 18 1 8 1 6 1 12 1 6 
1 -32 1 -18 1 -8 1611 2549 100 MP stroke
1 1 1 -12 2 22 1 -11 1 30 1 0 1 15 1 -3 
1 -10 1 -5 1 16 1 11 1 -24 1 -36 1 8 1 31 
1 0 2 -7 1 -3 1 -7 1 1 1 -2 1 11 1 -27 
1 -65 1 20 1 -33 1 19 1 -1 1 -10 1 10 1 -2 
2 5 1 16 1 1 1 2 1 -18 1 5 1 -29 1 12 
1 -11 1 -1 1 -27 1 -65 1 -7 1 -4 1 -16 2 -3 
1 -1 1 89 1 28 1 -14 1 -180 1 0 1 0 1 0 
1 0 1 0 1 0 1 0 1 0 1 0 2 70 1 -32 
1 -9 1 54 1 0 1 6 1 11 1 4 1 -1 1 27 
1 -4 1 -23 1 -42 1 43 1 2 2 31 1 9 1 -32 
1 2 1 9 1 30 1 -1 1 -31 1 -17 1 2 1 6 
1 2 1 -22 1 6 1 9 2 -31 1 -18 1 -15 1 -3 
1 11 1 -2 1 -7 1505 2786 100 MP stroke
1 -23 1 -27 1 -43 1 -3 1 18 1 -2 1 -3 1 -6 
1 10 2 36 1 -53 1 57 1 -69 1 19 1 -25 1 12 
1 44 1 10 1 -7 1 -28 1 23 1 3 1 -8 1 -20 
2 6 1 -3 1 11 1 -13 1 -3 1 6 1 -115 1 -30 
1 13 1 14 1 11 1 -10 1 -13 1 14 1 -3 2 1 
1 45 1 -12 1 -20 1 27 1 9 1 -4 1 -31 1 1 
1 2 1 14 1 0 1 -26 1 -45 1 -21 2 -17 1 13 
1 -5 1 -9 1 0 1 1 1 9 1 -4 1 28 1 -11 
1 9 1 0 1 6 1 -6 1 -24 2 -87 1 9 1 2 
1 -29 1 -8 1 -12 1 -1 1 6 1 -12 1 11 1 -15 
1 13 1 -25 1 0 1 0 2 0 1 0 1 0 1 19 
1 39 1 -5 1 63 1 33 1 1 1 8 1 -2 1 5 
1 -12 1 6 1 -28 1400 3077 100 MP stroke
2 0 1 8 1 -6 1 17 1 -3 1 12 1 -10 1 17 
1 15 1 -8 1 -9 1 1 1 -19 1 8 1 -16 1 -10 
2 18 1 21 1 10 1 -34 1 68 1 -6 1 -3 1 -6 
1 27 1 -36 1 -56 1 -110 1 -44 1 40 1 -10 2 18 
1 -20 1 -26 1 9 1 7 1 36 1 15 1 32 1 -27 
1 -18 1 0 1 41 1 -58 1 -4 1 -11 2 -12 1 35 
1 -6 1 -4 1 12 1 -42 1 1 1 -21 1 -8 1 -10 
1 11 1 -37 1 0 1 -43 1 1 2 -8 1 -12 1 14 
1 7 1 -24 1 -12 1 -28 1 -23 1 0 1 -29 1 -30 
1 5 1 -3 1 11 1 -28 2 6 1 -5 1 -23 1 -3 
1 1 1 -17 1 37 1 -2 1 17 1 -36 1 7 1 37 
1 8 1 -4 1 4 2 -4 1 9 1 -16 1 -105 1 4 
1 6 1 6 1 -18 1294 3581 100 MP stroke
1 15 1 -14 1 0 1 0 1 23 1 -41 1 64 2 2 
1 -9 1 -16 1 -11 1 15 1 -4 1 29 1 -17 1 29 
1 -6 1 10 1 6 1 -2 1 -5 1 21 2 4 1 0 
1 -24 1 -15 1 -12 1 -2 1 -12 1 6 1 24 1 -19 
1 18 1 0 1 134 1 6 1 -28 1 8 2 -3 1 1 
1 19 1 -23 1 26 1 27 1 -1 1 17 1 -18 1 -4 
1 6 1 4 1 3 1 9 1 54 2 35 1 -6 1 -52 
1 1 1 8 1 -13 1 3 1 4 1 8 1 16 1 4 
1 12 1 11 1 -30 1 1 2 -23 1 -2 1 59 1 -29 
1 -8 1 -10 1 63 1 -29 1 7 1 -9 1 35 1 4 
1 16 1 10 1 -29 2 28 1 -25 1 -2 1 -13 1 41 
1 14 1 37 1 19 1 -25 1 -41 1 15 1 21 1 15 
1 -7 1 3 2 -39 1188 3189 100 MP stroke
1 -11 1 36 1 -12 1 10 1 25 1 -2 1 -6 1 -18 
1 0 1 13 1 -13 1 -54 1 -58 1 -15 2 25 1 -40 
1 -6 1 3 1 4 1 -6 1 17 1 -30 1 -15 1 3 
1 1 1 -8 1 -8 1 7 1 8 2 23 1 -3 1 -38 
1 51 1 6 1 -59 1 -8 1 93 1 -22 1 -25 1 -23 
1 -61 1 19 1 1 1 -20 1 34 2 -20 1 3 1 -6 
1 57 1 50 1 -63 1 -2 1 -41 1 53 1 -12 1 -2 
1 -10 1 27 1 5 1 5 2 44 1 -11 1 57 1 -23 
1 1 1 21 1 -11 1 1 1 -8 1 -76 1 4 1 -5 
1 -27 1 6 1 34 2 53 1 -14 1 -8 1 -5 1 29 
1 -26 1 38 1 78 1 7 1 12 1 -11 1 9 1 -4 
1 9 1 -38 2 -59 1 -12 1 22 1 -16 1 16 1 5 
1 -43 1 11 1 29 1083 3238 100 MP stroke
1 94 1 18 1 -5 1 9 1 -19 1 -6 2 -16 1 -13 
1 12 1 -34 1 25 1 28 1 -42 1 -3 1 -3 1 -21 
1 4 1 25 1 -1 1 -17 1 -9 2 -40 1 -13 1 3 
1 -2 1 8 1 -14 1 -54 1 -70 1 1 1 -10 1 -22 
1 7 1 28 1 -12 1 -27 2 35 1 36 1 81 1 7 
1 -14 1 0 1 0 1 -5 1 0 1 8 1 -1 1 -16 
1 15 1 26 1 35 2 13 1 -50 1 15 1 -21 1 -20 
1 7 1 -18 1 -2 1 -2 1 1 1 0 1 -9 1 -13 
1 -9 1 12 1 23 2 8 1 -34 1 -22 1 -14 1 -13 
1 10 1 -27 1 -12 1 -70 1 -107 1 8 1 -2 1 25 
1 -10 1 26 2 6 1 -1 1 18 1 2 1 3 1 -12 
1 -2 1 5 1 -8 1 7 1 24 1 -8 1 22 1 -36 
1 13 2 -16 1 -9 977 3521 100 MP stroke
1 10 1 7 1 4 1 -1 1 -7 1 -26 1 19 1 -1 
1 -43 1 25 1 -5 1 -12 1 4 2 24 1 20 1 -3 
1 0 1 30 1 -32 1 2 1 -22 1 1 1 10 1 28 
1 -20 1 -20 1 1 1 -10 2 -2 1 -3 1 17 1 -96 
1 -16 1 8 1 -56 1 -21 1 -28 1 -13 1 -1 1 -6 
1 0 1 -5 1 5 2 16 1 34 1 -40 1 7 1 11 
1 2 1 7 1 6 1 -4 1 -47 1 -14 1 -14 1 -51 
1 -26 1 17 2 5 1 11 1 2 1 10 1 7 1 58 
1 -32 1 30 1 66 1 -1 1 -18 1 -4 1 -4 1 15 
1 -4 900 3710 74 MP stroke
/c9 { 0.000000 0.500000 0.000000 sr} bdef
c9
2 -4 1 -4 1 17 1 11 1 61 1 14 1 -10 1 46 
1 3 1 0 1 12 1 33 1 -14 1 -29 1 6 2 22 
1 1 1 -32 1 -7 1 0 1 -8 1 5 1 11 1 -8 
1 2 1 -5 1 -20 1 4 1 -4 1 12 2 10 1 24 
1 31 1 -16 1 64 1 11 1 44 1 -19 1 -11 1 -4 
1 4 1 -40 1 17 1 28 1 -12 2 -19 1 3 1 -3 
1 -3 1 37 1 24 1 -42 1 -1 1 -3 1 -2 1 2 
1 -6 1 0 1 33 1 -13 2 0 1 11 1 25 1 -36 
1 3 1 13 1 13 1 6 1 -11 1 32 1 -13 1 -37 
1 18 1 -4 1 -7 2 19 1 8 1 -2 1 3 1 26 
1 6 1 -11 1 9 1 2 1 -73 1 27 1 8 1 -15 
1 -30 1 -5 2 21 1 -39 1 -25 1 8 1 0 1 3 
1 0 1 -27 1 -97 6149 2509 100 MP stroke
1 -44 1 -47 1 -19 1 -6 1 7 1 10 2 -8 1 6 
1 -51 1 -92 1 4 1 -12 1 20 1 8 1 -14 1 7 
1 -10 1 -9 1 8 1 -6 1 52 1 14 2 6 1 14 
1 3 1 -2 1 7 1 45 1 3 1 17 1 10 1 -18 
1 15 1 18 1 -63 1 5 1 43 2 1 1 -11 1 6 
1 -19 1 -5 1 -20 1 18 1 9 1 8 1 0 1 -36 
1 36 1 6 1 3 1 -11 2 -35 1 6 1 -3 1 -6 
1 1 1 -36 1 -15 1 3 1 7 1 26 1 25 1 7 
1 -3 1 -9 1 -16 2 -1 1 -5 1 7 1 5 1 14 
1 3 1 -3 1 -6 1 24 1 12 1 -66 1 28 1 -4 
1 -3 1 -26 2 -2 1 9 1 -8 1 -5 1 13 1 -30 
1 -3 1 8 1 -7 1 19 1 3 1 -12 1 19 1 4 
1 59 2 18 1 -8 6043 2595 100 MP stroke
1 7 1 -7 1 7 1 -11 1 3 1 35 1 0 1 -24 
1 -28 1 33 1 13 1 19 1 -2 2 -24 1 9 1 -21 
1 11 1 35 1 -33 1 -8 1 4 1 19 1 12 1 -19 
1 -4 1 18 1 -1 1 22 2 1 1 -18 1 31 1 -7 
1 -3 1 12 1 -8 1 -2 1 14 1 -40 1 -10 1 -6 
1 25 1 -10 1 -19 1 -9 2 -29 1 0 1 -7 1 -24 
1 -9 1 -13 1 -2 1 -16 1 -3 1 21 1 -23 1 -2 
1 -24 1 -22 1 10 2 -12 1 1 1 -22 1 -3 1 -10 
1 -3 1 -2 1 68 1 -43 1 8 1 -15 1 1 1 11 
1 6 1 19 2 -22 1 -66 1 -24 1 -4 1 2 1 33 
1 -12 1 -22 1 -3 1 56 1 -27 1 -4 1 3 1 24 
1 3 2 -6 1 -1 1 9 1 -43 1 20 1 -28 1 26 
1 -11 1 7 1 -2 5938 2810 100 MP stroke
1 12 1 -14 1 28 1 6 1 2 2 -98 1 -25 1 8 
1 31 1 -1 1 -2 1 17 1 5 1 -10 1 17 1 -22 
1 -4 1 -13 1 -14 1 7 2 16 1 -1 1 -6 1 -23 
1 -28 1 0 1 -29 1 -29 1 14 1 2 1 6 1 2 
1 -21 1 -19 1 16 2 -7 1 14 1 -5 1 -1 1 21 
1 -26 1 -25 1 -64 1 -4 1 4 1 -8 1 19 1 -9 
1 22 1 -31 1 2 2 -35 1 -12 1 -1 1 -3 1 8 
1 4 1 0 1 24 1 -7 1 -35 1 34 1 2 1 18 
1 -3 1 20 2 15 1 6 1 -12 1 -10 1 -47 1 15 
1 -45 1 28 1 -11 1 23 1 19 1 -35 1 4 1 42 
1 51 2 30 1 7 1 -13 1 0 1 4 1 -14 1 57 
1 -87 1 17 1 -26 1 -2 1 -16 1 -7 1 9 1 -29 
2 0 1 -91 1 21 5832 3161 100 MP stroke
1 53 1 -16 1 -3 1 6 1 24 1 -26 1 28 1 11 
1 -43 1 15 1 3 1 12 2 17 1 46 1 -7 1 5 
1 -8 1 15 1 12 1 -27 1 7 1 22 1 28 1 -11 
1 -5 1 -1 1 -3 2 6 1 8 1 44 1 13 1 10 
1 -14 1 -14 1 -7 1 -8 1 -5 1 29 1 25 1 -31 
1 25 1 2 2 -2 1 -22 1 31 1 -9 1 -51 1 14 
1 76 1 -24 1 67 1 17 1 -4 1 19 1 7 1 -13 
1 -12 2 -28 1 -23 1 -17 1 -15 1 -5 1 -54 1 11 
1 -8 1 13 1 -25 1 -76 1 -13 1 -11 1 15 1 -12 
1 -37 2 3 1 -19 1 3 1 43 1 -49 1 17 1 30 
1 5 1 -4 1 9 1 13 1 -9 1 -12 1 31 1 -13 
2 66 1 -10 1 -23 1 41 1 -8 1 18 1 26 1 -8 
1 -20 1 -8 1 19 5727 2974 100 MP stroke
1 9 1 -8 1 15 1 -12 2 -5 1 9 1 -6 1 -14 
1 10 1 18 1 14 1 13 1 -21 1 -2 1 0 1 20 
1 -10 1 -14 1 34 2 -4 1 8 1 -5 1 40 1 11 
1 16 1 57 1 -3 1 -7 1 35 1 65 1 0 1 0 
1 11 1 -2 2 14 1 -12 1 15 1 82 1 22 1 -4 
1 0 1 0 1 -13 1 7 1 -33 1 41 1 64 1 -3 
1 20 2 -6 1 -1 1 -15 1 9 1 0 1 21 1 28 
1 -1 1 27 1 -1 1 19 1 8 1 -1 1 -12 1 -8 
2 29 1 -15 1 -1 1 -30 1 0 1 -5 1 11 1 -19 
1 7 1 -23 1 15 1 -37 1 -5 1 -5 1 -5 1 -1 
2 -1 1 20 1 12 1 -16 1 28 1 -11 1 9 1 16 
1 -6 1 0 1 3 1 -22 1 22 1 -10 1 -5 2 85 
1 -30 1 5 1 -2 5621 2422 100 MP stroke
1 14 1 1 1 -45 1 -10 1 -30 1 -10 1 45 1 0 
1 -15 1 20 1 -7 2 -1 1 8 1 17 1 7 1 -10 
1 9 1 -3 1 -6 1 40 1 -13 1 -28 1 -23 1 26 
1 -6 1 -38 2 16 1 9 1 -10 1 0 1 -10 1 -6 
1 49 1 -35 1 -27 1 -1 1 6 1 6 1 30 1 -14 
1 8 2 -56 1 -46 1 -11 1 3 1 -11 1 -4 1 -11 
1 5 1 11 1 -11 1 2 1 30 1 -7 1 -30 1 7 
2 3 1 7 1 -6 1 -7 1 -37 1 31 1 -17 1 53 
1 16 1 -15 1 16 1 11 1 -10 1 1 1 62 2 32 
1 -4 1 -40 1 28 1 -4 1 -10 1 0 1 -3 1 -3 
1 22 1 10 1 7 1 12 1 8 1 -7 2 -23 1 8 
1 64 1 39 1 -14 1 -1 1 11 1 -5 1 3 1 -25 
1 10 1 -1 1 -25 5516 2391 100 MP stroke
1 -17 1 11 1 -6 2 -47 1 -7 1 9 1 -3 1 0 
1 -3 1 -34 1 -5 1 18 1 -18 1 -17 1 -15 1 -7 
1 10 1 -13 2 -18 1 58 1 5 1 -13 1 -2 1 14 
1 3 1 -27 1 -1 1 6 1 -1 1 -7 1 -7 1 28 
1 -60 2 16 1 -8 1 2 1 -8 1 9 1 19 1 -11 
1 13 1 51 1 -7 1 10 1 -27 1 -6 1 2 1 44 
2 -9 1 -29 1 1 1 -29 1 -1 1 54 1 17 1 -6 
1 0 1 6 1 -15 1 15 1 9 1 2 1 -9 2 -20 
1 24 1 -14 1 1 1 -12 1 25 1 -6 1 -3 1 -5 
1 0 1 -18 1 -3 1 6 1 -5 1 27 2 23 1 -15 
1 32 1 19 1 8 1 -4 1 1 1 -4 1 -2 1 -36 
1 5 1 15 1 11 1 -15 1 -18 2 10 1 6 1 4 
1 26 1 11 1 -20 5410 2398 100 MP stroke
1 0 1 -15 1 3 1 4 1 0 1 -12 1 4 1 -1 
1 -2 1 -8 2 -1 1 -6 1 -10 1 17 1 -10 1 -13 
1 12 1 83 1 13 1 -16 1 -2 1 0 1 -8 1 0 
1 4 2 9 1 -2 1 30 1 -5 1 0 1 10 1 -12 
1 0 1 7 1 -17 1 -31 1 -5 1 -9 1 14 1 -15 
2 -15 1 20 1 8 1 40 1 6 1 -16 1 12 1 -9 
1 7 1 -10 1 -24 1 31 1 -9 1 -5 1 -18 2 2 
1 47 1 3 1 51 1 -2 1 0 1 22 1 2 1 12 
1 13 1 15 1 21 1 39 1 7 1 2 2 -11 1 19 
1 -12 1 11 1 -33 1 52 1 -22 1 46 1 -2 1 6 
1 2 1 -9 1 10 1 6 1 75 2 41 1 -22 1 -33 
1 27 1 1 1 -15 1 -1 1 0 1 -13 1 21 1 -48 
1 37 1 21 1 -22 5305 2004 100 MP stroke
1 18 2 -10 1 -12 1 8 1 -6 1 24 1 13 1 0 
1 -1 1 26 1 18 1 -15 1 17 1 5 1 41 1 -10 
2 25 1 10 1 0 1 4 1 23 1 -6 1 1 1 5 
1 -6 1 3 1 -24 1 -11 1 0 1 18 1 -7 1 -14 
2 5 1 7 1 -12 1 -5 1 26 1 -27 1 -47 1 -4 
1 -17 1 4 1 32 1 -38 1 34 1 -9 1 -7 2 4 
1 14 1 -5 1 -3 1 -7 1 68 1 11 1 6 1 17 
1 -3 1 -10 1 32 1 -19 1 41 1 -14 2 34 1 -14 
1 20 1 -46 1 -3 1 -7 1 -11 1 13 1 -2 1 -7 
1 -23 1 -7 1 17 1 -7 1 11 2 -14 1 14 1 -15 
1 40 1 -63 1 -3 1 -10 1 53 1 -7 1 7 1 2 
1 -8 1 -8 1 25 1 -9 2 4 1 43 1 1 1 -1 
1 -5 1 -3 1 -1 5199 1783 100 MP stroke
1 6 1 -16 1 26 1 14 1 -27 1 -9 1 34 1 2 
2 0 1 0 1 7 1 -2 1 -46 1 -6 1 -9 1 2 
1 8 1 3 1 -9 1 21 1 -19 1 31 1 26 2 23 
1 10 1 9 1 -11 1 1 1 -5 1 -26 1 -11 1 -7 
1 40 1 -10 1 4 1 -5 1 8 1 -13 1 -2 2 -42 
1 -17 1 -9 1 -26 1 -12 1 3 1 11 1 -11 1 10 
1 -2 1 -47 1 17 1 -37 1 -48 1 -1 2 37 1 -7 
1 -12 1 8 1 -27 1 -33 1 -10 1 -33 1 8 1 12 
1 -16 1 16 1 -16 1 16 1 -7 2 32 1 25 1 11 
1 -1 1 30 1 8 1 -9 1 -12 1 -3 1 -1 1 20 
1 4 1 -9 1 -11 1 0 2 5 1 -21 1 -41 1 11 
1 62 1 -10 1 -12 1 5 1 -9 1 -4 1 13 1 1 
1 -10 1 -13 1 9 5094 1946 100 MP stroke
2 -43 1 -8 1 4 1 -6 1 21 1 -8 1 -10 1 -104 
1 5 1 -14 1 4 1 3 1 -2 1 10 1 -5 2 17 
1 46 1 7 1 -7 1 54 1 -16 1 -5 1 -25 1 15 
1 -13 1 24 1 -41 1 17 1 30 1 -3 2 0 1 -23 
1 1 1 13 1 -21 1 -13 1 6 1 -32 1 8 1 3 
1 7 1 0 1 2 1 -5 1 -11 2 -18 1 22 1 4 
1 24 1 5 1 0 1 -12 1 24 1 16 1 -31 1 118 
1 -54 1 -3 1 8 1 -11 1 7 2 16 1 9 1 -17 
1 -5 1 -35 1 -12 1 -12 1 -8 1 -1 1 6 1 -9 
1 11 1 9 1 18 1 -15 2 8 1 -19 1 -8 1 -17 
1 -18 1 -2 1 8 1 4 1 -16 1 8 1 -11 1 -41 
1 11 1 -13 1 -11 2 -12 1 8 1 3 1 -12 1 -4 
1 -14 1 0 1 -11 4988 2169 100 MP stroke
1 67 1 11 1 -12 1 -4 1 8 1 10 1 2 2 -16 
1 4 1 -3 1 -9 1 9 1 -1 1 11 1 6 1 -26 
1 25 1 3 1 -8 1 -13 1 3 1 -16 2 23 1 46 
1 10 1 30 1 33 1 2 1 3 1 -15 1 12 1 43 
1 60 1 2 1 -2 1 -1 1 -14 2 1 1 -4 1 -12 
1 23 1 -10 1 -8 1 23 1 29 1 41 1 40 1 -2 
1 41 1 26 1 -21 1 13 2 -53 1 11 1 12 1 27 
1 11 1 12 1 12 1 -2 1 -10 1 -6 1 -24 1 38 
1 4 1 4 1 -11 1 4 2 21 1 -8 1 -5 1 13 
1 -32 1 -10 1 -17 1 -42 1 -15 1 6 1 -3 1 4 
1 -3 1 45 1 19 2 -67 1 18 1 6 1 -7 1 -12 
1 4 1 -19 1 5 1 48 1 9 1 -14 1 51 1 -7 
1 18 1 8 2 -6 4882 1669 100 MP stroke
1 0 1 -15 1 -29 1 -13 1 42 1 1 1 -10 1 7 
1 -11 1 25 1 -14 1 25 1 14 1 -9 2 7 1 -2 
1 -40 1 13 1 18 1 -1 1 -39 1 19 1 19 1 22 
1 -9 1 -8 1 11 1 3 1 -3 2 3 1 -9 1 -35 
1 -27 1 -41 1 4 1 8 1 -4 1 -12 1 14 1 -16 
1 -4 1 10 1 40 1 11 2 8 1 12 1 -9 1 8 
1 6 1 -29 1 -107 1 2 1 -2 1 -4 1 7 1 -3 
1 6 1 -7 1 23 2 -5 1 14 1 -14 1 20 1 5 
1 0 1 9 1 -6 1 -4 1 -7 1 -10 1 2 1 60 
1 -5 1 -2 2 21 1 12 1 -6 1 3 1 -27 1 33 
1 -18 1 -8 1 8 1 -8 1 8 1 23 1 2 1 24 
1 -30 1 18 2 -7 1 -11 1 13 1 -12 1 -19 1 -9 
1 -7 1 -35 1 -38 4777 1806 100 MP stroke
1 3 1 4 1 12 1 4 1 -26 1 22 2 8 1 -17 
1 1 1 -4 1 -2 1 14 1 -9 1 -12 1 -2 1 15 
1 -15 1 3 1 8 1 -1 1 -23 2 15 1 24 1 -2 
1 9 1 -9 1 -13 1 -14 1 29 1 -16 1 -9 1 -24 
1 -55 1 -6 1 2 1 8 2 -5 1 -18 1 1 1 27 
1 -41 1 -5 1 4 1 22 1 -12 1 -5 1 10 1 -11 
1 18 1 -18 1 -4 2 -5 1 17 1 3 1 -6 1 -14 
1 -46 1 30 1 -7 1 -27 1 -4 1 -3 1 -1 1 5 
1 -35 1 -30 2 75 1 43 1 10 1 6 1 -2 1 0 
1 23 1 -25 1 -35 1 -23 1 -1 1 10 1 14 1 -26 
1 3 2 6 1 10 1 14 1 -26 1 16 1 -35 1 -33 
1 -28 1 4 1 -39 1 -26 1 -8 1 -4 1 -21 1 0 
2 37 1 -6 1 -1 4671 2112 100 MP stroke
1 3 1 -4 1 7 1 11 1 6 1 -119 1 36 1 -3 
1 14 1 -11 1 3 1 -14 1 -2 2 -11 1 2 1 33 
1 2 1 -27 1 -29 1 -14 1 4 1 10 1 2 1 11 
1 -18 1 13 1 -3 1 5 2 5 1 6 1 -10 1 8 
1 7 1 57 1 30 1 -2 1 25 1 8 1 -1 1 -4 
1 26 1 -15 1 64 2 5 1 -7 1 -6 1 -4 1 2 
1 0 1 4 1 5 1 -11 1 -6 1 -1 1 63 1 -39 
1 10 1 -5 2 -1 1 21 1 -8 1 -14 1 15 1 16 
1 -17 1 -10 1 -3 1 11 1 -10 1 1 1 -12 1 -27 
1 9 2 20 1 -15 1 33 1 -1 1 5 1 -9 1 -10 
1 -1 1 23 1 -1 1 -40 1 34 1 6 1 -8 1 13 
2 19 1 -17 1 -2 1 -2 1 -23 1 20 1 10 1 -8 
1 13 1 22 1 -23 4566 1962 100 MP stroke
1 9 1 -11 1 -38 1 -7 2 3 1 8 1 -4 1 -12 
1 7 1 0 1 15 1 -22 1 -18 1 -15 1 -70 1 9 
1 -14 1 -3 1 -17 1 -3 2 2 1 57 1 40 1 18 
1 -22 1 20 1 -13 1 7 1 24 1 -24 1 -17 1 20 
1 27 1 12 1 -56 2 -1 1 16 1 -40 1 46 1 -22 
1 -68 1 -25 1 -14 1 67 1 -6 1 -15 1 18 1 8 
1 8 1 -12 2 -27 1 10 1 -18 1 35 1 15 1 -10 
1 -11 1 -6 1 15 1 41 1 17 1 10 1 -74 1 -26 
1 4 2 -20 1 10 1 10 1 5 1 -15 1 35 1 -97 
1 2 1 -4 1 -12 1 7 1 21 1 8 1 -14 1 17 
2 58 1 27 1 5 1 -8 1 -14 1 2 1 -7 1 4 
1 8 1 -15 1 17 1 2 1 6 1 36 1 26 2 16 
1 -5 1 7 1 -6 4460 2003 100 MP stroke
1 31 1 26 1 12 1 -12 1 1 1 3 1 6 1 14 
1 -5 1 -111 1 -46 2 38 1 5 1 -4 1 -2 1 12 
1 7 1 6 1 -7 1 0 1 -9 1 12 1 10 1 -20 
1 -4 1 -11 2 -30 1 20 1 22 1 10 1 -20 1 -31 
1 11 1 -16 1 -2 1 -8 1 -37 1 133 1 -18 1 12 
1 -44 1 18 2 -18 1 0 1 -10 1 -12 1 32 1 -30 
1 -22 1 41 1 47 1 13 1 1 1 4 1 -9 1 12 
1 13 2 -62 1 -34 1 36 1 41 1 -5 1 7 1 -14 
1 11 1 -7 1 83 1 9 1 35 1 24 1 33 1 -6 
2 -15 1 1 1 -12 1 1 1 52 1 -8 1 22 1 -49 
1 -6 1 99 1 12 1 0 1 -29 1 115 1 35 2 -41 
1 -21 1 2 1 -8 1 -16 1 23 1 -14 1 -14 1 -18 
1 -11 1 31 1 -18 4355 1705 100 MP stroke
1 6 1 -40 1 12 2 -12 1 -4 1 -2 1 42 1 45 
1 38 1 0 1 -35 1 -9 1 14 1 20 1 3 1 50 
1 13 1 -16 2 -25 1 -11 1 0 1 9 1 7 1 22 
1 -28 1 -80 1 5 1 11 1 -6 1 -9 1 -13 1 -4 
1 16 2 -2 1 2 1 14 1 17 1 -49 1 4 1 2 
1 14 1 1 1 -26 1 -4 1 -10 1 -1 1 26 1 -21 
1 1 2 -16 1 -9 1 -6 1 -10 1 2 1 11 1 61 
1 39 1 -7 1 7 1 -4 1 -2 1 -10 1 -4 1 48 
2 25 1 -7 1 82 1 -6 1 27 1 -2 1 -24 1 25 
1 11 1 -9 1 -23 1 11 1 -42 1 -19 1 1 2 20 
1 -18 1 -7 1 -15 1 -19 1 44 1 -47 1 7 1 -13 
1 -10 1 0 1 -25 1 58 1 122 1 -31 2 -50 1 5 
1 2 1 1 1 0 4249 1544 100 MP stroke
1 6 1 0 1 -12 1 -40 1 -20 1 -40 1 -16 1 -43 
1 47 1 10 2 6 1 -53 1 21 1 20 1 -27 1 2 
1 -23 1 15 1 13 1 2 1 -14 1 -16 1 -15 1 -38 
1 48 2 -24 1 12 1 -24 1 -24 1 30 1 -2 1 -62 
1 -11 1 25 1 59 1 -40 1 59 1 25 1 15 1 48 
2 -99 1 18 1 -37 1 60 1 20 1 20 1 42 1 29 
1 -33 1 -1 1 -43 1 26 1 -8 1 31 1 34 2 16 
1 20 1 9 1 1 1 7 1 10 1 5 1 -14 1 20 
1 -57 1 -19 1 -18 1 16 1 34 1 -18 1 8 2 11 
1 1 1 -13 1 -5 1 13 1 7 1 -14 1 -33 1 -24 
1 -63 1 -19 1 -11 1 1 1 3 1 11 2 2 1 -15 
1 -5 1 96 1 2 1 53 1 -50 1 -2 1 -4 1 -2 
1 -13 1 -7 1 -35 4144 1661 100 MP stroke
1 -13 1 -50 2 -15 1 -28 1 -18 1 0 1 -6 1 12 
1 -34 1 32 1 -26 1 -96 1 -50 1 14 1 -17 1 36 
1 5 2 6 1 -5 1 -35 1 -12 1 5 1 31 1 -26 
1 16 1 24 1 15 1 8 1 -26 1 -7 1 -18 1 63 
2 -15 1 -33 1 -7 1 -18 1 -20 1 9 1 -8 1 16 
1 -27 1 -27 1 -4 1 -2 1 9 1 -7 1 -1 2 -11 
1 -4 1 -26 1 -36 1 -22 1 5 1 1 1 -2 1 4 
1 15 1 -15 1 -1 1 -104 1 -24 1 17 2 7 1 33 
1 -5 1 -13 1 -3 1 -27 1 5 1 1 1 21 1 -8 
1 1 1 8 1 -11 1 26 1 -19 1 9 2 -17 1 -40 
1 7 1 -19 1 -5 1 14 1 20 1 -6 1 6 1 42 
1 27 1 2 1 -17 1 -4 1 3 2 -12 1 -7 1 -15 
1 17 1 14 1 -28 4038 2207 100 MP stroke
1 -14 1 -12 1 -1 1 6 1 6 1 2 1 -29 1 17 
1 -18 2 -17 1 -15 1 -5 1 15 1 -6 1 1 1 21 
1 34 1 -3 1 6 1 25 1 -3 1 -16 1 -2 1 23 
2 -8 1 -89 1 3 1 15 1 3 1 -2 1 -7 1 -25 
1 -11 1 9 1 -5 1 -10 1 -4 1 31 1 7 2 4 
1 -4 1 6 1 -6 1 -11 1 -3 1 98 1 28 1 -41 
1 3 1 2 1 -7 1 23 1 -9 1 16 2 -44 1 5 
1 4 1 4 1 -2 1 4 1 4 1 4 1 0 1 17 
1 -22 1 43 1 -36 1 3 1 -16 2 -4 1 13 1 -12 
1 -6 1 -76 1 -11 1 -8 1 31 1 1 1 -5 1 -4 
1 0 1 -15 1 12 1 20 2 10 1 -23 1 29 1 -3 
1 7 1 2 1 -5 1 -20 1 13 1 -33 1 -16 1 -24 
1 -20 1 -7 1 47 3933 2325 100 MP stroke
1 4 2 -21 1 -7 1 10 1 -23 1 -21 1 -5 1 8 
1 -2 1 -3 1 7 1 3 1 -4 1 -9 1 10 1 15 
2 -2 1 13 1 11 1 -6 1 -1 1 -18 1 -26 1 -3 
1 9 1 -17 1 13 1 -15 1 -5 1 -2 1 -10 2 22 
1 -13 1 -15 1 33 1 20 1 -14 1 -26 1 -16 1 13 
1 23 1 66 1 10 1 -40 1 17 1 -24 2 -19 1 19 
1 -3 1 11 1 3 1 21 1 -16 1 8 1 25 1 22 
1 -33 1 16 1 -13 1 13 1 -26 2 -74 1 0 1 0 
1 0 1 0 1 0 1 0 1 -28 1 13 1 -23 1 26 
1 -21 1 49 1 -26 1 -9 2 6 1 5 1 10 1 -12 
1 -10 1 17 1 -46 1 -34 1 -4 1 7 1 -8 1 -8 
1 2 1 -42 1 -31 2 1 1 -36 1 -7 1 -4 1 17 
1 0 1 1 1 -1 3827 2608 100 MP stroke
1 -20 1 6 1 -53 1 12 1 -5 1 1 1 15 1 11 
2 -15 1 25 1 25 1 -8 1 4 1 9 1 -3 1 -1 
1 1 1 -7 1 -8 1 5 1 -33 1 2 1 -8 2 -8 
1 6 1 -6 1 5 1 -11 1 1 1 13 1 0 1 0 
1 -15 1 -16 1 1 1 -1 1 1 1 -36 2 -21 1 18 
1 21 1 6 1 -20 1 9 1 -2 1 10 1 -40 1 0 
1 3 1 3 1 27 1 21 1 14 2 -8 1 35 1 -12 
1 -7 1 -5 1 -9 1 1 1 0 1 -3 1 1 1 4 
1 -2 1 -16 1 26 1 -23 2 -48 1 9 1 -23 1 -11 
1 -10 1 0 1 -3 1 7 1 -9 1 -13 1 6 1 0 
1 9 1 -10 1 -19 2 11 1 -24 1 7 1 21 1 12 
1 -20 1 7 1 28 1 -3 1 3 1 -7 1 13 1 -13 
1 20 1 -21 2 24 3721 2745 100 MP stroke
1 -3 1 0 1 -2 1 -11 1 3 1 -5 1 -5 1 20 
1 59 1 11 1 -14 1 0 1 20 1 32 2 -13 1 7 
1 -23 1 -14 1 76 1 61 1 -15 1 15 1 8 1 -4 
1 -2 1 -16 1 -28 1 -55 1 -21 1 22 2 7 1 3 
1 -4 1 -3 1 -5 1 11 1 57 1 11 1 8 1 16 
1 1 1 2 1 -2 1 2 1 -16 2 28 1 -8 1 -14 
1 -16 1 10 1 -2 1 -5 1 -10 1 3 1 -14 1 -15 
1 -1 1 -2 1 12 1 -3 2 -5 1 4 1 -13 1 -10 
1 24 1 -34 1 -23 1 -13 1 2 1 -12 1 17 1 -17 
1 34 1 -1 1 22 2 -25 1 -17 1 -18 1 -5 1 -2 
1 -7 1 0 1 1 1 -6 1 -16 1 28 1 47 1 -22 
1 -3 1 -7 2 7 1 25 1 -42 1 3 1 -1 1 -65 
1 -9 1 -3 1 5 3616 2748 100 MP stroke
1 10 1 -9 1 6 1 -27 1 10 1 17 2 22 1 8 
1 -3 1 15 1 8 1 -1 1 1 1 13 1 1 1 -2 
1 8 1 -16 1 7 1 -6 1 4 2 -6 1 -8 1 -38 
1 -1 1 -56 1 -12 1 -1 1 -7 1 -7 1 0 1 6 
1 7 1 67 1 46 1 -6 1 10 2 13 1 20 1 3 
1 4 1 17 1 -14 1 -26 1 29 1 -4 1 1 1 -12 
1 -4 1 -13 1 13 1 -7 2 30 1 -13 1 -37 1 38 
1 -9 1 4 1 4 1 -15 1 18 1 -2 1 -77 1 6 
1 -10 1 5 1 5 2 5 1 -48 1 8 1 -9 1 10 
1 -2 1 14 1 -5 1 9 1 -2 1 5 1 1 1 5 
1 -112 1 4 2 18 1 -24 1 31 1 3 1 -18 1 -13 
1 4 1 -1 1 -7 1 23 1 58 1 5 1 -18 1 -3 
1 -7 2 8 1 -4 3510 2783 100 MP stroke
1 -10 1 0 1 -11 1 -7 1 -7 1 -5 1 5 1 3 
1 -9 1 10 1 44 1 63 1 -8 2 -1 1 14 1 -7 
1 7 1 -19 1 3 1 14 1 -24 1 43 1 10 1 -18 
1 4 1 8 1 -7 1 -6 2 2 1 -2 1 29 1 -12 
1 28 1 35 1 5 1 -9 1 0 1 13 1 -9 1 -89 
1 11 1 9 1 28 2 10 1 -22 1 -7 1 9 1 4 
1 -24 1 10 1 -38 1 5 1 -32 1 25 1 4 1 2 
1 -10 1 22 1 22 2 47 1 -20 1 26 1 -23 1 -10 
1 -14 1 6 1 -1 1 -18 1 13 1 -1 1 6 1 -23 
1 12 1 4 2 1 1 8 1 4 1 2 1 -10 1 17 
1 -29 1 -7 1 -6 1 -13 1 9 1 -9 1 19 1 29 
1 58 2 13 1 16 1 -22 1 11 1 2 1 -1 1 51 
1 9 1 -3 1 12 3405 2510 100 MP stroke
1 10 1 -15 1 5 1 10 1 16 2 -16 1 17 1 8 
1 20 1 63 1 7 1 3 1 -6 1 -4 1 7 1 7 
1 -13 1 -41 1 16 1 -46 2 17 1 -14 1 -4 1 8 
1 -3 1 10 1 -10 1 19 1 12 1 1 1 15 1 -2 
1 -2 1 -3 1 -2 2 4 1 44 1 21 1 3 1 29 
1 3 1 -6 1 -2 1 0 1 -1 1 1 1 9 1 15 
1 -42 1 30 2 4 1 8 1 10 1 -22 1 13 1 -48 
1 -127 1 -28 1 -4 1 31 1 -1 1 17 1 -6 1 6 
1 -10 2 71 1 13 1 -10 1 1 1 -2 1 4 1 -10 
1 -11 1 -2 1 -4 1 2 1 -1 1 9 1 -13 1 4 
1 -7 2 -3 1 49 1 41 1 -18 1 -2 1 21 1 13 
1 6 1 -4 1 -2 1 -5 1 1 1 -9 1 14 1 15 
2 -3 1 4 1 4 3299 2303 100 MP stroke
1 -9 1 -7 1 -3 1 40 1 -29 1 -161 1 32 1 -2 
1 -13 1 -3 1 6 1 4 2 6 1 -17 1 -19 1 31 
1 22 1 -16 1 3 1 -7 1 5 1 -9 1 6 1 -39 
1 -15 1 4 1 13 2 13 1 21 1 -1 1 16 1 -8 
1 -8 1 -15 1 -34 1 15 1 37 1 13 1 7 1 -31 
1 37 1 -11 2 -3 1 5 1 32 1 -51 1 -12 1 -13 
1 9 1 -20 1 -2 1 -4 1 25 1 -51 1 -1 1 -4 
1 21 2 -9 1 10 1 -11 1 -7 1 21 1 -38 1 30 
1 61 1 -15 1 3 1 1 1 3 1 -15 1 6 1 -30 
2 -2 1 -13 1 38 1 17 1 -5 1 -12 1 -6 1 -4 
1 9 1 111 1 41 1 7 1 -8 1 6 1 -12 1 -1 
2 5 1 -16 1 9 1 -6 1 2 1 -14 1 -10 1 -10 
1 -18 1 -12 1 -6 3194 2398 100 MP stroke
1 13 1 39 1 -10 1 4 2 37 1 10 1 -3 1 15 
1 -10 1 29 1 -2 1 -27 1 -2 1 -40 1 20 1 -15 
1 2 1 26 1 -23 2 -33 1 24 1 42 1 63 1 11 
1 -14 1 2 1 9 1 2 1 27 1 -6 1 15 1 6 
1 45 1 16 2 1 1 -9 1 25 1 1 1 9 1 9 
1 -7 1 -6 1 27 1 17 1 -4 1 8 1 -20 1 4 
1 -19 2 26 1 -140 1 -10 1 -31 1 15 1 -13 1 13 
1 -3 1 -5 1 5 1 -8 1 -11 1 -3 1 19 1 14 
2 10 1 13 1 -5 1 10 1 0 1 7 1 -8 1 0 
1 -4 1 11 1 -7 1 0 1 -14 1 -10 1 20 2 14 
1 -14 1 -13 1 22 1 -2 1 32 1 28 1 -6 1 -9 
1 -29 1 30 1 -33 1 -9 1 -4 1 31 2 -17 1 -15 
1 -18 1 -26 1 0 3088 2237 100 MP stroke
1 -2 1 14 1 4 1 17 1 -40 1 -4 1 23 1 20 
1 -21 1 -29 1 16 2 20 1 -1 1 1 1 4 1 10 
1 -5 1 -15 1 -11 1 14 1 -60 1 -15 1 -24 1 1 
1 5 1 14 2 -9 1 -4 1 -49 1 -33 1 18 1 -15 
1 -3 1 -16 1 0 1 -3 1 -3 1 31 1 2 1 -10 
1 13 2 7 1 3 1 -25 1 21 1 -17 1 -17 1 -83 
1 6 1 -1 1 13 1 -9 1 3 1 -8 1 -3 1 -24 
2 -1 1 15 1 -26 1 23 1 -5 1 46 1 -22 1 -2 
1 -37 1 0 1 -13 1 -24 1 -56 1 45 1 5 2 -16 
1 4 1 -5 1 19 1 44 1 42 1 14 1 38 1 4 
1 -3 1 22 1 1 1 -27 1 16 1 36 2 -52 1 -12 
1 -15 1 -1 1 21 1 7 1 -10 1 -32 1 -19 1 51 
1 -26 1 6 1 3 2983 2458 100 MP stroke
1 6 1 -6 2 10 1 10 1 -37 1 -28 1 -38 1 38 
1 -27 1 2 1 4 1 21 1 -5 1 14 1 -1 1 -20 
1 6 1 84 2 -36 1 -7 1 -15 1 5 1 -14 1 24 
1 -10 1 -14 1 56 1 21 1 17 1 2 1 8 1 -6 
1 7 2 -21 1 6 1 22 1 13 1 27 1 -7 1 9 
1 -4 1 4 1 -5 1 -3 1 -17 1 -38 1 -17 1 20 
2 21 1 4 1 15 1 0 1 -3 1 13 1 -17 1 -23 
1 -44 1 -16 1 11 1 9 1 0 1 14 1 19 2 -13 
1 6 1 18 1 -8 1 8 1 -11 1 12 1 -30 1 -5 
1 -56 1 -53 1 -12 1 8 1 9 1 8 2 -15 1 -5 
1 -7 1 39 1 -69 1 17 1 -8 1 48 1 -6 1 19 
1 12 1 -1 1 -10 1 30 1 1 2 15 1 42 1 63 
1 15 1 19 1 13 2877 2302 100 MP stroke
1 -5 1 -61 1 -82 1 38 1 7 1 -10 1 4 1 -12 
1 -2 2 5 1 15 1 -12 1 6 1 80 1 -27 1 -1 
1 -1 1 38 1 -37 1 -13 1 15 1 6 1 39 1 22 
2 -25 1 -18 1 -10 1 20 1 1 1 4 1 -41 1 20 
1 11 1 47 1 6 1 -2 1 -17 1 -30 1 -6 1 -8 
2 12 1 -24 1 7 1 -4 1 11 1 -5 1 5 1 13 
1 -10 1 22 1 -37 1 -34 1 -20 1 27 1 -15 2 6 
1 0 1 10 1 -14 1 106 1 -3 1 -14 1 10 1 -13 
1 -24 1 -7 1 1 1 -17 1 -5 1 1 2 5 1 0 
1 -12 1 -26 1 -29 1 37 1 -21 1 7 1 3 1 25 
1 -4 1 -2 1 3 1 -6 1 9 2 -20 1 -6 1 -17 
1 55 1 -19 1 27 1 25 1 -27 1 -4 1 -4 1 13 
1 -23 1 9 1 -54 2772 2409 100 MP stroke
1 -41 2 -10 1 2 1 -38 1 -46 1 14 1 7 1 -17 
1 18 1 12 1 -9 1 -8 1 -35 1 21 1 -10 1 9 
2 2 1 7 1 -19 1 -54 1 3 1 -76 1 -14 1 -9 
1 -18 1 12 1 12 1 -18 1 3 1 -16 1 -43 2 27 
1 -18 1 16 1 8 1 23 1 -7 1 9 1 5 1 -41 
1 -35 1 -31 1 -4 1 -6 1 7 1 -37 1 3 2 4 
1 -37 1 -10 1 52 1 50 1 19 1 15 1 -16 1 -1 
1 -13 1 7 1 13 1 -76 1 -21 1 -32 2 9 1 -3 
1 -4 1 19 1 -14 1 -22 1 20 1 -19 1 8 1 11 
1 17 1 -8 1 4 1 -1 1 10 2 -7 1 -16 1 -9 
1 -4 1 -52 1 17 1 -12 1 -2 1 37 1 -108 1 90 
1 0 1 0 1 0 1 0 2 0 1 0 1 8 1 17 
1 -1 1 6 1 24 2666 2880 100 MP stroke
1 1 1 36 1 -5 1 -6 1 23 1 7 1 -31 1 -39 
2 -57 1 15 1 -21 1 16 1 -43 1 16 1 -9 1 27 
1 -34 1 143 1 14 1 1 1 2 1 -6 1 14 2 -13 
1 11 1 -17 1 19 1 0 1 34 1 15 1 12 1 21 
1 5 1 -21 1 27 1 74 1 -61 1 7 2 1 1 6 
1 16 1 7 1 -5 1 -5 1 9 1 -12 1 -35 1 31 
1 -3 1 -10 1 -8 1 18 1 2 2 -20 1 12 1 73 
1 -41 1 16 1 4 1 -24 1 4 1 -30 1 -11 1 19 
1 -43 1 -51 1 -60 1 0 1 0 2 -20 1 4 1 0 
1 24 1 -22 1 18 1 21 1 -3 1 -9 1 34 1 -8 
1 7 1 -43 1 31 1 -44 2 -32 1 45 1 15 1 -28 
1 11 1 17 1 -15 1 5 1 -38 1 -38 1 30 1 9 
1 2 1 -11 1 32 2561 2849 100 MP stroke
2 1 1 10 1 14 1 71 1 27 1 3 1 25 1 -23 
1 23 1 1 1 -13 1 18 1 -46 1 7 1 23 2 -38 
1 -10 1 -3 1 19 1 7 1 -4 1 -9 1 7 1 -54 
1 -47 1 -10 1 1 1 -28 1 29 1 -10 2 -19 1 -19 
1 70 1 15 1 -28 1 -15 1 7 1 18 1 -14 1 -50 
1 21 1 -5 1 -22 1 -4 1 45 2 12 1 -33 1 42 
1 3 1 14 1 20 1 -72 1 5 1 84 1 5 1 -8 
1 19 1 17 1 64 1 -15 2 -2 1 27 1 29 1 10 
1 16 1 28 1 8 1 10 1 3 1 3 1 -15 1 53 
1 -40 1 -47 1 -2 1 -17 2 -15 1 6 1 -4 1 -26 
1 -66 1 68 1 -39 1 -18 1 -12 1 37 1 1 1 -28 
1 -51 1 19 1 -36 2 112 1 -25 1 5 1 -25 1 24 
1 -2 1 -5 1 0 2455 2717 100 MP stroke
1 80 1 50 1 24 1 32 1 14 1 16 1 11 2 -14 
1 -7 1 5 1 62 1 11 1 111 1 -3 1 -17 1 7 
1 -3 1 -10 1 -29 1 24 1 -24 1 -10 2 1 1 -3 
1 3 1 8 1 -6 1 -3 1 9 1 -6 1 1 1 -6 
1 -14 1 5 1 -3 1 24 1 -13 2 24 1 -30 1 50 
1 18 1 40 1 -33 1 -4 1 -4 1 -4 1 23 1 -33 
1 6 1 1 1 -19 1 50 2 -28 1 20 1 2 1 -22 
1 -16 1 -11 1 -18 1 -53 1 -41 1 2 1 31 1 -24 
1 -5 1 -36 1 -20 2 15 1 32 1 63 1 -10 1 -7 
1 11 1 15 1 11 1 -24 1 21 1 133 1 4 1 23 
1 19 1 13 2 -1 1 12 1 -16 1 1 1 22 1 -53 
1 -24 1 -67 1 14 1 -2 1 13 1 4 1 -26 1 -14 
1 -35 1 0 2 6 2349 2371 100 MP stroke
1 -19 1 0 1 -44 1 1 1 2 1 17 1 -17 1 -8 
1 -20 1 -6 1 -9 1 -5 1 -13 1 1 2 -19 1 32 
1 -30 1 -2 1 -54 1 14 1 3 1 15 1 18 1 -25 
1 13 1 21 1 7 1 -59 1 -38 2 41 1 -13 1 -12 
1 -2 1 28 1 -16 1 -40 1 31 1 58 1 66 1 7 
1 3 1 -10 1 -3 1 65 2 15 1 -19 1 97 1 29 
1 0 1 11 1 33 1 -23 1 2 1 -14 1 -38 1 0 
1 7 1 29 1 -2 2 -13 1 5 1 -8 1 16 1 -6 
1 -16 1 -7 1 -88 1 -14 1 -22 1 25 1 10 1 -15 
1 -25 1 61 2 -27 1 -18 1 26 1 7 1 1 1 7 
1 -15 1 6 1 14 1 -95 1 2 1 -16 1 33 1 -5 
1 -18 2 -50 1 7 1 -11 1 -42 1 32 1 -38 1 25 
1 11 1 21 1 -62 2244 2567 100 MP stroke
1 24 1 35 1 -45 1 44 1 -2 1 -45 2 -24 1 -32 
1 -2 1 10 1 10 1 -35 1 -36 1 51 1 38 1 5 
1 -42 1 -20 1 8 1 11 1 -7 2 -40 1 -1 1 -8 
1 -4 1 1 1 9 1 68 1 35 1 17 1 -47 1 -34 
1 22 1 -11 1 -70 1 55 2 -26 1 29 1 5 1 43 
1 -27 1 -13 1 139 1 -3 1 -8 1 65 1 -16 1 -3 
1 9 1 54 1 36 2 -15 1 33 1 91 1 31 1 8 
1 -22 1 -28 1 -9 1 -55 1 39 1 7 1 39 1 -47 
1 6 1 -27 2 -9 1 20 1 -7 1 -15 1 2 1 -185 
1 -1 1 31 1 -14 1 16 1 -10 1 12 1 -22 1 37 
1 -27 2 39 1 58 1 -40 1 -20 1 -8 1 28 1 -9 
1 -43 1 43 1 16 1 30 1 -8 1 -23 1 41 1 5 
2 23 1 -4 1 28 2138 2310 100 MP stroke
1 104 1 17 1 42 1 26 1 -2 1 13 1 6 1 -15 
1 19 1 -20 1 9 1 -22 2 61 1 -23 1 15 1 14 
1 -47 1 -10 1 -29 1 -42 1 -66 1 21 1 75 1 14 
1 2 1 -1 1 -15 1 1 2 -6 1 -11 1 19 1 23 
1 75 1 20 1 -22 1 -21 1 2 1 17 1 82 1 50 
1 -22 1 22 1 -16 2 13 1 4 1 -4 1 -1 1 -9 
1 -109 1 -3 1 -52 1 -28 1 -8 1 4 1 27 1 -7 
1 -8 1 18 2 -56 1 -20 1 -5 1 2 1 -9 1 -54 
1 94 1 -22 1 33 1 99 1 6 1 52 1 45 1 42 
1 21 2 4 1 -34 1 4 1 -15 1 -18 1 9 1 -18 
1 21 1 6 1 -11 1 -4 1 -39 1 83 1 77 1 -1 
2 51 1 -14 1 -21 1 5 1 -23 1 -8 1 -11 1 11 
1 8 1 8 1 -70 2033 1886 100 MP stroke
1 -79 1 24 1 -6 1 -9 2 15 1 -2 1 -5 1 -23 
1 -1 1 6 1 -35 1 6 1 13 1 -3 1 -5 1 12 
1 83 1 -37 1 -5 2 37 1 -32 1 -6 1 11 1 -2 
1 -6 1 -12 1 8 1 28 1 -24 1 4 1 5 1 -17 
1 22 1 -42 2 -47 1 -117 1 24 1 -6 1 3 1 13 
1 -7 1 -12 1 -1 1 19 1 -5 1 -6 1 15 1 -25 
1 -13 1 -18 2 -28 1 0 1 -24 1 14 1 -12 1 -2 
1 8 1 -1 1 -30 1 -14 1 -26 1 -5 1 -13 1 2 
1 8 2 -112 1 12 1 -10 1 10 1 -19 1 22 1 -19 
1 18 1 20 1 -11 1 -7 1 -22 1 -9 1 -4 1 11 
2 -1 1 2 1 5 1 -26 1 67 1 -14 1 6 1 0 
1 -12 1 3 1 22 1 -3 1 -13 1 1 1 6 2 -31 
1 -67 1 -15 1 -11 1927 2470 100 MP stroke
1 14 1 -32 1 -30 1 20 1 37 1 -4 1 -1 1 17 
1 8 1 4 1 -16 2 -11 1 13 1 -52 1 -63 1 -15 
1 71 1 0 1 1 1 -4 1 0 1 -3 1 -19 1 68 
1 21 1 -50 2 -14 1 20 1 2 1 -45 1 74 1 102 
1 -57 1 19 1 0 1 -18 1 -26 1 12 1 -8 1 10 
1 -8 2 5 1 -92 1 -64 1 -5 1 38 1 17 1 -10 
1 20 1 -4 1 16 1 31 1 54 1 -24 1 -31 1 49 
1 -2 2 -28 1 24 1 -4 1 -27 1 113 1 51 1 59 
1 -48 1 -13 1 13 1 8 1 -1 1 -20 1 14 1 -26 
2 33 1 -89 1 -2 1 12 1 -15 1 -13 1 -17 1 14 
1 -15 1 -9 1 44 1 -67 1 -18 1 -49 1 11 2 19 
1 -1 1 -10 1 -66 1 -21 1 -80 1 -75 1 -8 1 -22 
1 1 1 -7 1 5 1822 2765 100 MP stroke
1 25 1 -5 1 13 2 63 1 15 1 7 1 5 1 -16 
1 -3 1 -7 1 71 1 53 1 3 1 70 1 4 1 26 
1 -7 1 -20 2 -19 1 35 1 11 1 20 1 -17 1 49 
1 13 1 -1 1 -18 1 20 1 54 1 -39 1 5 1 7 
1 48 2 13 1 0 1 16 1 -7 1 -48 1 27 1 40 
1 -39 1 31 1 4 1 -1 1 -42 1 17 1 12 1 31 
2 -8 1 6 1 28 1 5 1 -61 1 2 1 -8 1 13 
1 -14 1 13 1 -34 1 -55 1 -21 1 -13 1 10 2 2 
1 3 1 -4 1 0 1 -22 1 -9 1 -131 1 15 1 21 
1 -18 1 -1 1 20 1 13 1 -5 1 11 1 -28 2 -16 
1 64 1 -16 1 -9 1 19 1 5 1 23 1 -12 1 25 
1 -47 1 -40 1 -27 1 -38 1 -9 1 14 2 -12 1 10 
1 -16 1 -33 1 -24 1716 2655 100 MP stroke
1 2 1 -15 1 -3 1 4 1 -20 1 -1 1 -1 1 -21 
1 -46 1 34 2 -33 1 -25 1 6 1 21 1 -22 1 14 
1 14 1 0 1 0 1 0 1 -4 1 0 1 0 1 0 
1 4 2 -30 1 63 1 -13 1 -46 1 -19 1 17 1 -10 
1 -22 1 -12 1 25 1 -6 1 -6 1 -18 1 -10 1 2 
2 -3 1 -11 1 7 1 -3 1 -5 1 4 1 25 1 -5 
1 -16 1 8 1 -11 1 -13 1 -7 1 -6 1 24 2 -1 
1 2 1 -12 1 13 1 -4 1 16 1 1 1 -15 1 4 
1 0 1 6 1 -3 1 6 1 2 1 -7 2 1 1 6 
1 -5 1 9 1 -18 1 -41 1 -19 1 -2 1 -6 1 -4 
1 0 1 -3 1 15 1 2 1 -18 1 16 2 -13 1 5 
1 -2 1 -5 1 -3 1 14 1 -8 1 -17 1 10 1 6 
1 15 1 2 1 -6 1611 2905 100 MP stroke
1 0 1 3 2 19 1 -6 1 -9 1 13 1 22 1 -2 
1 -11 1 4 1 13 1 17 1 -20 1 -22 1 -15 1 -15 
1 12 2 15 1 -10 1 -4 1 -5 1 2 1 -3 1 -20 
1 -70 1 -9 1 -1 1 22 1 -6 1 -2 1 0 1 12 
2 -33 1 -6 1 -20 1 -1 1 -11 1 -2 1 3 1 9 
1 -11 1 -1 1 3 1 -21 1 -22 1 -1 1 18 2 -15 
1 -9 1 46 1 9 1 11 1 -72 1 0 1 0 1 0 
1 0 1 0 1 0 1 0 1 0 1 0 2 44 1 -25 
1 -24 1 15 1 0 1 2 1 18 1 -1 1 12 1 4 
1 -3 1 -21 1 -16 1 39 1 -6 2 9 1 13 1 -26 
1 1 1 8 1 -12 1 -19 1 -36 1 -15 1 -1 1 0 
1 -8 1 1 1 0 1 14 2 -14 1 -33 1 0 1 3 
1 -1 1 6 1 -2 1505 3181 100 MP stroke
1 -16 1 -26 1 -12 1 -9 1 9 1 -1 1 -2 1 -13 
1 15 2 8 1 -18 1 57 1 -49 1 33 1 -23 1 1 
1 4 1 32 1 -3 1 -11 1 16 1 6 1 0 1 2 
2 2 1 5 1 1 1 -2 1 -9 1 2 1 -51 1 -27 
1 -2 1 -2 1 14 1 -9 1 -5 1 2 1 14 2 8 
1 35 1 -21 1 0 1 -3 1 11 1 -10 1 -7 1 -11 
1 7 1 5 1 -9 1 -21 1 -17 1 -13 2 -1 1 -5 
1 1 1 -5 1 4 1 -8 1 -1 1 -15 1 -2 1 -5 
1 4 1 6 1 4 1 -5 1 -45 2 -58 1 0 1 30 
1 -7 1 -12 1 -7 1 2 1 -5 1 -3 1 -1 1 -1 
1 4 1 -14 1 0 1 0 2 0 1 0 1 0 1 10 
1 12 1 -13 1 47 1 12 1 6 1 3 1 -14 1 1 
1 0 1 11 1 -16 1400 3380 100 MP stroke
2 5 1 -19 1 -9 1 16 1 6 1 8 1 -13 1 18 
1 6 1 -9 1 -42 1 -1 1 -13 1 15 1 -12 1 -8 
2 12 1 7 1 -1 1 -17 1 58 1 -18 1 2 1 4 
1 9 1 -20 1 -13 1 -84 1 -1 1 29 1 4 2 13 
1 -14 1 -14 1 15 1 -9 1 -15 1 5 1 16 1 -25 
1 -6 1 7 1 20 1 -31 1 -7 1 -3 2 -8 1 29 
1 -9 1 3 1 8 1 -19 1 11 1 -19 1 8 1 1 
1 -12 1 -26 1 -22 1 -25 1 -1 2 -3 1 -11 1 -7 
1 13 1 2 1 3 1 -29 1 2 1 -7 1 -18 1 -22 
1 -8 1 -1 1 12 1 -7 2 17 1 -1 1 4 1 3 
1 1 1 -5 1 27 1 6 1 4 1 -14 1 10 1 6 
1 6 1 0 1 1 2 9 1 -30 1 -7 1 -57 1 -5 
1 10 1 28 1 -8 1294 3666 100 MP stroke
1 18 1 -9 1 9 1 -21 1 40 1 -13 1 23 2 8 
1 22 1 3 1 -19 1 -3 1 -8 1 34 1 -1 1 4 
1 -6 1 56 1 12 1 -10 1 -7 1 -22 2 13 1 -13 
1 -35 1 1 1 -4 1 -21 1 -4 1 26 1 7 1 -4 
1 30 1 21 1 89 1 10 1 -14 1 11 2 -8 1 15 
1 -4 1 -9 1 12 1 -22 1 -9 1 15 1 10 1 5 
1 4 1 -5 1 1 1 12 1 28 2 27 1 -9 1 -40 
1 9 1 8 1 -17 1 -4 1 13 1 4 1 8 1 25 
1 12 1 -26 1 -6 1 -11 2 -29 1 -1 1 25 1 -28 
1 -37 1 -3 1 21 1 -11 1 0 1 0 1 13 1 7 
1 6 1 6 1 -20 2 30 1 -39 1 14 1 -5 1 5 
1 5 1 21 1 0 1 -1 1 -23 1 15 1 -12 1 17 
1 -3 1 5 2 -24 1188 3451 100 MP stroke
1 -7 1 4 1 -10 1 -5 1 9 1 -2 1 14 1 -10 
1 -10 1 11 1 -14 1 -29 1 -42 1 -10 2 -36 1 -9 
1 -2 1 -6 1 7 1 -14 1 17 1 -15 1 -13 1 -7 
1 7 1 -11 1 -6 1 11 1 7 2 9 1 14 1 0 
1 12 1 25 1 -50 1 -12 1 54 1 -3 1 -26 1 -21 
1 -23 1 6 1 28 1 -15 1 27 2 -20 1 5 1 -5 
1 44 1 22 1 -50 1 -17 1 -30 1 4 1 -16 1 2 
1 -6 1 8 1 2 1 22 2 3 1 -11 1 39 1 -32 
1 -10 1 18 1 -3 1 16 1 -14 1 -85 1 -6 1 -10 
1 -10 1 7 1 26 2 30 1 17 1 -19 1 14 1 -33 
1 -18 1 -3 1 30 1 -2 1 10 1 -7 1 11 1 6 
1 27 1 -43 2 -19 1 10 1 13 1 -2 1 10 1 1 
1 -21 1 -9 1 -13 1083 3714 100 MP stroke
1 45 1 10 1 -10 1 -14 1 -3 1 -4 2 -8 1 -3 
1 -13 1 10 1 25 1 11 1 -3 1 -7 1 -14 1 -4 
1 -4 1 12 1 74 1 3 1 23 2 -10 1 -2 1 -8 
1 -28 1 0 1 12 1 -7 1 -31 1 -7 1 -30 1 -14 
1 10 1 -3 1 21 1 -16 2 13 1 18 1 28 1 11 
1 -6 1 5 1 7 1 -21 1 4 1 17 1 0 1 -37 
1 -7 1 18 1 21 2 6 1 -36 1 21 1 -17 1 -10 
1 0 1 -78 1 51 1 5 1 -5 1 -4 1 3 1 -6 
1 -3 1 13 1 49 2 24 1 11 1 -21 1 -17 1 -30 
1 12 1 -2 1 -15 1 -41 1 -95 1 17 1 39 1 23 
1 -3 1 16 2 5 1 -15 1 14 1 25 1 -24 1 -12 
1 9 1 -14 1 0 1 4 1 25 1 1 1 3 1 -41 
1 -1 2 -7 1 -8 977 3759 100 MP stroke
1 2 1 3 1 30 1 5 1 -24 1 -4 1 -3 1 -3 
1 -53 1 18 1 3 1 -4 1 8 2 20 1 13 1 -4 
1 5 1 -11 1 -50 1 7 1 -2 1 1 1 2 1 37 
1 -43 1 -22 1 6 1 3 2 15 1 -14 1 12 1 -95 
1 -15 1 -6 1 -26 1 -27 1 -26 1 -57 1 18 1 -2 
1 -5 1 2 1 -4 2 10 1 -1 1 -43 1 -12 1 -23 
1 -2 1 4 1 12 1 -5 1 -34 1 -13 1 -14 1 -49 
1 -59 1 15 2 -2 1 -4 1 -6 1 17 1 -9 1 37 
1 4 1 44 1 35 1 10 1 -3 1 -27 1 2 1 0 
1 2 900 4163 74 MP stroke
/c10 { 1.000000 0.000000 0.000000 sr} bdef
c10
2 -11 1 -33 1 -27 1 2 1 19 1 6 1 40 1 -23 
1 -44 1 8 1 -25 1 -40 1 -6 1 84 1 45 2 -25 
1 -16 1 62 1 -23 1 13 1 27 1 -15 1 24 1 -59 
1 -44 1 -19 1 23 1 -16 1 -9 1 -17 2 -67 1 -6 
1 -2 1 38 1 -88 1 15 1 -78 1 92 1 25 1 2 
1 34 1 109 1 27 1 -29 1 4 2 8 1 -13 1 -6 
1 6 1 -18 1 -30 1 42 1 -37 1 -26 1 -8 1 13 
1 -28 1 0 1 7 1 -2 2 6 1 -34 1 -46 1 55 
1 -40 1 -44 1 25 1 -25 1 25 1 -52 1 52 1 -16 
1 -55 1 0 1 -10 2 19 1 -40 1 10 1 -10 1 -30 
1 0 1 76 1 -52 1 4 1 115 1 17 1 -19 1 -11 
1 0 1 2 2 -75 1 96 1 27 1 -21 1 21 1 -18 
1 23 1 14 1 53 6149 2080 100 MP stroke
1 45 1 42 1 7 1 12 1 -27 1 -15 2 7 1 4 
1 67 1 110 1 -33 1 -8 1 -32 1 19 1 8 1 -27 
1 15 1 31 1 -19 1 21 1 -71 1 -37 2 -4 1 -65 
1 37 1 -31 1 -2 1 -8 1 0 1 -26 1 -33 1 36 
1 -34 1 -73 1 63 1 -7 1 -75 2 -29 1 8 1 0 
1 84 1 -6 1 37 1 -27 1 -10 1 -26 1 -6 1 2 
1 -6 1 12 1 -10 1 34 2 46 1 -13 1 -8 1 -5 
1 17 1 19 1 52 1 -6 1 -10 1 -24 1 -81 1 -23 
1 -17 1 23 1 27 2 17 1 -35 1 14 1 -27 1 -40 
1 13 1 -17 1 17 1 10 1 -73 1 32 1 58 1 67 
1 2 1 48 2 -6 1 -17 1 19 1 2 1 -6 1 35 
1 -35 1 2 1 -2 1 8 1 -2 1 15 1 -11 1 11 
1 -30 2 -56 1 10 6043 2106 100 MP stroke
1 -25 1 -12 1 -38 1 34 1 -19 1 -42 1 17 1 48 
1 -11 1 -83 1 -11 1 38 1 -19 2 23 1 -25 1 -25 
1 -19 1 -33 1 43 1 13 1 -15 1 3 1 -23 1 14 
1 31 1 -2 1 5 1 6 2 10 1 25 1 -56 1 -6 
1 2 1 35 1 -16 1 -3 1 -6 1 63 1 15 1 18 
1 -39 1 -19 1 50 1 -4 2 92 1 -15 1 -27 1 8 
1 36 1 33 1 19 1 4 1 -10 1 -29 1 98 1 -21 
1 56 1 53 1 -11 2 76 1 25 1 31 1 4 1 17 
1 -4 1 -9 1 -56 1 13 1 20 1 38 1 -10 1 -32 
1 -33 1 -21 2 6 1 84 1 44 1 8 1 -4 1 -94 
1 21 1 29 1 -23 1 -84 1 -10 1 6 1 31 1 -85 
1 -11 2 17 1 -21 1 -27 1 75 1 -12 1 -50 1 -26 
1 30 1 6 1 -6 5938 1915 100 MP stroke
1 -19 1 10 1 2 1 0 1 40 2 57 1 39 1 -14 
1 -69 1 10 1 -2 1 -33 1 6 1 25 1 -21 1 98 
1 7 1 48 1 33 1 -10 2 -28 1 5 1 -71 1 23 
1 31 1 15 1 54 1 46 1 27 1 -69 1 -23 1 -38 
1 36 1 0 1 -44 2 34 1 6 1 2 1 -38 1 -2 
1 71 1 -16 1 62 1 -8 1 -42 1 2 1 -10 1 12 
1 -14 1 -21 1 23 2 48 1 -2 1 16 1 1 1 -32 
1 -29 1 27 1 -29 1 -6 1 27 1 -74 1 -43 1 14 
1 -25 1 -17 2 -27 1 -31 1 10 1 30 1 35 1 -21 
1 25 1 -60 1 6 1 -29 1 -15 1 -15 1 -6 1 -38 
1 -2 2 -18 1 10 1 17 1 4 1 -126 1 -27 1 -60 
1 100 1 -44 1 429 1 -21 1 31 1 23 1 -10 1 40 
2 -9 1 117 1 -8 5832 1497 100 MP stroke
1 -67 1 -17 1 46 1 -10 1 -25 1 -9 1 -46 1 17 
1 33 1 -18 1 -15 1 -29 2 -63 1 -69 1 0 1 -12 
1 8 1 -34 1 3 1 94 1 -2 1 -19 1 18 1 7 
1 10 1 -29 1 12 2 3 1 2 1 -55 1 -19 1 38 
1 13 1 -2 1 37 1 6 1 -8 1 -33 1 -63 1 52 
1 -44 1 4 2 3 1 39 1 -29 1 -2 1 42 1 -32 
1 -110 1 -7 1 -14 1 -48 1 10 1 -21 1 -35 1 20 
1 15 2 -2 1 31 1 -14 1 67 1 4 1 33 1 13 
1 27 1 11 1 -9 1 19 1 12 1 -20 1 -5 1 19 
1 50 2 3 1 -9 1 2 1 -44 1 76 1 -11 1 11 
1 -2 1 -3 1 -60 1 14 1 -20 1 -1 1 -35 1 -4 
2 54 1 31 1 9 1 -4 1 -9 1 0 1 -12 1 -73 
1 18 1 3 1 -40 5727 1821 100 MP stroke
1 -13 1 6 1 5 1 14 2 4 1 -23 1 38 1 6 
1 19 1 -27 1 -31 1 -32 1 25 1 5 1 -11 1 6 
1 -14 1 2 1 -4 2 4 1 14 1 19 1 11 1 -7 
1 -29 1 -63 1 -45 1 0 1 4 1 -27 1 41 1 -52 
1 4 1 0 2 -10 1 -13 1 -10 1 -63 1 -6 1 -17 
1 38 1 -4 1 2 1 -17 1 40 1 -30 1 -18 1 -38 
1 -8 2 8 1 -50 1 35 1 -16 1 -11 1 15 1 -21 
1 -13 1 -27 1 -15 1 -27 1 -37 1 10 1 10 1 0 
2 -23 1 24 1 -21 1 12 1 4 1 -21 1 -31 1 15 
1 6 1 25 1 -19 1 9 1 -44 1 10 1 -19 1 0 
2 -19 1 -4 1 -19 1 -8 1 6 1 0 1 -14 1 -11 
1 15 1 29 1 -8 1 39 1 -41 1 12 1 -12 2 -69 
1 29 1 -11 1 -2 5621 2426 100 MP stroke
1 -66 1 20 1 51 1 16 1 138 1 25 1 -31 1 -2 
1 6 1 0 1 9 2 18 1 -16 1 -86 1 -29 1 -2 
1 -2 1 -5 1 23 1 -58 1 19 1 39 1 23 1 -31 
1 35 1 13 2 -27 1 -13 1 28 1 -11 1 21 1 2 
1 -56 1 73 1 35 1 -6 1 -10 1 2 1 -19 1 12 
1 0 2 36 1 -4 1 -4 1 -28 1 -2 1 23 1 28 
1 -2 1 -23 1 4 1 -9 1 -18 1 12 1 27 1 -6 
2 15 1 -2 1 10 1 4 1 4 1 -64 1 8 1 -130 
1 -12 1 23 1 -19 1 19 1 -15 1 -10 1 -130 2 -80 
1 0 1 17 1 6 1 -8 1 -2 1 -13 1 2 1 42 
1 -31 1 -17 1 -29 1 -11 1 -2 1 9 2 0 1 17 
1 -69 1 -30 1 -4 1 21 1 -17 1 6 1 -33 1 -21 
1 11 1 4 1 4 5516 2781 100 MP stroke
1 0 1 -6 1 21 2 48 1 -28 1 -4 1 13 1 2 
1 -6 1 -25 1 71 1 -5 1 36 1 31 1 40 1 19 
1 -19 1 36 2 16 1 -52 1 40 1 15 1 20 1 -21 
1 -10 1 71 1 0 1 13 1 -4 1 0 1 12 1 -10 
1 41 2 2 1 5 1 10 1 19 1 -44 1 -29 1 73 
1 -2 1 -69 1 -25 1 -7 1 32 1 46 1 -38 1 -73 
2 25 1 15 1 -38 1 48 1 -35 1 2 1 -23 1 2 
1 4 1 -17 1 7 1 -17 1 8 1 -23 1 19 2 54 
1 -21 1 -8 1 -15 1 19 1 -41 1 16 1 -12 1 16 
1 19 1 4 1 -20 1 10 1 25 1 8 2 -27 1 13 
1 -32 1 5 1 -38 1 -19 1 13 1 10 1 -31 1 40 
1 -44 1 -30 1 -12 1 0 1 35 2 19 1 -27 1 -6 
1 -7 1 -25 1 51 5410 2607 100 MP stroke
1 -9 1 23 1 9 1 4 1 -19 1 19 1 -13 1 50 
1 -6 1 33 2 -6 1 11 1 23 1 -7 1 -4 1 9 
1 -11 1 -92 1 -25 1 8 1 -2 1 -6 1 19 1 4 
1 -25 2 -8 1 -11 1 -46 1 -8 1 4 1 -6 1 -4 
1 -1 1 -41 1 18 1 46 1 9 1 54 1 7 1 18 
2 5 1 -40 1 10 1 -85 1 14 1 15 1 17 1 -40 
1 8 1 -33 1 -40 1 29 1 -17 1 26 1 31 2 77 
1 25 1 7 1 -13 1 -29 1 -6 1 10 1 -36 1 -31 
1 4 1 4 1 -45 1 -23 1 -17 1 35 2 -21 1 -16 
1 4 1 -34 1 44 1 -121 1 0 1 -6 1 -21 1 -42 
1 2 1 -15 1 -25 1 23 1 -81 2 -15 1 71 1 2 
1 -29 1 -15 1 28 1 -13 1 11 1 -3 1 36 1 38 
1 -48 1 -2 1 10 5305 2965 100 MP stroke
1 0 2 -13 1 -6 1 6 1 2 1 -62 1 -6 1 -1 
1 3 1 4 1 -25 1 -53 1 -14 1 -5 1 -25 1 9 
2 2 1 -17 1 -10 1 -15 1 -15 1 7 1 -7 1 -33 
1 4 1 13 1 12 1 44 1 -23 1 2 1 4 1 40 
2 -67 1 -8 1 46 1 21 1 -21 1 17 1 54 1 17 
1 17 1 0 1 -26 1 26 1 -15 1 15 1 25 2 -59 
1 27 1 -25 1 8 1 19 1 19 1 15 1 2 1 -9 
1 17 1 -40 1 -83 1 25 1 -25 1 50 2 31 1 17 
1 9 1 112 1 0 1 38 1 -4 1 -21 1 21 1 -48 
1 25 1 -13 1 9 1 6 1 44 2 -48 1 -17 1 40 
1 -53 1 95 1 -15 1 15 1 8 1 -11 1 -18 1 -23 
1 2 1 -4 1 -13 1 -6 2 -15 1 -12 1 -7 1 -25 
1 30 1 -24 1 5 5199 2971 100 MP stroke
1 -7 1 49 1 -28 1 2 1 46 1 -2 1 -58 1 73 
2 -23 1 -15 1 11 1 65 1 25 1 77 1 -4 1 19 
1 -11 1 19 1 -6 1 12 1 67 1 -12 1 -57 2 -17 
1 -14 1 -6 1 33 1 -25 1 -4 1 40 1 -24 1 21 
1 -8 1 0 1 -12 1 12 1 -36 1 42 1 19 2 57 
1 2 1 -28 1 21 1 19 1 0 1 -6 1 35 1 -39 
1 27 1 27 1 -42 1 40 1 50 1 21 2 -94 1 57 
1 -9 1 0 1 48 1 30 1 -3 1 46 1 -35 1 8 
1 11 1 -32 1 13 1 -9 1 11 2 -63 1 -33 1 4 
1 -8 1 -76 1 7 1 16 1 4 1 -10 1 -10 1 -11 
1 17 1 -4 1 41 1 42 2 2 1 28 1 64 1 13 
1 -111 1 -14 1 -5 1 -10 1 -2 1 44 1 2 1 -21 
1 17 1 14 1 6 5094 2539 100 MP stroke
2 70 1 25 1 2 1 -27 1 -9 1 11 1 18 1 65 
1 -25 1 6 1 9 1 -11 1 -18 1 22 1 0 2 0 
1 -56 1 -27 1 25 1 -19 1 52 1 -8 1 44 1 -8 
1 0 1 -19 1 29 1 -44 1 -81 1 2 2 -19 1 31 
1 40 1 -34 1 44 1 13 1 -33 1 83 1 0 1 -2 
1 -10 1 -53 1 -18 1 -5 1 4 2 11 1 -50 1 12 
1 -60 1 -27 1 6 1 2 1 -29 1 16 1 7 1 -140 
1 46 1 -3 1 55 1 4 1 -27 2 -36 1 7 1 -1 
1 -14 1 -52 1 2 1 18 1 59 1 -4 1 -2 1 60 
1 -21 1 -22 1 -13 1 63 2 -48 1 0 1 -28 1 42 
1 11 1 18 1 -4 1 -25 1 -17 1 -25 1 5 1 -3 
1 -23 1 44 1 -14 2 -13 1 27 1 -62 1 -36 1 8 
1 24 1 -5 1 4 4988 2723 100 MP stroke
1 -87 1 -23 1 -9 1 4 1 5 1 -2 1 -5 2 0 
1 -2 1 15 1 0 1 -21 1 -4 1 -13 1 21 1 32 
1 -36 1 -15 1 -8 1 29 1 -75 1 27 2 -2 1 -96 
1 13 1 -13 1 -27 1 -21 1 25 1 13 1 16 1 -65 
1 -54 1 4 1 -14 1 25 1 -2 2 10 1 6 1 25 
1 -35 1 12 1 -20 1 83 1 -42 1 -23 1 -33 1 8 
1 -48 1 -4 1 2 1 -11 2 32 1 4 1 -10 1 12 
1 -25 1 -29 1 -9 1 -6 1 23 1 -10 1 27 1 -71 
1 -30 1 -10 1 48 1 -12 2 -30 1 -8 1 17 1 -7 
1 -2 1 -12 1 25 1 29 1 15 1 14 1 0 1 -23 
1 17 1 -10 1 0 2 52 1 15 1 -15 1 -10 1 52 
1 -11 1 40 1 -50 1 -9 1 3 1 -38 1 -15 1 -23 
1 -46 1 -39 2 -11 4882 3304 100 MP stroke
1 8 1 -20 1 48 1 16 1 -14 1 0 1 -2 1 -30 
1 26 1 -19 1 25 1 -36 1 36 1 -21 2 -6 1 21 
1 -17 1 4 1 -13 1 -43 1 71 1 16 1 -23 1 105 
1 2 1 6 1 -17 1 19 1 0 2 -27 1 -2 1 86 
1 -15 1 36 1 -7 1 -16 1 25 1 14 1 3 1 16 
1 -6 1 -35 1 -23 1 -19 2 -7 1 -25 1 25 1 -23 
1 -46 1 46 1 138 1 -8 1 17 1 -13 1 -8 1 2 
1 -15 1 13 1 -65 2 -12 1 -13 1 29 1 -31 1 12 
1 19 1 -46 1 -10 1 0 1 4 1 23 1 29 1 -77 
1 8 1 4 2 -41 1 -15 1 -8 1 8 1 -9 1 1 
1 35 1 -6 1 23 1 -9 1 11 1 -15 1 -10 1 -36 
1 -6 1 13 2 10 1 29 1 38 1 -4 1 104 1 -6 
1 -25 1 19 1 46 4777 3015 100 MP stroke
1 -46 1 25 1 -2 1 8 1 32 1 -36 2 10 1 9 
1 -78 1 -29 1 -23 1 -6 1 6 1 11 1 27 1 -9 
1 5 1 2 1 -26 1 -2 1 -14 2 0 1 -21 1 -38 
1 -75 1 27 1 4 1 -12 1 -19 1 6 1 119 1 40 
1 63 1 40 1 29 1 -10 2 -23 1 20 1 9 1 14 
1 17 1 -2 1 -10 1 10 1 0 1 11 1 -34 1 -15 
1 -27 1 -6 1 23 2 8 1 0 1 4 1 -12 1 -2 
1 54 1 -60 1 -17 1 -19 1 6 1 23 1 2 1 5 
1 8 1 4 2 -90 1 21 1 -23 1 -4 1 -40 1 -27 
1 -42 1 -8 1 35 1 65 1 9 1 14 1 -14 1 67 
1 12 2 -52 1 16 1 -20 1 -2 1 -3 1 -23 1 -27 
1 9 1 27 1 46 1 98 1 15 1 -36 1 34 1 6 
2 -32 1 19 1 17 4671 2940 100 MP stroke
1 -19 1 25 1 -4 1 -31 1 -32 1 187 1 -113 1 -42 
1 -2 1 -5 1 1 1 -17 1 33 2 17 1 0 1 -59 
1 3 1 -30 1 38 1 17 1 2 1 33 1 -40 1 7 
1 33 1 -10 1 -59 1 -33 2 -38 1 -40 1 15 1 -23 
1 -8 1 -82 1 4 1 27 1 -39 1 -21 1 -11 1 23 
1 -50 1 6 1 -48 2 -42 1 65 1 57 1 64 1 -27 
1 2 1 7 1 -2 1 18 1 -2 1 25 1 -146 1 33 
1 1 1 4 2 -17 1 -61 1 13 1 29 1 -44 1 -40 
1 15 1 29 1 15 1 -23 1 -8 1 8 1 0 1 59 
1 -7 2 -35 1 23 1 -21 1 -17 1 -12 1 -2 1 4 
1 -13 1 -27 1 8 1 30 1 -21 1 4 1 10 1 -4 
2 142 1 -171 1 12 1 -46 1 2 1 5 1 -46 1 37 
1 -10 1 -59 1 51 4566 3456 100 MP stroke
1 -36 1 38 1 37 1 4 2 -33 1 15 1 -15 1 19 
1 -23 1 -21 1 -25 1 58 1 30 1 -15 1 61 1 -28 
1 63 1 11 1 39 1 28 2 -5 1 -73 1 -42 1 -75 
1 -25 1 -57 1 7 1 -44 1 6 1 17 1 8 1 21 
1 -2 1 -12 1 20 2 -4 1 -25 1 -4 1 -4 1 27 
1 102 1 95 1 -47 1 -22 1 -17 1 8 1 -15 1 -2 
1 -2 1 2 2 -94 1 9 1 23 1 -78 1 -19 1 57 
1 2 1 6 1 -77 1 -25 1 -11 1 48 1 -31 1 4 
1 -8 2 -6 1 -11 1 52 1 -22 1 45 1 21 1 -2 
1 -46 1 -2 1 19 1 -79 1 -11 1 -17 1 2 1 -6 
2 -14 1 -21 1 56 1 -4 1 2 1 -17 1 -19 1 47 
1 64 1 32 1 -25 1 100 1 -25 1 -32 1 -54 2 -19 
1 57 1 -63 1 36 4460 3569 100 MP stroke
1 4 1 -34 1 -14 1 48 1 -17 1 -13 1 -6 1 -12 
1 10 1 132 1 73 2 -40 1 44 1 6 1 -23 1 -10 
1 -17 1 25 1 74 1 25 1 48 1 -25 1 -2 1 25 
1 23 1 -7 2 7 1 44 1 0 1 -23 1 39 1 15 
1 -10 1 39 1 -6 1 46 1 10 1 -186 1 71 1 -16 
1 46 1 14 2 38 1 6 1 25 1 -10 1 -36 1 -6 
1 38 1 -25 1 -107 1 -4 1 -15 1 -10 1 0 1 -40 
1 17 2 62 1 116 1 -40 1 -65 1 17 1 -25 1 45 
1 -33 1 -25 1 -115 1 -48 1 -50 1 -82 1 -19 1 13 
2 31 1 -31 1 23 1 8 1 -37 1 8 1 10 1 49 
1 -49 1 -48 1 25 1 -46 1 32 1 -42 1 15 2 20 
1 1 1 27 1 12 1 44 1 31 1 -27 1 36 1 88 
1 21 1 -2 1 -7 4355 3348 100 MP stroke
1 27 1 57 1 -71 2 21 1 48 1 -21 1 -119 1 -5 
1 -31 1 19 1 8 1 -25 1 -31 1 8 1 17 1 -23 
1 12 1 -14 2 -2 1 33 1 -17 1 -27 1 7 1 -15 
1 42 1 102 1 13 1 -2 1 4 1 -25 1 46 1 -40 
1 -2 2 -19 1 -2 1 23 1 -25 1 42 1 -15 1 0 
1 -25 1 6 1 21 1 -2 1 48 1 7 1 -13 1 4 
1 -4 2 8 1 61 1 -19 1 -17 1 19 1 -42 1 26 
1 22 1 32 1 -19 1 31 1 -18 1 -5 1 3 1 10 
2 -2 1 -4 1 -80 1 -6 1 -8 1 50 1 -4 1 -5 
1 -35 1 52 1 32 1 -9 1 19 1 10 1 -20 2 -28 
1 42 1 -19 1 5 1 16 1 -39 1 69 1 -17 1 16 
1 13 1 23 1 31 1 -115 1 -129 1 48 2 96 1 -21 
1 -6 1 33 1 -35 4249 3243 100 MP stroke
1 -4 1 2 1 19 1 -23 1 66 1 97 1 37 1 59 
1 -101 1 93 2 -24 1 55 1 -96 1 -61 1 6 1 -14 
1 19 1 -32 1 -6 1 27 1 42 1 0 1 0 1 0 
1 0 2 0 1 0 1 0 1 29 1 -15 1 32 1 96 
1 6 1 -6 1 -109 1 19 1 -125 1 2 1 -21 1 -61 
2 107 1 -73 1 -7 1 -65 1 47 1 -13 1 -52 1 -23 
1 46 1 23 1 39 1 -66 1 -46 1 -24 1 -85 2 -50 
1 0 1 -11 1 -37 1 -5 1 4 1 -16 1 -15 1 -25 
1 71 1 38 1 42 1 -9 1 -94 1 -17 1 -37 2 -17 
1 13 1 -40 1 -17 1 2 1 -6 1 6 1 69 1 17 
1 82 1 75 1 33 1 -33 1 -23 1 -30 2 9 1 -23 
1 17 1 -124 1 -12 1 -32 1 -21 1 28 1 21 1 50 
1 2 1 12 1 2 4144 3528 100 MP stroke
1 30 1 -2 2 -26 1 -12 1 19 1 2 1 48 1 -34 
1 28 1 -74 1 -2 1 74 1 0 1 10 1 19 1 -52 
1 -13 2 -6 1 -38 1 40 1 19 1 31 1 -58 1 31 
1 -38 1 -29 1 -10 1 -9 1 78 1 -3 1 17 1 -104 
2 -15 1 35 1 0 1 11 1 10 1 -21 1 30 1 -32 
1 -6 1 61 1 6 1 -8 1 14 1 9 1 -9 2 -12 
1 23 1 27 1 40 1 69 1 -40 1 -10 1 -9 1 15 
1 6 1 -48 1 -10 1 79 1 -33 1 10 2 -4 1 -55 
1 15 1 4 1 -2 1 -8 1 -11 1 34 1 -6 1 2 
1 -17 1 -13 1 -8 1 -38 1 23 1 120 2 29 1 56 
1 25 1 0 1 27 1 -22 1 -11 1 21 1 -11 1 -35 
1 -48 1 10 1 21 1 13 1 6 2 0 1 -8 1 29 
1 50 1 31 1 86 4038 3095 100 MP stroke
1 74 1 8 1 -8 1 -13 1 8 1 -6 1 50 1 -50 
1 -13 2 32 1 2 1 -10 1 -15 1 -4 1 16 1 25 
1 -20 1 10 1 4 1 -33 1 14 1 -2 1 36 1 -17 
2 -14 1 106 1 -15 1 28 1 12 1 -14 1 -26 1 155 
1 -12 1 -2 1 21 1 8 1 38 1 -28 1 28 2 12 
1 -2 1 0 1 29 1 -4 1 -4 1 -238 1 33 1 -15 
1 -21 1 -18 1 21 1 -42 1 10 1 -23 2 46 1 -2 
1 -31 1 -2 1 -9 1 -10 1 2 1 0 1 4 1 -4 
1 25 1 -42 1 -25 1 13 1 0 2 41 1 -10 1 33 
1 -10 1 42 1 31 1 32 1 -34 1 0 1 -19 1 32 
1 -15 1 8 1 -29 1 -4 2 63 1 33 1 -25 1 -2 
1 -8 1 -3 1 -4 1 -4 1 -4 1 77 1 17 1 -59 
1 23 1 -35 1 -42 3933 2894 100 MP stroke
1 -4 2 60 1 -12 1 12 1 11 1 19 1 -30 1 19 
1 -27 1 52 1 -25 1 -14 1 -5 1 -18 1 21 1 -19 
2 -2 1 -23 1 -28 1 -41 1 21 1 21 1 29 1 -34 
1 -8 1 29 1 13 1 29 1 -6 1 8 1 -25 2 -23 
1 75 1 -29 1 -46 1 17 1 44 1 73 1 -32 1 -12 
1 27 1 -69 1 46 1 29 1 15 1 52 2 -2 1 -63 
1 1 1 -11 1 -6 1 12 1 34 1 -19 1 4 1 -42 
1 50 1 -50 1 36 1 -9 1 -16 2 240 1 0 1 0 
1 0 1 0 1 0 1 -134 1 15 1 23 1 40 1 -17 
1 33 1 -27 1 27 1 0 2 -48 1 11 1 -19 1 17 
1 12 1 2 1 19 1 7 1 48 1 44 1 25 1 -15 
1 17 1 -27 1 46 2 0 1 -3 1 49 1 -17 1 -30 
1 -6 1 2 1 -6 3827 2457 100 MP stroke
1 42 1 6 1 124 1 29 1 4 1 -6 1 -6 1 -19 
2 27 1 -32 1 26 1 -13 1 -10 1 -5 1 -2 1 0 
1 50 1 -50 1 15 1 -65 1 73 1 38 1 -2 2 -4 
1 4 1 29 1 -8 1 2 1 -4 1 -11 1 0 1 0 
1 23 1 17 1 -10 1 18 1 -6 1 0 2 31 1 -14 
1 -6 1 -1 1 -23 1 7 1 -32 1 21 1 13 1 0 
1 14 1 34 1 -25 1 -23 1 -8 2 -11 1 -54 1 2 
1 -13 1 -21 1 2 1 -10 1 27 1 15 1 10 1 9 
1 6 1 -13 1 -16 1 94 2 117 1 -17 1 15 1 71 
1 79 1 -14 1 -2 1 -3 1 0 1 26 1 12 1 -23 
1 -23 1 25 1 29 2 -20 1 25 1 -3 1 -43 1 -9 
1 32 1 -11 1 -23 1 -2 1 4 1 6 1 -12 1 21 
1 -80 1 34 2 -8 3721 1965 100 MP stroke
1 -11 1 2 1 -10 1 14 1 9 1 -7 1 53 1 -42 
1 -50 1 -28 1 30 1 -6 1 29 1 -7 2 -73 1 -12 
1 -13 1 34 1 -4 1 -70 1 15 1 -15 1 3 1 -15 
1 -15 1 57 1 54 1 69 1 9 1 -17 2 2 1 44 
1 -30 1 -12 1 -8 1 44 1 -51 1 65 1 -15 1 15 
1 27 1 25 1 -2 1 -18 1 37 2 -17 1 48 1 -4 
1 -58 1 -9 1 -14 1 10 1 13 1 -17 1 -4 1 2 
1 -73 1 -2 1 -32 1 -4 2 9 1 22 1 -10 1 4 
1 -2 1 -54 1 33 1 -12 1 0 1 4 1 29 1 0 
1 -60 1 -3 1 7 2 54 1 -12 1 31 1 -8 1 -24 
1 -4 1 -18 1 -9 1 -2 1 2 1 -77 1 -65 1 10 
1 -29 1 23 2 -27 1 38 1 14 1 -17 1 -22 1 46 
1 25 1 12 1 -29 3616 2141 100 MP stroke
1 -25 1 -2 1 -2 1 20 1 -6 1 -21 2 -18 1 64 
1 0 1 7 1 -48 1 18 1 19 1 4 1 -12 1 -4 
1 -74 1 -6 1 -23 1 34 1 -11 2 2 1 29 1 -12 
1 0 1 12 1 46 1 -6 1 9 1 18 1 -18 1 69 
1 -28 1 -110 1 -13 1 -6 1 40 2 -3 1 -25 1 13 
1 -11 1 -37 1 35 1 50 1 -4 1 15 1 12 1 19 
1 5 1 -1 1 -10 1 33 2 11 1 -88 1 -33 1 2 
1 -19 1 -10 1 39 1 -21 1 -44 1 61 1 111 1 -27 
1 -21 1 -2 1 -7 2 -89 1 45 1 5 1 12 1 -19 
1 34 1 -57 1 -21 1 -41 1 12 1 11 1 -15 1 -10 
1 64 1 23 2 -27 1 -19 1 -16 1 -5 1 23 1 -22 
1 8 1 -15 1 53 1 10 1 8 1 19 1 63 1 -2 
1 21 2 -13 1 2 3510 2110 100 MP stroke
1 -29 1 13 1 6 1 -7 1 38 1 29 1 -14 1 -21 
1 0 1 0 1 -132 1 -46 1 11 2 75 1 -40 1 -6 
1 -2 1 4 1 2 1 -12 1 -7 1 -6 1 4 1 19 
1 2 1 -27 1 2 1 2 2 38 1 -44 1 2 1 -2 
1 -4 1 -30 1 -2 1 -33 1 29 1 -25 1 -8 1 169 
1 -11 1 1 1 -44 2 10 1 19 1 40 1 -11 1 6 
1 15 1 -23 1 4 1 44 1 38 1 -32 1 -104 1 6 
1 -2 1 -35 1 0 2 0 1 29 1 -67 1 12 1 38 
1 23 1 -19 1 4 1 19 1 6 1 67 1 3 1 0 
1 16 1 -39 2 31 1 -4 1 41 1 -23 1 13 1 -81 
1 -55 1 8 1 -6 1 27 1 -16 1 -4 1 0 1 54 
1 -6 2 -17 1 17 1 12 1 -15 1 9 1 -9 1 -71 
1 -4 1 2 1 25 3405 2221 100 MP stroke
1 -50 1 -27 1 -6 1 16 1 -23 2 24 1 10 1 44 
1 21 1 -86 1 -10 1 -5 1 19 1 34 1 2 1 -44 
1 40 1 21 1 0 1 6 2 16 1 -12 1 -17 1 -6 
1 -15 1 13 1 40 1 71 1 -27 1 4 1 31 1 8 
1 -14 1 14 1 5 2 -9 1 44 1 38 1 -21 1 10 
1 4 1 17 1 -25 1 15 1 37 1 2 1 13 1 27 
1 -4 1 -54 2 -7 1 -2 1 30 1 6 1 -29 1 37 
1 188 1 17 1 21 1 -44 1 4 1 -163 1 6 1 -10 
1 44 2 -48 1 -32 1 -8 1 11 1 12 1 -46 1 63 
1 6 1 -27 1 79 1 -25 1 23 1 17 1 13 1 20 
1 -31 2 13 1 -25 1 -74 1 7 1 -13 1 -15 1 -20 
1 -3 1 13 1 13 1 -15 1 2 1 -17 1 42 1 -35 
2 -48 1 -23 1 14 3299 2089 100 MP stroke
1 11 1 29 1 -6 1 -46 1 -7 1 276 1 -10 1 19 
1 10 1 0 1 11 1 -5 2 -23 1 -33 1 19 1 -75 
1 -19 1 -2 1 0 1 21 1 -5 1 11 1 35 1 -4 
1 38 1 -25 1 -15 2 -27 1 -38 1 -69 1 -16 1 -9 
1 15 1 12 1 82 1 -23 1 -17 1 -38 1 -27 1 74 
1 -44 1 33 2 -6 1 35 1 -42 1 61 1 4 1 0 
1 21 1 21 1 9 1 -11 1 15 1 -2 1 6 1 71 
1 21 2 42 1 -4 1 -11 1 -4 1 -63 1 82 1 -5 
1 -83 1 -2 1 6 1 -27 1 29 1 -4 1 33 1 -46 
2 -29 1 -19 1 -62 1 -19 1 17 1 -34 1 13 1 43 
1 -14 1 -136 1 -117 1 -19 1 44 1 4 1 -14 1 6 
2 6 1 27 1 -6 1 -77 1 52 1 -63 1 -2 1 46 
1 36 1 41 1 -25 3194 2131 100 MP stroke
1 2 1 0 1 7 1 -28 2 -14 1 -31 1 14 1 -4 
1 -8 1 -25 1 8 1 -25 1 -23 1 56 1 19 1 -23 
1 54 1 -29 1 31 2 7 1 -46 1 -119 1 -86 1 -15 
1 -8 1 -9 1 19 1 15 1 -80 1 19 1 38 1 -27 
1 -7 1 42 2 -17 1 -8 1 -50 1 -2 1 8 1 -8 
1 -2 1 33 1 -16 1 -24 1 84 1 21 1 6 1 4 
1 0 2 -20 1 179 1 -6 1 9 1 -30 1 40 1 25 
1 2 1 27 1 -77 1 -42 1 -17 1 61 1 -48 1 8 
2 -20 1 -15 1 -9 1 -35 1 -15 1 15 1 12 1 65 
1 -60 1 -53 1 -48 1 34 1 64 1 68 1 -120 2 -77 
1 37 1 19 1 21 1 17 1 -98 1 -13 1 13 1 -23 
1 4 1 -54 1 -23 1 29 1 10 1 -73 2 111 1 6 
1 -10 1 18 1 21 3088 2449 100 MP stroke
1 28 1 -63 1 67 1 -9 1 67 1 15 1 -31 1 -9 
1 38 1 10 1 -21 2 -25 1 -8 1 -31 1 20 1 -35 
1 -11 1 24 1 -28 1 -10 1 79 1 46 1 15 1 75 
1 5 1 -28 2 -19 1 -22 1 60 1 -2 1 8 1 32 
1 -59 1 -25 1 -14 1 -24 1 34 1 -21 1 -65 1 0 
1 -2 2 -2 1 -50 1 -25 1 18 1 17 1 -23 1 149 
1 -32 1 15 1 -8 1 -23 1 -78 1 -33 1 -42 1 35 
2 -31 1 -27 1 8 1 7 1 18 1 5 1 123 1 0 
1 103 1 -82 1 -9 1 44 1 -66 1 -40 1 -21 2 -17 
1 -25 1 4 1 -14 1 48 1 6 1 50 1 -50 1 -31 
1 16 1 -75 1 -17 1 28 1 -40 1 -6 2 52 1 -29 
1 -49 1 2 1 -14 1 -2 1 19 1 12 1 -23 1 23 
1 2 1 -81 1 0 2983 2649 100 MP stroke
1 -2 1 -17 2 -15 1 0 1 -17 1 59 1 77 1 34 
1 61 1 8 1 -9 1 44 1 15 1 0 1 -6 1 73 
1 -19 1 -67 2 63 1 -21 1 77 1 32 1 6 1 -61 
1 -77 1 11 1 -38 1 27 1 8 1 -6 1 54 1 -16 
1 -23 2 -27 1 -28 1 3 1 8 1 -4 1 2 1 54 
1 32 1 -9 1 -44 1 42 1 50 1 48 1 42 1 7 
2 -36 1 40 1 -30 1 13 1 -4 1 21 1 -92 1 96 
1 63 1 14 1 -2 1 -4 1 25 1 -13 1 -2 2 -27 
1 -58 1 -11 1 15 1 -36 1 2 1 9 1 -32 1 48 
1 159 1 132 1 31 1 -102 1 8 1 17 2 27 1 23 
1 48 1 -83 1 40 1 -61 1 10 1 -23 1 -8 1 -96 
1 -30 1 -4 1 2 1 2 1 -25 2 36 1 2 1 -58 
1 -88 1 -19 1 -8 2877 2287 100 MP stroke
1 20 1 11 1 -8 1 100 1 54 1 -73 1 34 1 56 
1 17 2 37 1 -121 1 -125 1 -55 1 -14 1 4 1 58 
1 65 1 -4 1 23 1 13 1 8 1 44 1 -42 1 -31 
2 12 1 38 1 -30 1 -16 1 -17 1 8 1 38 1 -31 
1 87 1 -8 1 19 1 88 1 21 1 98 1 -21 1 23 
2 -31 1 23 1 -34 1 2 1 11 1 35 1 -14 1 -76 
1 19 1 36 1 44 1 -21 1 -82 1 -19 1 -104 2 -15 
1 -2 1 11 1 39 1 -50 1 69 1 56 1 -46 1 47 
1 31 1 -56 1 23 1 -13 1 -34 1 -161 2 -20 1 -28 
1 46 1 37 1 15 1 -78 1 -17 1 0 1 7 1 -29 
1 34 1 5 1 12 1 59 1 90 2 -22 1 17 1 -41 
1 60 1 103 1 -57 1 -16 1 9 1 19 1 68 1 -35 
1 10 1 -25 1 109 2772 1887 100 MP stroke
1 19 2 -7 1 0 1 35 1 95 1 -63 1 9 1 -11 
1 -49 1 0 1 2 1 35 1 -6 1 23 1 14 1 -24 
2 26 1 87 1 4 1 73 1 -32 1 108 1 -19 1 13 
1 14 1 -68 1 14 1 -41 1 -20 1 9 1 26 2 -57 
1 46 1 -40 1 -19 1 -23 1 -31 1 -3 1 4 1 -2 
1 -10 1 142 1 12 1 -18 1 46 1 30 1 31 2 -56 
1 37 1 51 1 70 1 -193 1 33 1 -10 1 -6 1 -49 
1 81 1 -56 1 -1 1 82 1 39 1 47 2 47 1 71 
1 -17 1 -9 1 -74 1 -9 1 55 1 3 1 62 1 -5 
1 6 1 -12 1 29 1 -76 1 -65 2 -103 1 89 1 20 
1 -10 1 157 1 -48 1 3 1 16 1 -43 1 119 1 -32 
1 0 1 0 1 0 1 0 2 0 1 0 1 -38 1 17 
1 -50 1 -53 1 13 2666 1381 100 MP stroke
1 -57 1 -124 1 -19 1 53 1 -4 1 -1 1 -40 1 5 
2 -32 1 -34 1 0 1 83 1 14 1 34 1 62 1 -7 
1 -16 1 -36 1 18 1 -17 1 23 1 66 1 -25 2 28 
1 -50 1 -36 1 18 1 -57 1 -86 1 -4 1 36 1 -124 
1 -12 1 2 1 -101 1 -203 1 -4 1 -22 2 -9 1 -6 
1 -117 1 -1 1 4 1 -35 1 -10 1 17 1 -126 1 -23 
1 -13 1 8 1 -16 1 -20 1 -11 2 -10 1 53 1 60 
1 45 1 13 1 -18 1 20 1 -18 1 87 1 41 1 -64 
1 82 1 63 1 -34 1 -7 1 -12 2 13 1 -13 1 83 
1 -47 1 -42 1 -12 1 -1 1 45 1 -8 1 8 1 36 
1 -25 1 -17 1 -15 1 2 2 24 1 -27 1 0 1 22 
1 -76 1 -18 1 79 1 -29 1 78 1 35 1 -64 1 -12 
1 -15 1 21 1 -41 2561 2123 100 MP stroke
2 -12 1 -50 1 -7 1 -69 1 -102 1 73 1 -37 1 45 
1 68 1 -40 1 11 1 -7 1 65 1 -104 1 -129 2 -5 
1 18 1 16 1 -4 1 3 1 -24 1 -26 1 47 1 38 
1 60 1 -53 1 8 1 62 1 -66 1 49 2 1 1 -28 
1 -43 1 36 1 92 1 1 1 14 1 -36 1 10 1 61 
1 -3 1 -56 1 6 1 -2 1 -44 2 25 1 15 1 -15 
1 8 1 1 1 -109 1 105 1 -40 1 -78 1 -12 1 44 
1 -6 1 -30 1 -81 1 5 2 -14 1 -92 1 5 1 80 
1 72 1 29 1 -78 1 15 1 1 1 15 1 -120 1 -25 
1 -9 1 63 1 -7 1 -60 2 17 1 -47 1 40 1 122 
1 21 1 -42 1 46 1 19 1 4 1 -84 1 26 1 31 
1 44 1 -67 1 53 2 -40 1 -26 1 40 1 8 1 15 
1 14 1 -25 1 -16 2455 2426 100 MP stroke
1 -159 1 -62 1 -2 1 -74 1 16 1 -16 1 -62 2 31 
1 22 1 -69 1 -131 1 -14 1 -121 1 -13 1 24 1 49 
1 -29 1 0 1 97 1 2 1 62 1 20 2 -7 1 25 
1 -4 1 15 1 10 1 -5 1 -27 1 -5 1 28 1 -5 
1 -24 1 58 1 -29 1 -30 1 -7 2 -53 1 23 1 -37 
1 -9 1 -24 1 -22 1 -12 1 -50 1 10 1 -28 1 15 
1 74 1 53 1 -38 1 -3 2 64 1 -44 1 -7 1 71 
1 -27 1 -29 1 109 1 -80 1 94 1 -191 1 19 1 -92 
1 -29 1 54 1 -15 2 -82 1 19 1 -21 1 -35 1 -32 
1 -19 1 39 1 0 1 -13 1 -12 1 -36 1 20 1 -16 
1 -16 1 -35 2 -35 1 -7 1 18 1 -14 1 -42 1 33 
1 72 1 30 1 28 1 -6 1 -14 1 21 1 -39 1 -31 
1 -2 1 -14 2 -19 2349 3326 100 MP stroke
1 121 1 27 1 246 1 -31 1 -20 1 -2 1 -1 1 49 
1 5 1 -61 1 11 1 -10 1 -16 1 5 2 -11 1 3 
1 20 1 58 1 -48 1 -8 1 0 1 13 1 63 1 -2 
1 -16 1 -48 1 -5 1 30 1 9 2 54 1 4 1 10 
1 -2 1 -46 1 25 1 15 1 3 1 6 1 -65 1 40 
1 32 1 33 1 -47 1 10 2 36 1 -23 1 -20 1 110 
1 -4 1 -7 1 19 1 -4 1 -10 1 -19 1 54 1 -24 
1 28 1 -27 1 -9 2 -1 1 29 1 -10 1 6 1 -9 
1 42 1 -6 1 11 1 65 1 34 1 -70 1 -94 1 -3 
1 40 1 -34 2 86 1 -19 1 -17 1 37 1 -6 1 -61 
1 -15 1 -29 1 -4 1 106 1 -54 1 43 1 0 1 43 
1 76 2 97 1 0 1 -7 1 24 1 20 1 -5 1 -15 
1 54 1 40 1 19 2244 2360 100 MP stroke
1 -7 1 -10 1 44 1 71 1 -8 1 48 2 63 1 35 
1 11 1 33 1 -3 1 22 1 60 1 6 1 -14 1 28 
1 21 1 -31 1 11 1 -8 1 23 2 -19 1 84 1 -8 
1 14 1 -6 1 -40 1 -57 1 13 1 11 1 10 1 -33 
1 -37 1 15 1 22 1 -17 2 9 1 39 1 -3 1 -35 
1 22 1 21 1 -31 1 81 1 35 1 -32 1 3 1 42 
1 -29 1 -24 1 -3 2 19 1 17 1 -30 1 26 1 -41 
1 11 1 28 1 -36 1 190 1 2 1 4 1 -19 1 24 
1 -21 1 16 2 -6 1 -17 1 3 1 -95 1 -100 1 29 
1 -7 1 2 1 33 1 1 1 -13 1 -40 1 -33 1 -43 
1 19 2 -35 1 -55 1 -24 1 -4 1 4 1 -23 1 10 
1 11 1 -8 1 10 1 43 1 -49 1 11 1 0 1 -1 
2 -20 1 8 1 14 2138 2103 100 MP stroke
1 -118 1 20 1 -63 1 -62 1 7 1 -2 1 -18 1 -6 
1 -1 1 0 1 45 1 2 2 11 1 24 1 -6 1 -14 
1 -27 1 13 1 7 1 -18 1 2 1 -25 1 11 1 95 
1 -16 1 7 1 19 1 -11 2 4 1 15 1 0 1 -53 
1 -110 1 15 1 9 1 1 1 21 1 -8 1 -79 1 14 
1 -34 1 -46 1 -20 2 2 1 3 1 7 1 -10 1 -4 
1 38 1 6 1 -5 1 54 1 -1 1 -7 1 -47 1 19 
1 -18 1 -16 2 30 1 1 1 -11 1 73 1 -2 1 104 
1 -48 1 39 1 -21 1 -151 1 -89 1 20 1 -62 1 -51 
1 -9 2 -72 1 33 1 -6 1 -10 1 -3 1 -18 1 -42 
1 20 1 -39 1 -23 1 18 1 51 1 -79 1 -61 1 -67 
2 -18 1 -19 1 14 1 7 1 -19 1 11 1 16 1 14 
1 -49 1 -3 1 2 2033 2996 100 MP stroke
1 52 1 -28 1 -35 1 -4 2 0 1 -8 1 0 1 9 
1 -3 1 5 1 -3 1 -5 1 6 1 -6 1 5 1 -5 
1 -16 1 11 1 -7 2 2 1 -3 1 10 1 -13 1 9 
1 -8 1 12 1 -9 1 20 1 -25 1 -3 1 -2 1 5 
1 3 1 -3 2 27 1 32 1 -22 1 -3 1 -18 1 1 
1 4 1 9 1 14 1 13 1 -15 1 -37 1 2 1 4 
1 6 1 33 2 23 1 6 1 -21 1 -7 1 27 1 7 
1 -26 1 -13 1 17 1 6 1 2 1 -3 1 -37 1 -16 
1 19 2 213 1 -3 1 -119 1 4 1 -10 1 -56 1 49 
1 -31 1 -38 1 -15 1 -1 1 -7 1 5 1 8 1 -9 
2 -5 1 -2 1 8 1 10 1 -33 1 9 1 2 1 7 
1 -8 1 20 1 -12 1 19 1 -35 1 37 1 16 2 -56 
1 27 1 7 1 4 1927 2994 100 MP stroke
1 0 1 13 1 -2 1 -30 1 21 1 15 1 7 1 -11 
1 -1 1 10 1 -2 2 25 1 7 1 -16 1 18 1 -1 
1 23 1 12 1 -11 1 -2 1 -5 1 12 1 22 1 -43 
1 37 1 -28 2 22 1 11 1 -21 1 43 1 -71 1 -52 
1 3 1 44 1 -7 1 -4 1 36 1 -44 1 0 1 -17 
1 -9 2 2 1 50 1 21 1 7 1 23 1 9 1 -29 
1 64 1 -7 1 -44 1 1 1 -4 1 23 1 6 1 -15 
1 17 2 47 1 62 1 -98 1 -27 1 -28 1 -42 1 24 
1 38 1 5 1 17 1 -15 1 -24 1 18 1 20 1 27 
2 6 1 75 1 16 1 7 1 3 1 -4 1 8 1 -20 
1 19 1 4 1 -39 1 57 1 25 1 14 1 -13 2 -21 
1 20 1 17 1 68 1 -21 1 -69 1 72 1 -9 1 -47 
1 10 1 -6 1 7 1822 2663 100 MP stroke
1 -14 1 -27 1 22 2 -20 1 -103 1 -1 1 -8 1 30 
1 31 1 20 1 -167 1 10 1 -35 1 35 1 10 1 4 
1 22 1 16 2 -33 1 -33 1 11 1 -7 1 17 1 19 
1 -12 1 16 1 0 1 -16 1 -29 1 25 1 6 1 0 
1 0 2 7 1 2 1 2 1 -7 1 19 1 -9 1 3 
1 37 1 -10 1 26 1 -11 1 7 1 11 1 16 1 -50 
2 19 1 25 1 -37 1 1 1 1 1 -6 1 40 1 29 
1 -74 1 25 1 -25 1 49 1 0 1 73 1 -137 2 -26 
1 4 1 -4 1 3 1 -6 1 -7 1 6 1 -2 1 0 
1 0 1 7 1 7 1 1 1 -12 1 0 1 1 2 0 
1 16 1 0 1 7 1 -8 1 -12 1 -1 1 5 1 -5 
1 0 1 0 1 -12 1 5 1 8 1 26 2 -20 1 -21 
1 18 1 10 1 14 1716 2846 100 MP stroke
1 116 1 -5 1 11 1 -8 1 29 1 -13 1 -11 1 -8 
1 12 1 -11 2 -1 1 4 1 95 1 -18 1 29 1 -11 
1 -30 1 0 1 0 1 0 1 0 1 0 1 0 1 0 
1 23 2 51 1 -120 1 -22 1 2 1 -2 1 -1 1 3 
1 18 1 -3 1 10 1 -13 1 -15 1 5 1 3 1 16 
2 -2 1 11 1 -9 1 -12 1 -8 1 -5 1 9 1 -5 
1 16 1 1 1 20 1 45 1 20 1 6 1 -60 2 -19 
1 -12 1 0 1 4 1 8 1 25 1 8 1 0 1 6 
1 0 1 -2 1 -2 1 -1 1 -20 1 13 2 7 1 15 
1 5 1 -5 1 -21 1 23 1 -5 1 4 1 14 1 13 
1 -10 1 2 1 -10 1 5 1 8 1 -9 2 -17 1 23 
1 -2 1 -9 1 28 1 0 1 -13 1 2 1 4 1 -5 
1 20 1 5 1 48 1611 2556 100 MP stroke
1 9 1 -17 2 6 1 2 1 -42 1 21 1 -17 1 0 
1 -6 1 8 1 1 1 -24 1 40 1 50 1 -71 1 -4 
1 -10 2 -10 1 -4 1 -12 1 -1 1 9 1 -39 1 16 
1 63 1 -7 1 -20 1 -8 1 1 1 13 1 -14 1 4 
2 16 1 -6 1 -8 1 23 1 18 1 4 1 -1 1 -15 
1 -18 1 -26 1 68 1 48 1 4 1 -20 1 9 2 7 
1 -4 1 -17 1 -48 1 2 1 133 1 0 1 0 1 0 
1 0 1 0 1 0 1 0 1 0 1 0 2 -34 1 23 
1 1 1 -27 1 17 1 -11 1 29 1 -26 1 23 1 -66 
1 21 1 28 1 31 1 -207 1 -1 2 -38 1 -14 1 7 
1 24 1 16 1 -40 1 27 1 -18 1 29 1 10 1 6 
1 -6 1 47 1 -59 1 9 2 42 1 4 1 9 1 16 
1 -12 1 -1 1 1 1505 2590 100 MP stroke
1 30 1 28 1 70 1 -29 1 39 1 -18 1 -5 1 3 
1 -8 2 -27 1 42 1 -64 1 41 1 -9 1 26 1 -12 
1 -15 1 20 1 -18 1 5 1 24 1 15 1 15 1 36 
2 4 1 16 1 -4 1 -17 1 17 1 9 1 88 1 19 
1 70 1 -37 1 -49 1 3 1 27 1 -6 1 28 2 2 
1 -21 1 -20 1 8 1 31 1 33 1 54 1 -67 1 -9 
1 -4 1 -19 1 -7 1 -36 1 10 1 38 2 20 1 -61 
1 -30 1 7 1 17 1 -4 1 -20 1 7 1 -18 1 -15 
1 -9 1 37 1 -30 1 23 1 -3 2 100 1 9 1 -35 
1 24 1 -12 1 -24 1 9 1 -1 1 47 1 56 1 -19 
1 -38 1 -52 1 0 1 0 2 0 1 0 1 0 1 -47 
1 -21 1 11 1 -23 1 -18 1 2 1 -6 1 -21 1 8 
1 12 1 -9 1 -19 1400 2386 100 MP stroke
2 35 1 -10 1 25 1 49 1 -29 1 -24 1 -19 1 12 
1 -21 1 35 1 15 1 -30 1 7 1 15 1 26 1 23 
2 -10 1 -49 1 -49 1 46 1 -180 1 23 1 3 1 20 
1 -62 1 21 1 11 1 122 1 46 1 -9 1 -10 2 -17 
1 11 1 33 1 -20 1 30 1 -46 1 5 1 50 1 53 
1 19 1 -43 1 -118 1 -64 1 -15 1 20 2 1 1 -69 
1 15 1 5 1 -17 1 3 1 -3 1 18 1 18 1 6 
1 -2 1 9 1 15 1 13 1 4 2 16 1 52 1 -8 
1 -9 1 26 1 18 1 -10 1 -38 1 12 1 -8 1 12 
1 -19 1 19 1 -56 1 38 2 0 1 15 1 25 1 -6 
1 -16 1 8 1 -59 1 -69 1 -37 1 162 1 -34 1 132 
1 36 1 2 1 11 2 -38 1 -27 1 13 1 168 1 -1 
1 4 1 -7 1 10 1294 2103 100 MP stroke
1 -4 1 2 1 15 1 -6 1 -45 1 42 1 -53 2 -18 
1 22 1 22 1 -2 1 -38 1 10 1 2 1 -35 1 -38 
1 26 1 17 1 -24 1 -12 1 32 1 -34 2 12 1 -8 
1 86 1 55 1 9 1 -22 1 -21 1 82 1 62 1 53 
1 -31 1 42 1 -215 1 62 1 0 1 -47 2 -10 1 -64 
1 18 1 18 1 31 1 -142 1 -65 1 -26 1 -9 1 37 
1 -57 1 -25 1 18 1 -49 1 -47 2 -16 1 -19 1 -3 
1 11 1 15 1 16 1 -14 1 15 1 -24 1 -21 1 -14 
1 -3 1 21 1 11 1 23 2 -17 1 24 1 2 1 5 
1 30 1 -37 1 39 1 -42 1 13 1 -2 1 20 1 22 
1 -22 1 5 1 -4 2 2 1 47 1 -11 1 29 1 24 
1 66 1 4 1 -15 1 2 1 68 1 20 1 30 1 -47 
1 4 1 -38 2 52 1188 2204 100 MP stroke
1 -3 1 -20 1 1 1 7 1 -14 1 -46 1 -48 1 -18 
1 6 1 -10 1 35 1 5 1 64 1 35 2 -19 1 -14 
1 17 1 13 1 -28 1 30 1 1 1 60 1 53 1 -57 
1 -18 1 12 1 -9 1 91 1 -11 2 15 1 -7 1 -13 
1 -112 1 -45 1 85 1 -12 1 -164 1 85 1 7 1 27 
1 49 1 -8 1 -13 1 37 1 -27 2 6 1 10 1 -2 
1 -76 1 -39 1 94 1 18 1 67 1 -101 1 22 1 -42 
1 18 1 -18 1 1 1 0 2 -63 1 -7 1 -51 1 29 
1 -9 1 -37 1 5 1 -24 1 104 1 77 1 84 1 -65 
1 -77 1 -36 1 -27 2 -27 1 7 1 -5 1 12 1 -107 
1 82 1 -78 1 -16 1 2 1 14 1 37 1 -16 1 12 
1 -32 1 -17 2 29 1 126 1 7 1 9 1 -26 1 -4 
1 27 1 -9 1 -5 1083 2302 100 MP stroke
1 -6 1 -6 1 9 1 36 1 33 1 6 2 1 1 -2 
1 -5 1 56 1 6 1 -58 1 17 1 2 1 48 1 15 
1 -19 1 -21 1 66 1 72 1 13 2 86 1 1 1 25 
1 -18 1 -21 1 -1 1 6 1 46 1 -43 1 29 1 -33 
1 23 1 -8 1 -28 1 25 2 -36 1 1 1 -66 1 -24 
1 73 1 -2 1 26 1 4 1 -18 1 -6 1 -15 1 59 
1 3 1 9 1 1 2 -32 1 15 1 -76 1 12 1 18 
1 -12 1 71 1 25 1 8 1 -3 1 12 1 -15 1 65 
1 -12 1 -14 1 -164 2 -36 1 22 1 97 1 32 1 20 
1 -90 1 11 1 62 1 3 1 76 1 9 1 -68 1 -4 
1 30 1 48 2 25 1 34 1 -19 1 8 1 46 1 1 
1 -4 1 -27 1 23 1 8 1 -6 1 9 1 -70 1 -38 
1 56 2 76 1 -34 977 1743 100 MP stroke
1 -41 1 10 1 1 1 -86 1 -1 1 54 1 -53 1 27 
1 110 1 -10 1 -17 1 40 1 3 2 -46 1 -78 1 4 
1 -80 1 -43 1 198 1 -23 1 51 1 19 1 -24 1 -96 
1 50 1 56 1 23 1 22 2 -32 1 -8 1 -22 1 361 
1 53 1 -70 1 85 1 177 1 -23 1 29 1 19 1 10 
1 -43 1 19 1 -20 2 -25 1 -33 1 169 1 -18 1 47 
1 19 1 5 1 -9 1 32 1 -34 1 56 1 -1 1 -25 
1 18 1 -19 2 0 1 -8 1 -3 1 -9 1 28 1 6 
1 25 1 34 1 78 1 41 1 23 1 23 1 15 1 -11 
1 12 900 702 74 MP stroke
gr

c10

end %%Color Dict

eplot
%%EndObject

epage
end

showpage

%%Trailer
%%EOF
