\relax 
\@writefile{toc}{\contentsline {paragraph}{Preamble}{1}}
\@writefile{lof}{\contentsline {figure}{\numberline {1}{\ignorespaces Some financial data.}}{1}}
\newlabel{fig:findat}{{1}{1}}
\@writefile{toc}{\contentsline {paragraph}{Direct 1-d solutions}{2}}
\@writefile{toc}{\contentsline {paragraph}{Spectral estimates}{2}}
\@writefile{toc}{\contentsline {paragraph}{Cross-regression}{2}}
\@writefile{toc}{\contentsline {paragraph}{Regularisation}{2}}
