\relax 
\providecommand{\transparent@use}[1]{}
\providecommand\hyper@newdestlabel[2]{}
\providecommand\HyperFirstAtBeginDocument{\AtBeginDocument}
\HyperFirstAtBeginDocument{\ifx\hyper@anchor\@undefined
\global\let\oldcontentsline\contentsline
\gdef\contentsline#1#2#3#4{\oldcontentsline{#1}{#2}{#3}}
\global\let\oldnewlabel\newlabel
\gdef\newlabel#1#2{\newlabelxx{#1}#2}
\gdef\newlabelxx#1#2#3#4#5#6{\oldnewlabel{#1}{{#2}{#3}}}
\AtEndDocument{\ifx\hyper@anchor\@undefined
\let\contentsline\oldcontentsline
\let\newlabel\oldnewlabel
\fi}
\fi}
\global\let\hyper@last\relax 
\gdef\HyperFirstAtBeginDocument#1{#1}
\providecommand\HyField@AuxAddToFields[1]{}
\providecommand\HyField@AuxAddToCoFields[2]{}
\@writefile{toc}{\contentsline {section}{State space models (Lectures 5 and 6)}{1}{section*.1}}
\@writefile{toc}{\contentsline {subsection}{Part 1 - Adaptive Linear Regression}{1}{section*.2}}
\@writefile{lof}{\contentsline {figure}{\numberline {1}{\ignorespaces Noisy data}}{1}{figure.1}}
\transparent@use{1}
\transparent@use{1}
\@writefile{toc}{\contentsline {subsection}{Part 2 - Tracking}{2}{section*.3}}
\@writefile{lof}{\contentsline {figure}{\numberline {2}{\ignorespaces Boat track}}{2}{figure.2}}
\@writefile{toc}{\contentsline {subsubsection}{Design of KF}{3}{section*.4}}
\@writefile{toc}{\contentsline {subsection}{Part 3 - Lagged Kalman Filter}{3}{section*.5}}
